%YAML 1.1
%TAG !u! tag:unity3d.com,2011:
--- !u!114 &11400000
MonoBehaviour:
  m_ObjectHideFlags: 0
  m_CorrespondingSourceObject: {fileID: 0}
  m_PrefabInstance: {fileID: 0}
  m_PrefabAsset: {fileID: 0}
  m_GameObject: {fileID: 0}
  m_Enabled: 1
  m_EditorHideFlags: 0
  m_Script: {fileID: 11500000, guid: f2b8ec8027053c14f960d70359828345, type: 3}
  m_Name: Eyemonster2_Map_Presentation
  m_EditorClassIdentifier: 
  _HiddenIdentifier: b7c3263a-dae7-4e57-8635-377d389c4403
  Identifier: Generated_Eyemonster2
  BigSprite: {fileID: 0}
  MapSprite: {fileID: 1192150100924684478, guid: ddef825dbb682b0408eb99be0edf025f,
    type: 3}
  AnimatorController: {fileID: 22100000, guid: a31a6d6086da8ba4b9101a0e1e6b4649, type: 2}
  Teleporter: 0
  persona: {fileID: 0}
  NametagSmall: {fileID: 0}
  NametagLarge: {fileID: 0}
  IconBackingSmall: {fileID: 0}
  IconBackingSmallSelected: {fileID: 0}
  IconBackingLarge: {fileID: 0}
  StickyNotes: []
  heartSprites: {fileID: 0}
  GhostPresentation: {fileID: 0}
  StarSprite: {fileID: 0}
  NametagSticky: {fileID: 0}
  Complexity: 0
