%YAML 1.1
%TAG !u! tag:unity3d.com,2011:
--- !u!114 &11400000
MonoBehaviour:
  m_ObjectHideFlags: 0
  m_CorrespondingSourceObject: {fileID: 0}
  m_PrefabInstance: {fileID: 0}
  m_PrefabAsset: {fileID: 0}
  m_GameObject: {fileID: 0}
  m_Enabled: 1
  m_EditorHideFlags: 0
  m_Script: {fileID: 11500000, guid: 41b28f323a73fa346a3aa7e427b3081e, type: 3}
  m_Name: Gale
  m_EditorClassIdentifier: 
  _HiddenIdentifier: 8c67626d-2ad1-4eb3-a25a-52d753e12d28
  Identifier: galenpc
  prefab: {fileID: 6912539990945122068, guid: 0c9fd21c79cc8e748b180c2a96f7e334, type: 3}
  Message: 
