%YAML 1.1
%TAG !u! tag:unity3d.com,2011:
--- !u!114 &11400000
MonoBehaviour:
  m_ObjectHideFlags: 0
  m_CorrespondingSourceObject: {fileID: 0}
  m_PrefabInstance: {fileID: 0}
  m_PrefabAsset: {fileID: 0}
  m_GameObject: {fileID: 0}
  m_Enabled: 1
  m_EditorHideFlags: 0
  m_Script: {fileID: 11500000, guid: 8e325d8d50a348f498bef9766a846f23, type: 3}
  m_Name: Jasper
  m_EditorClassIdentifier: 
  _HiddenIdentifier: a9bd2df6-d8a2-479f-89c6-a36e34264ea6
  Identifier: Jasper
  SpeechClips:
  - {fileID: 8300000, guid: 007a47e89f4b9ce4893943eb1023f876, type: 3}
  DefaultOffset: 0
  Offsets: 01000000020000000300000005000000
  ContainerSprite: {fileID: 6755594561522053818, guid: 838a9bc92806ee849bb34f2b854a5457,
    type: 3}
  TextColor: {r: 0.07286485, g: 0.241, b: 0.026359376, a: 0.87058824}
  DefaultPortrait: {fileID: 21300000, guid: 05369df22c07cc347afe7f80ed2a5a3a, type: 3}
  _PortraitData: []
