%YAML 1.1
%TAG !u! tag:unity3d.com,2011:
--- !u!114 &11400000
MonoBehaviour:
  m_ObjectHideFlags: 0
  m_CorrespondingSourceObject: {fileID: 0}
  m_PrefabInstance: {fileID: 0}
  m_PrefabAsset: {fileID: 0}
  m_GameObject: {fileID: 0}
  m_Enabled: 1
  m_EditorHideFlags: 0
  m_Script: {fileID: 11500000, guid: f2b8ec8027053c14f960d70359828345, type: 3}
  m_Name: IllusionaryPig_Map_Presentation
  m_EditorClassIdentifier: 
  _HiddenIdentifier: e080f8ac-282c-40ca-bc41-897501c97d85
  Identifier: Generated_IllusionaryPig
  BigSprite: {fileID: 0}
  MapSprite: {fileID: -750533979210221890, guid: b9201dc8a3944b2408fe2f0236eb834b,
    type: 3}
  AnimatorController: {fileID: 22100000, guid: 88d5bbc8e60baf94289d3bd88b1c8a70, type: 2}
  Teleporter: 0
  persona: {fileID: 0}
  NametagSmall: {fileID: 0}
  NametagLarge: {fileID: 0}
  IconBackingSmall: {fileID: -1502195605702621555, guid: ba1dc43b902473847a7763d515a6edae,
    type: 3}
  IconBackingSmallSelected: {fileID: -5444067579515011535, guid: e2dcf9d25cb123240b0b8a3aa3b128dd,
    type: 3}
  IconBackingLarge: {fileID: 0}
  StickyNotes: []
  heartSprites: {fileID: 0}
  GhostPresentation: {fileID: 0}
  StarSprite: {fileID: 0}
  NametagSticky: {fileID: 0}
  Complexity: 0
