%YAML 1.1
%TAG !u! tag:unity3d.com,2011:
--- !u!114 &11400000
MonoBehaviour:
  m_ObjectHideFlags: 0
  m_CorrespondingSourceObject: {fileID: 0}
  m_PrefabInstance: {fileID: 0}
  m_PrefabAsset: {fileID: 0}
  m_GameObject: {fileID: 0}
  m_Enabled: 1
  m_EditorHideFlags: 0
  m_Script: {fileID: 11500000, guid: f2b8ec8027053c14f960d70359828345, type: 3}
  m_Name: Stalker1_Map_Presentation
  m_EditorClassIdentifier: 
  _HiddenIdentifier: 6016f116-a6c9-4e56-85d4-cd4efee24b89
  Identifier: Generated_Stalker1
  BigSprite: {fileID: 0}
  MapSprite: {fileID: 2389856339642955073, guid: 2e4c564385c68834984e6f5dc4ab3025,
    type: 3}
  AnimatorController: {fileID: 22100000, guid: 026908ab9ba2d954ebb2efd1d2311961, type: 2}
  Teleporter: 1
  persona: {fileID: 0}
  NametagSmall: {fileID: 0}
  NametagLarge: {fileID: 0}
  IconBackingSmall: {fileID: 0}
  IconBackingSmallSelected: {fileID: 0}
  IconBackingLarge: {fileID: 0}
  StickyNotes: []
  heartSprites: {fileID: 0}
  GhostPresentation: {fileID: 0}
  StarSprite: {fileID: 0}
  NametagSticky: {fileID: 0}
  Complexity: 0
