%YAML 1.1
%TAG !u! tag:unity3d.com,2011:
--- !u!221 &22100000
AnimatorOverrideController:
  m_ObjectHideFlags: 0
  m_CorrespondingSourceObject: {fileID: 0}
  m_PrefabInstance: {fileID: 0}
  m_PrefabAsset: {fileID: 0}
  m_Name: Stalker1_Overrides
  m_Controller: {fileID: 9100000, guid: 7a5ffeaa03ecb2241836fdf29e0e24a8, type: 2}
  m_Clips:
  - m_OriginalClip: {fileID: 7400000, guid: 260fee49625f0ea448ee7fc767d5d192, type: 2}
    m_OverrideClip: {fileID: 7400000, guid: 8edf6fe54e5c99345898e898bdfdc904, type: 2}
  - m_OriginalClip: {fileID: 7400000, guid: a273764eae197774aa125520754da724, type: 2}
    m_OverrideClip: {fileID: 7400000, guid: 3b0f0e18635b1184aa29e6797594c2c4, type: 2}
  - m_OriginalClip: {fileID: 7400000, guid: f4b4ec5c201292f40a0e0d2c630fcab8, type: 2}
    m_OverrideClip: {fileID: 7400000, guid: 94688f2b62a89c340aaef81130d78666, type: 2}
  - m_OriginalClip: {fileID: 7400000, guid: 2c50c66858f745442a35c2735506db03, type: 2}
    m_OverrideClip: {fileID: 7400000, guid: a4db466da151eb544a3b893057030b7b, type: 2}
  - m_OriginalClip: {fileID: 7400000, guid: 02d6cecd0f43b11479342fff5ddd740f, type: 2}
    m_OverrideClip: {fileID: 7400000, guid: 5f49441dcfacd7a4d88a544cafa09020, type: 2}
  - m_OriginalClip: {fileID: 7400000, guid: a81cb08168e89594b8c4b793cbc00ee8, type: 2}
    m_OverrideClip: {fileID: 7400000, guid: bd90822d739885940a3eafae50107114, type: 2}
  - m_OriginalClip: {fileID: 7400000, guid: 6b7c08f38e77d2d4cb2a9249e0e6d822, type: 2}
    m_OverrideClip: {fileID: 7400000, guid: 17f7bfde6ca6ea943b7748bf51e5d1df, type: 2}
  - m_OriginalClip: {fileID: 7400000, guid: 535c499f488ce3c4988f47d18820bc12, type: 2}
    m_OverrideClip: {fileID: 7400000, guid: b6f56d4a89ff54c4295d616e7c70384a, type: 2}
  - m_OriginalClip: {fileID: 7400000, guid: 7bfc62403b7e5c34795aa9f88cb4fbc3, type: 2}
    m_OverrideClip: {fileID: 7400000, guid: f2010037c84a46a4495eccc60b978da8, type: 2}
  - m_OriginalClip: {fileID: 7400000, guid: 2a26542c3e6d0154da25ae3f59cf6ca9, type: 2}
    m_OverrideClip: {fileID: 7400000, guid: f2010037c84a46a4495eccc60b978da8, type: 2}
  - m_OriginalClip: {fileID: 7400000, guid: 8704da3c091fba049a78bf50172f8ffa, type: 2}
    m_OverrideClip: {fileID: 7400000, guid: f2010037c84a46a4495eccc60b978da8, type: 2}
  - m_OriginalClip: {fileID: 7400000, guid: 2b826aca1684a6341877c2c1f0fbe330, type: 2}
    m_OverrideClip: {fileID: 7400000, guid: f2010037c84a46a4495eccc60b978da8, type: 2}
  - m_OriginalClip: {fileID: 7400000, guid: da3391724722e324a80cab581795ff16, type: 2}
    m_OverrideClip: {fileID: 7400000, guid: 5c3c4d61d3ab09a428951dcd8d38931d, type: 2}
  - m_OriginalClip: {fileID: 7400000, guid: 56299fd46cbc8e541983bd95d995af33, type: 2}
    m_OverrideClip: {fileID: 7400000, guid: 1e30d37c8f9f4954494f66429f1f1f91, type: 2}
  - m_OriginalClip: {fileID: 7400000, guid: 31e924a12a80a5c4f82ac1b82d54ce13, type: 2}
    m_OverrideClip: {fileID: 7400000, guid: 4c53f1e675900024587731c3f37d8855, type: 2}
