%YAML 1.1
%TAG !u! tag:unity3d.com,2011:
--- !u!114 &11400000
MonoBehaviour:
  m_ObjectHideFlags: 0
  m_CorrespondingSourceObject: {fileID: 0}
  m_PrefabInstance: {fileID: 0}
  m_PrefabAsset: {fileID: 0}
  m_GameObject: {fileID: 0}
  m_Enabled: 1
  m_EditorHideFlags: 0
  m_Script: {fileID: 11500000, guid: d4276654c5d110e4e99281773998bd9e, type: 3}
  m_Name: Amoeba
  m_EditorClassIdentifier: 
  _HiddenIdentifier: d8227fa1-ac12-47d7-a78f-4f9eca239e87
  Identifier: 
  Data:
    presentation: {fileID: 11400000, guid: cdb23a09160470843a24e5d52e41e808, type: 2}
    Identifier: Amoeba
    CharacterName: Amoeba
    Description: Its body consists of many thin layers that keep it insulated against
      the heat. It peels off these layers and throws them at enemies to protect itself.
    CurrentLevel: 0
    pos: {x: 0, y: 0}
    IntrinsicTalents:
    - {fileID: 11400000, guid: 204438324201df54ab01abd882407b1e, type: 2}
    - {fileID: 11400000, guid: 5a3aab009a7a20846beca67da84f2725, type: 2}
    - {fileID: 11400000, guid: 08b3a171bfeee964d890de6286aa87a0, type: 2}
    inventory: []
    Spent: 0
    Friendly: 0
    currentDamage: 0
    DoesNotAct: 0
    Unaware: 0
    StartsUnaware: 1
    UnawareAnimatorName: Unaware
    HasDeathQuote: 0
    MaxHP: 9
    Movement: 5
    Strength: 0
    Armor: 0
    BaseNoise: 3
    BaseAlertness: 0
    Strategy: {fileID: 11400000, guid: 6f55a688338620349b42a312d63c9ae0, type: 2}
    UnitPrefab: {fileID: 0}
    Mobility: 0
    CannotRaise: 0
    KnifeLocations: []
    CurrentBuffs: []
    currentQuote: 
    Complexity: 1
    IsCat: 0
  AlternateCostumes:
  - {fileID: 11400000, guid: f9d17a84aafdab841b27b2eed4a9f1d7, type: 2}
  - {fileID: 11400000, guid: 035e9c63ee404c3498abb91b59d94f7f, type: 2}
  SelectableCharacter: 0
  DebugDisabled: 0
  weight: 100
  Boss: 0
