%YAML 1.1
%TAG !u! tag:unity3d.com,2011:
--- !u!114 &11400000
MonoBehaviour:
  m_ObjectHideFlags: 0
  m_CorrespondingSourceObject: {fileID: 0}
  m_PrefabInstance: {fileID: 0}
  m_PrefabAsset: {fileID: 0}
  m_GameObject: {fileID: 0}
  m_Enabled: 1
  m_EditorHideFlags: 0
  m_Script: {fileID: 11500000, guid: 9d1514134bc4fbd41bb739b1b9a49231, type: 3}
  m_Name: Town Water
  m_EditorClassIdentifier: 
  m_DefaultSprite: {fileID: 3951882055986324002, guid: aa9486a7ea7c4fd44aa8a105a3a29721,
    type: 3}
  m_DefaultGameObject: {fileID: 0}
  m_DefaultColliderType: 2
  m_UseUnscaledTime: 0
  m_TilingRules:
  - m_Id: 0
    m_Sprites:
    - {fileID: 8012318114681274258, guid: aa9486a7ea7c4fd44aa8a105a3a29721, type: 3}
    - {fileID: 6216722198577081218, guid: aa9486a7ea7c4fd44aa8a105a3a29721, type: 3}
    - {fileID: 7078039790316730341, guid: aa9486a7ea7c4fd44aa8a105a3a29721, type: 3}
    m_GameObject: {fileID: 0}
    m_AnimationSpeed: 4
    m_PerlinScale: 0.5
    m_Output: 2
    m_ColliderType: 2
    m_RandomTransform: 0
    m_Neighbors: 02000000010000000100000001000000
    m_NeighborPositions:
    - {x: -1, y: 0, z: 0}
    - {x: 0, y: 1, z: 0}
    - {x: 0, y: -1, z: 0}
    - {x: 1, y: 0, z: 0}
    m_RuleTransform: 0
  - m_Id: 1
    m_Sprites:
    - {fileID: -3832585662184209582, guid: aa9486a7ea7c4fd44aa8a105a3a29721, type: 3}
    - {fileID: 1328621484177280428, guid: aa9486a7ea7c4fd44aa8a105a3a29721, type: 3}
    - {fileID: -3635700134771163674, guid: aa9486a7ea7c4fd44aa8a105a3a29721, type: 3}
    m_GameObject: {fileID: 0}
    m_AnimationSpeed: 4
    m_PerlinScale: 0.5
    m_Output: 2
    m_ColliderType: 2
    m_RandomTransform: 0
    m_Neighbors: 01000000010000000100000002000000
    m_NeighborPositions:
    - {x: -1, y: 0, z: 0}
    - {x: 0, y: 1, z: 0}
    - {x: 0, y: -1, z: 0}
    - {x: 1, y: 0, z: 0}
    m_RuleTransform: 0
  - m_Id: 2
    m_Sprites:
    - {fileID: -6273224382760973459, guid: aa9486a7ea7c4fd44aa8a105a3a29721, type: 3}
    - {fileID: -2604387533750519228, guid: aa9486a7ea7c4fd44aa8a105a3a29721, type: 3}
    - {fileID: -6856316268993846112, guid: aa9486a7ea7c4fd44aa8a105a3a29721, type: 3}
    m_GameObject: {fileID: 0}
    m_AnimationSpeed: 4
    m_PerlinScale: 0.5
    m_Output: 2
    m_ColliderType: 2
    m_RandomTransform: 0
    m_Neighbors: 0200000002000000010000000100000001000000
    m_NeighborPositions:
    - {x: -1, y: 0, z: 0}
    - {x: 0, y: 1, z: 0}
    - {x: 0, y: -1, z: 0}
    - {x: 1, y: 0, z: 0}
    - {x: 1, y: -1, z: 0}
    m_RuleTransform: 0
  - m_Id: 3
    m_Sprites:
    - {fileID: 1515192426299213555, guid: aa9486a7ea7c4fd44aa8a105a3a29721, type: 3}
    - {fileID: -5750572900276263669, guid: aa9486a7ea7c4fd44aa8a105a3a29721, type: 3}
    - {fileID: -5564993704492322670, guid: aa9486a7ea7c4fd44aa8a105a3a29721, type: 3}
    m_GameObject: {fileID: 0}
    m_AnimationSpeed: 4
    m_PerlinScale: 0.5
    m_Output: 2
    m_ColliderType: 2
    m_RandomTransform: 0
    m_Neighbors: 0100000001000000010000000200000002000000
    m_NeighborPositions:
    - {x: 0, y: -1, z: 0}
    - {x: -1, y: 0, z: 0}
    - {x: -1, y: -1, z: 0}
    - {x: 0, y: 1, z: 0}
    - {x: 1, y: 0, z: 0}
    m_RuleTransform: 0
  - m_Id: 4
    m_Sprites:
    - {fileID: -3936461485944524211, guid: aa9486a7ea7c4fd44aa8a105a3a29721, type: 3}
    - {fileID: 7329964230806374083, guid: aa9486a7ea7c4fd44aa8a105a3a29721, type: 3}
    - {fileID: 1982873419150270046, guid: aa9486a7ea7c4fd44aa8a105a3a29721, type: 3}
    m_GameObject: {fileID: 0}
    m_AnimationSpeed: 4
    m_PerlinScale: 0.5
    m_Output: 2
    m_ColliderType: 1
    m_RandomTransform: 0
    m_Neighbors: 02000000010000000100000001000000
    m_NeighborPositions:
    - {x: 0, y: 1, z: 0}
    - {x: -1, y: 0, z: 0}
    - {x: 1, y: 0, z: 0}
    - {x: 0, y: -1, z: 0}
    m_RuleTransform: 0
  - m_Id: 5
    m_Sprites:
    - {fileID: 2099150868997103102, guid: aa9486a7ea7c4fd44aa8a105a3a29721, type: 3}
    - {fileID: 832876424117097538, guid: aa9486a7ea7c4fd44aa8a105a3a29721, type: 3}
    - {fileID: -6624493711092984666, guid: aa9486a7ea7c4fd44aa8a105a3a29721, type: 3}
    m_GameObject: {fileID: 0}
    m_AnimationSpeed: 4
    m_PerlinScale: 0.5
    m_Output: 2
    m_ColliderType: 2
    m_RandomTransform: 0
    m_Neighbors: 01000000010000000100000002000000
    m_NeighborPositions:
    - {x: -1, y: 0, z: 0}
    - {x: 0, y: 1, z: 0}
    - {x: 1, y: 0, z: 0}
    - {x: 0, y: -1, z: 0}
    m_RuleTransform: 0
  - m_Id: 6
    m_Sprites:
    - {fileID: -672953373049984973, guid: aa9486a7ea7c4fd44aa8a105a3a29721, type: 3}
    - {fileID: 5758563500227498216, guid: aa9486a7ea7c4fd44aa8a105a3a29721, type: 3}
    - {fileID: 4086000024367192673, guid: aa9486a7ea7c4fd44aa8a105a3a29721, type: 3}
    m_GameObject: {fileID: 0}
    m_AnimationSpeed: 4
    m_PerlinScale: 0.5
    m_Output: 2
    m_ColliderType: 2
    m_RandomTransform: 0
    m_Neighbors: 01000000010000000200000002000000
    m_NeighborPositions:
    - {x: 0, y: 1, z: 0}
    - {x: 1, y: 0, z: 0}
    - {x: -1, y: 0, z: 0}
    - {x: 0, y: -1, z: 0}
    m_RuleTransform: 0
  - m_Id: 7
    m_Sprites:
    - {fileID: -2319408533311031715, guid: aa9486a7ea7c4fd44aa8a105a3a29721, type: 3}
    - {fileID: 2718515962709359487, guid: aa9486a7ea7c4fd44aa8a105a3a29721, type: 3}
    - {fileID: 6070496765968506722, guid: aa9486a7ea7c4fd44aa8a105a3a29721, type: 3}
    m_GameObject: {fileID: 0}
    m_AnimationSpeed: 4
    m_PerlinScale: 0.5
    m_Output: 2
    m_ColliderType: 2
    m_RandomTransform: 0
    m_Neighbors: 01000000010000000200000002000000
    m_NeighborPositions:
    - {x: -1, y: 0, z: 0}
    - {x: 0, y: 1, z: 0}
    - {x: 1, y: 0, z: 0}
    - {x: 0, y: -1, z: 0}
    m_RuleTransform: 0
  - m_Id: 8
    m_Sprites:
    - {fileID: 3143444078650685473, guid: aa9486a7ea7c4fd44aa8a105a3a29721, type: 3}
    - {fileID: 2721315151837292464, guid: aa9486a7ea7c4fd44aa8a105a3a29721, type: 3}
    - {fileID: 4957408726025632359, guid: aa9486a7ea7c4fd44aa8a105a3a29721, type: 3}
    m_GameObject: {fileID: 0}
    m_AnimationSpeed: 4
    m_PerlinScale: 0.5
    m_Output: 2
    m_ColliderType: 2
    m_RandomTransform: 0
    m_Neighbors: 020000000100000001000000
    m_NeighborPositions:
    - {x: 1, y: -1, z: 0}
    - {x: 0, y: -1, z: 0}
    - {x: 1, y: 0, z: 0}
    m_RuleTransform: 0
  - m_Id: 10
    m_Sprites:
    - {fileID: 7625861060328235909, guid: aa9486a7ea7c4fd44aa8a105a3a29721, type: 3}
    - {fileID: -7999413352248820537, guid: aa9486a7ea7c4fd44aa8a105a3a29721, type: 3}
    - {fileID: -2705537562012556360, guid: aa9486a7ea7c4fd44aa8a105a3a29721, type: 3}
    m_GameObject: {fileID: 0}
    m_AnimationSpeed: 4
    m_PerlinScale: 0.5
    m_Output: 2
    m_ColliderType: 2
    m_RandomTransform: 0
    m_Neighbors: 020000000100000001000000
    m_NeighborPositions:
    - {x: -1, y: -1, z: 0}
    - {x: 0, y: -1, z: 0}
    - {x: -1, y: 0, z: 0}
    m_RuleTransform: 0
  - m_Id: 13
    m_Sprites:
    - {fileID: 4174243736437442864, guid: aa9486a7ea7c4fd44aa8a105a3a29721, type: 3}
    - {fileID: -2157203958057664316, guid: aa9486a7ea7c4fd44aa8a105a3a29721, type: 3}
    - {fileID: -8538578228285276109, guid: aa9486a7ea7c4fd44aa8a105a3a29721, type: 3}
    m_GameObject: {fileID: 0}
    m_AnimationSpeed: 4
    m_PerlinScale: 0.5
    m_Output: 2
    m_ColliderType: 2
    m_RandomTransform: 0
    m_Neighbors: 020000000100000001000000
    m_NeighborPositions:
    - {x: 1, y: 1, z: 0}
    - {x: 0, y: 1, z: 0}
    - {x: 1, y: 0, z: 0}
    m_RuleTransform: 0
  - m_Id: 9
    m_Sprites:
    - {fileID: -8462379370947048442, guid: aa9486a7ea7c4fd44aa8a105a3a29721, type: 3}
    - {fileID: -8970326126489693532, guid: aa9486a7ea7c4fd44aa8a105a3a29721, type: 3}
    - {fileID: -7004033457413005036, guid: aa9486a7ea7c4fd44aa8a105a3a29721, type: 3}
    m_GameObject: {fileID: 0}
    m_AnimationSpeed: 4
    m_PerlinScale: 0.5
    m_Output: 2
    m_ColliderType: 1
    m_RandomTransform: 0
    m_Neighbors: 020000000100000001000000
    m_NeighborPositions:
    - {x: -1, y: 1, z: 0}
    - {x: -1, y: 0, z: 0}
    - {x: 0, y: 1, z: 0}
    m_RuleTransform: 0
  - m_Id: 11
    m_Sprites:
    - {fileID: 3951882055986324002, guid: aa9486a7ea7c4fd44aa8a105a3a29721, type: 3}
    m_GameObject: {fileID: 0}
    m_AnimationSpeed: 4
    m_PerlinScale: 0.5
    m_Output: 2
    m_ColliderType: 1
    m_RandomTransform: 0
    m_Neighbors: 0100000001000000010000000100000001000000010000000100000001000000
    m_NeighborPositions:
    - {x: -1, y: 0, z: 0}
    - {x: 0, y: 1, z: 0}
    - {x: 1, y: 0, z: 0}
    - {x: 0, y: -1, z: 0}
    - {x: -1, y: -1, z: 0}
    - {x: 1, y: -1, z: 0}
    - {x: 1, y: 1, z: 0}
    - {x: -1, y: 1, z: 0}
    m_RuleTransform: 0
