%YAML 1.1
%TAG !u! tag:unity3d.com,2011:
--- !u!114 &11400000
MonoBehaviour:
  m_ObjectHideFlags: 0
  m_CorrespondingSourceObject: {fileID: 0}
  m_PrefabInstance: {fileID: 0}
  m_PrefabAsset: {fileID: 0}
  m_GameObject: {fileID: 0}
  m_Enabled: 1
  m_EditorHideFlags: 0
  m_Script: {fileID: 11500000, guid: aa2b6f5c25fe8f44b89e0b56856297c1, type: 3}
  m_Name: Bash
  m_EditorClassIdentifier: 
  _HiddenIdentifier: e239cc28-3a5e-4f4a-a04b-ef6b67b791a1
  Identifier: 
  StackingMethod: 0
  sprite: {fileID: 0}
  TalentName: Stab
  ShownAsBuff: 0
  CanBeAwardedAsPrize: 0
  Description: 
  FlavorText: 
  MapDecorator: {fileID: 0}
  Upgrade: {fileID: 0}
  TicksDownOccupied: 1
  TicksDownUnoccupied: 0
  BlocksMovement: 0
  RequiresNoMovement: 0
  UsesPerRoom: 0
  cooldown: 0
  OverrideCooldownName: 
  _Consumable: 0
  MinRange: 1
  MaxRange: 1
  onHit:
    NumberOfHits: 1
    Damage: 3
    Drain: 0
    Knockback: 0
    TargetStatus:
      buff: {fileID: 0}
      stacks: 0
    AnimatorController: {fileID: 9100000, guid: 7a8e50a311967c54f92e982ed5797742,
      type: 2}
    TriggersShake: 1
    TriggersOnAttackCallback: 1
    Radius: 0
    SFX: {fileID: 8300000, guid: 29e84a4f51027514a82f26f11a2909a6, type: 3}
    DrainSFX: {fileID: 0}
    InstantKill: 0
    Nonlethal: 0
    ResetCooldowns: 0
    CanHitSelf: 1
    Projectile: {fileID: 0}
    AttackAnimatorParameter: Attack
    OverrideKBDirection: {x: 0, y: 0}
    Weaknesses: []
  TargetEmptyTiles: 0
  TargetFriendlyUnits: 0
  TargetHostileUnit: 1
  CanHitSelf: 0
  animPool: {fileID: 0}
