%YAML 1.1
%TAG !u! tag:unity3d.com,2011:
--- !u!114 &11400000
MonoBehaviour:
  m_ObjectHideFlags: 0
  m_CorrespondingSourceObject: {fileID: 0}
  m_PrefabInstance: {fileID: 0}
  m_PrefabAsset: {fileID: 0}
  m_GameObject: {fileID: 0}
  m_Enabled: 1
  m_EditorHideFlags: 0
  m_Script: {fileID: 11500000, guid: d4276654c5d110e4e99281773998bd9e, type: 3}
  m_Name: Fishy
  m_EditorClassIdentifier: 
  _HiddenIdentifier: 4c87fcf3-8079-4523-a18b-08ae72072ad2
  Identifier: 
  Data:
    presentation: {fileID: 11400000, guid: bfd6007090c63d241871241dfd36c18b, type: 2}
    Identifier: 
    CharacterName: Fish
    Description: A slippery aquatic creature that shoots a stream of bubbles from
      its mouth. It prefers to attack its enemies from afar.
    CurrentLevel: 0
    pos: {x: 0, y: 0}
    IntrinsicTalents:
    - {fileID: 11400000, guid: ac80e997246a5794e8b3a816f22fbc4f, type: 2}
    inventory: []
    Spent: 0
    Friendly: 0
    currentDamage: 0
    DoesNotAct: 0
    Unaware: 0
    StartsUnaware: 1
    UnawareAnimatorName: Unaware
    HasDeathQuote: 0
    MaxHP: 12
    Movement: 5
    Strength: 0
    Armor: 0
    BaseNoise: 3
    BaseAlertness: 0
    Strategy: {fileID: 11400000, guid: 3ac099ce1d275b347aac173f5140d7e9, type: 2}
    UnitPrefab: {fileID: 0}
    Mobility: 0
    CannotRaise: 0
    KnifeLocations: []
    CurrentBuffs: []
    currentQuote: 
    Complexity: 1
    IsCat: 0
  AlternateCostumes:
  - {fileID: 11400000, guid: 735c3c28063e1cb44bcdf0ec36843f08, type: 2}
  - {fileID: 11400000, guid: bd783aa877c8cdf4aac27a47cccb468f, type: 2}
  SelectableCharacter: 0
  DebugDisabled: 0
  weight: 100
  Boss: 0
