%YAML 1.1
%TAG !u! tag:unity3d.com,2011:
--- !u!74 &7400000
AnimationClip:
  m_ObjectHideFlags: 0
  m_CorrespondingSourceObject: {fileID: 0}
  m_PrefabInstance: {fileID: 0}
  m_PrefabAsset: {fileID: 0}
  m_Name: Rat3_Idle_R_Generated
  serializedVersion: 6
  m_Legacy: 0
  m_Compressed: 0
  m_UseHighQualityCurve: 1
  m_RotationCurves: []
  m_CompressedRotationCurves: []
  m_EulerCurves: []
  m_PositionCurves: []
  m_ScaleCurves: []
  m_FloatCurves: []
  m_PPtrCurves:
  - curve:
    - time: 0
      value: {fileID: -1570447027808103936, guid: 45b83b32415cffb40ae033f0d4d7fe80,
        type: 3}
    - time: 0.25
      value: {fileID: -1570447027808103936, guid: 45b83b32415cffb40ae033f0d4d7fe80,
        type: 3}
    - time: 0.5
      value: {fileID: -1570447027808103936, guid: 45b83b32415cffb40ae033f0d4d7fe80,
        type: 3}
    - time: 0.75
      value: {fileID: -1570447027808103936, guid: 45b83b32415cffb40ae033f0d4d7fe80,
        type: 3}
    - time: 1
      value: {fileID: -1570447027808103936, guid: 45b83b32415cffb40ae033f0d4d7fe80,
        type: 3}
    - time: 1.25
      value: {fileID: -1570447027808103936, guid: 45b83b32415cffb40ae033f0d4d7fe80,
        type: 3}
    - time: 1.5
      value: {fileID: -4467965278057238940, guid: 45b83b32415cffb40ae033f0d4d7fe80,
        type: 3}
    - time: 1.75
      value: {fileID: 6186195840766774251, guid: 45b83b32415cffb40ae033f0d4d7fe80,
        type: 3}
    - time: 2
      value: {fileID: 3197591094521405868, guid: 45b83b32415cffb40ae033f0d4d7fe80,
        type: 3}
    - time: 2.25
      value: {fileID: 7394656636634537376, guid: 45b83b32415cffb40ae033f0d4d7fe80,
        type: 3}
    - time: 2.5
      value: {fileID: -1298847657865783454, guid: 45b83b32415cffb40ae033f0d4d7fe80,
        type: 3}
    - time: 2.75
      value: {fileID: 2397492072895937317, guid: 45b83b32415cffb40ae033f0d4d7fe80,
        type: 3}
    - time: 3.5
      value: {fileID: 3512853564281615921, guid: 45b83b32415cffb40ae033f0d4d7fe80,
        type: 3}
    - time: 3.75
      value: {fileID: -2176957602272948070, guid: 45b83b32415cffb40ae033f0d4d7fe80,
        type: 3}
    - time: 4
      value: {fileID: 8160049238600366986, guid: 45b83b32415cffb40ae033f0d4d7fe80,
        type: 3}
    - time: 4.25
      value: {fileID: 1771067696913228091, guid: 45b83b32415cffb40ae033f0d4d7fe80,
        type: 3}
    - time: 4.5
      value: {fileID: 2007489186500689135, guid: 45b83b32415cffb40ae033f0d4d7fe80,
        type: 3}
    - time: 4.75
      value: {fileID: -3218679121042131324, guid: 45b83b32415cffb40ae033f0d4d7fe80,
        type: 3}
    attribute: m_Sprite
    path: Sprite
    classID: 212
    script: {fileID: 0}
  m_SampleRate: 4
  m_WrapMode: 0
  m_Bounds:
    m_Center: {x: 0, y: 0, z: 0}
    m_Extent: {x: 0, y: 0, z: 0}
  m_ClipBindingConstant:
    genericBindings:
    - serializedVersion: 2
      path: 850496168
      attribute: 0
      script: {fileID: 0}
      typeID: 212
      customType: 23
      isPPtrCurve: 1
    pptrCurveMapping:
    - {fileID: -1570447027808103936, guid: 45b83b32415cffb40ae033f0d4d7fe80, type: 3}
    - {fileID: -1570447027808103936, guid: 45b83b32415cffb40ae033f0d4d7fe80, type: 3}
    - {fileID: -1570447027808103936, guid: 45b83b32415cffb40ae033f0d4d7fe80, type: 3}
    - {fileID: -1570447027808103936, guid: 45b83b32415cffb40ae033f0d4d7fe80, type: 3}
    - {fileID: -1570447027808103936, guid: 45b83b32415cffb40ae033f0d4d7fe80, type: 3}
    - {fileID: -1570447027808103936, guid: 45b83b32415cffb40ae033f0d4d7fe80, type: 3}
    - {fileID: -4467965278057238940, guid: 45b83b32415cffb40ae033f0d4d7fe80, type: 3}
    - {fileID: 6186195840766774251, guid: 45b83b32415cffb40ae033f0d4d7fe80, type: 3}
    - {fileID: 3197591094521405868, guid: 45b83b32415cffb40ae033f0d4d7fe80, type: 3}
    - {fileID: 7394656636634537376, guid: 45b83b32415cffb40ae033f0d4d7fe80, type: 3}
    - {fileID: -1298847657865783454, guid: 45b83b32415cffb40ae033f0d4d7fe80, type: 3}
    - {fileID: 2397492072895937317, guid: 45b83b32415cffb40ae033f0d4d7fe80, type: 3}
    - {fileID: 3512853564281615921, guid: 45b83b32415cffb40ae033f0d4d7fe80, type: 3}
    - {fileID: -2176957602272948070, guid: 45b83b32415cffb40ae033f0d4d7fe80, type: 3}
    - {fileID: 8160049238600366986, guid: 45b83b32415cffb40ae033f0d4d7fe80, type: 3}
    - {fileID: 1771067696913228091, guid: 45b83b32415cffb40ae033f0d4d7fe80, type: 3}
    - {fileID: 2007489186500689135, guid: 45b83b32415cffb40ae033f0d4d7fe80, type: 3}
    - {fileID: -3218679121042131324, guid: 45b83b32415cffb40ae033f0d4d7fe80, type: 3}
  m_AnimationClipSettings:
    serializedVersion: 2
    m_AdditiveReferencePoseClip: {fileID: 0}
    m_AdditiveReferencePoseTime: 0
    m_StartTime: 0
    m_StopTime: 5
    m_OrientationOffsetY: 0
    m_Level: 0
    m_CycleOffset: 0
    m_HasAdditiveReferencePose: 0
    m_LoopTime: 1
    m_LoopBlend: 0
    m_LoopBlendOrientation: 0
    m_LoopBlendPositionY: 0
    m_LoopBlendPositionXZ: 0
    m_KeepOriginalOrientation: 0
    m_KeepOriginalPositionY: 1
    m_KeepOriginalPositionXZ: 0
    m_HeightFromFeet: 0
    m_Mirror: 0
  m_EditorCurves: []
  m_EulerEditorCurves: []
  m_HasGenericRootTransform: 0
  m_HasMotionFloatCurves: 0
  m_Events: []
