%YAML 1.1
%TAG !u! tag:unity3d.com,2011:
--- !u!114 &11400000
MonoBehaviour:
  m_ObjectHideFlags: 0
  m_CorrespondingSourceObject: {fileID: 0}
  m_PrefabInstance: {fileID: 0}
  m_PrefabAsset: {fileID: 0}
  m_GameObject: {fileID: 0}
  m_Enabled: 1
  m_EditorHideFlags: 0
  m_Script: {fileID: 11500000, guid: beeaa02346a0f654ca20616b0d701e8f, type: 3}
  m_Name: Chasm Pool 5
  m_EditorClassIdentifier: 
  _HiddenIdentifier: 7919d183-5bfa-469c-814e-63bf72ea4f4f
  Identifier: 
  DesiredCapacity: 1
  IncreasedCapacityPerFrame: 0
  opm: {fileID: 0}
  prefab: {fileID: 4297629776664693559, guid: 712f52ed233c84843a572246d1e53545, type: 3}
