%YAML 1.1
%TAG !u! tag:unity3d.com,2011:
--- !u!114 &11400000
MonoBehaviour:
  m_ObjectHideFlags: 0
  m_CorrespondingSourceObject: {fileID: 0}
  m_PrefabInstance: {fileID: 0}
  m_PrefabAsset: {fileID: 0}
  m_GameObject: {fileID: 0}
  m_Enabled: 1
  m_EditorHideFlags: 0
  m_Script: {fileID: 11500000, guid: f2b8ec8027053c14f960d70359828345, type: 3}
  m_Name: Raven_Map_Presentation
  m_EditorClassIdentifier: 
  _HiddenIdentifier: 7f5ee38d-da4a-45e8-8384-0ecc2ddbc3d6
  Identifier: Generated_Raven
  BigSprite: {fileID: 0}
  MapSprite: {fileID: 2877757635300241990, guid: d2e2b12353572c14a87c892dc6ee427c,
    type: 3}
  AnimatorController: {fileID: 22100000, guid: f81e03dfaf18fc24cafe3ab13901d476, type: 2}
  Teleporter: 0
  persona: {fileID: 0}
  NametagSmall: {fileID: 0}
  NametagLarge: {fileID: 0}
  IconBackingSmall: {fileID: 0}
  IconBackingSmallSelected: {fileID: 0}
  IconBackingLarge: {fileID: 0}
  StickyNotes: []
  heartSprites: {fileID: 0}
  GhostPresentation: {fileID: 0}
  StarSprite: {fileID: 0}
  NametagSticky: {fileID: 0}
  Complexity: 0
