%YAML 1.1
%TAG !u! tag:unity3d.com,2011:
--- !u!114 &11400000
MonoBehaviour:
  m_ObjectHideFlags: 0
  m_CorrespondingSourceObject: {fileID: 0}
  m_PrefabInstance: {fileID: 0}
  m_PrefabAsset: {fileID: 0}
  m_GameObject: {fileID: 0}
  m_Enabled: 1
  m_EditorHideFlags: 0
  m_Script: {fileID: 11500000, guid: d4276654c5d110e4e99281773998bd9e, type: 3}
  m_Name: Mole
  m_EditorClassIdentifier: 
  _HiddenIdentifier: 3894fdbb-10a3-4cf0-a4b2-c2eeb57a879e
  Identifier: 
  Data:
    presentation: {fileID: 11400000, guid: 0cedb2e40af8a614cb162d1c29369cfe, type: 2}
    Identifier: 
    CharacterName: Mole
    Description: It can tunnel for hours without needing food or water. A large group
      of them can make tunnel networks hundreds of miles long.
    CurrentLevel: 0
    pos: {x: 0, y: 0}
    IntrinsicTalents:
    - {fileID: 11400000, guid: 204438324201df54ab01abd882407b1e, type: 2}
    inventory: []
    Spent: 0
    Friendly: 0
    currentDamage: 0
    DoesNotAct: 0
    Unaware: 0
    StartsUnaware: 1
    UnawareAnimatorName: Unaware
    HasDeathQuote: 0
    MaxHP: 10
    Movement: 5
    Strength: 0
    Armor: 0
    BaseNoise: 3
    BaseAlertness: 0
    Strategy: {fileID: 11400000, guid: 6f55a688338620349b42a312d63c9ae0, type: 2}
    UnitPrefab: {fileID: 0}
    Mobility: 0
    CannotRaise: 0
    KnifeLocations: []
    CurrentBuffs: []
    currentQuote: 
    Complexity: 1
    IsCat: 0
  AlternateCostumes: []
  SelectableCharacter: 0
  DebugDisabled: 1
  weight: 100
  Boss: 0
