%YAML 1.1
%TAG !u! tag:unity3d.com,2011:
--- !u!114 &11400000
MonoBehaviour:
  m_ObjectHideFlags: 0
  m_CorrespondingSourceObject: {fileID: 0}
  m_PrefabInstance: {fileID: 0}
  m_PrefabAsset: {fileID: 0}
  m_GameObject: {fileID: 0}
  m_Enabled: 1
  m_EditorHideFlags: 0
  m_Script: {fileID: 11500000, guid: 6cab789d27c83b542bb75065df9ebe19, type: 3}
  m_Name: Nytmur Zone BOSS WIN
  m_EditorClassIdentifier: 
  _HiddenIdentifier: 9d7fb70a-3a11-4c64-bd32-6272524cd46d
  Identifier: NytmurIntro
  SetupScript: '

    FADE 0,0'
  Script: 'SPAWN ending1, 0, 0, im1

    FADE 1,3

    FADE 0,1

    SPAWN ending2,
    0, 0, im2

    CLEAR im1

    FADE 1,1

    WAIT 2

    FADE 0,1

    SPAWN ending3,
    0, 0, im3

    CLEAR im2

    FADE 1,1

    WAIT 2

    SPAWN ending4, 0, 0,
    im4

    CLEAR im3

    WAIT 2

    SPAWN ending5, 0, 0, im5

    CLEAR im4

    WAIT
    3

    FADE 0, 5'
