%YAML 1.1
%TAG !u! tag:unity3d.com,2011:
--- !u!114 &11400000
MonoBehaviour:
  m_ObjectHideFlags: 0
  m_CorrespondingSourceObject: {fileID: 0}
  m_PrefabInstance: {fileID: 0}
  m_PrefabAsset: {fileID: 0}
  m_GameObject: {fileID: 0}
  m_Enabled: 1
  m_EditorHideFlags: 0
  m_Script: {fileID: 11500000, guid: 6cab789d27c83b542bb75065df9ebe19, type: 3}
  m_Name: Nytmur Zone BOSS Intro
  m_EditorClassIdentifier: 
  _HiddenIdentifier: 95cfdea0-b577-472f-a1b7-fdc48b59fde3
  Identifier: NytmurIntro
  SetupScript: 'SPAWN NytmurBossMap, 4, 2, map

    CHAR $p1, -1, -8, c1

    CHAR
    $p2, -1, -9, c2

    CHAR $p3, 0, -8, c3

    CHAR $p4, 0, -9, c4

    SPAWN
    Flame, 0, 0, lastflame

    MUSIC nytmurtheme'
  Script: 'MOVEF* c1, nnnn, 0.65

    MOVEF* c2, nnnn, 0.65

    MOVEF* c3, nnnn,
    0.65

    MOVEF c4, nnnn, 0.65

    WAIT 1.75


    MOVEC 0,2, 5

    EFFECT
    Glow, -0.5, 3, f

    CHAR Nytmur, -1, 3, nytmur


    SAY Nytmur:cutscenes.nytmurzone.bossintro.1


    SAY
    $p1:cutscenes.nytmurzone.bossintro.$p1

    SAY $p2:cutscenes.nytmurzone.bossintro.$p2

    SAY
    $p3:cutscenes.nytmurzone.bossintro.$p3

    SAY $p4:cutscenes.nytmurzone.bossintro.$p4


    MOVE*
    c1,w

    MOVE* c2,n

    MOVE* c3,e

    MOVE c4,n


    FADEW 0,0.5

    CLEAR
    lastflame

    SPAWN Flame, -1.5, -2.5, f1

    SPAWN Flame, 1.5, -2.5, f2

    SPAWN
    Flame, -0.5, -2.5, f3

    SPAWN Flame, 0.5, -2.5, f4

    FADEW 1, 0.25


    FADEW
    0,3

    SOUND woosh

    WAIT 0.5

    SOUND nytmurlaugh

    CLEAR f1

    CLEAR
    f2

    CLEAR f3

    CLEAR f4

    FADEW 1, 1


    SAY Nytmur:cutscenes.nytmurzone.bossintro.2

    SAY
    Nytmur:cutscenes.nytmurzone.bossintro.3'
