%YAML 1.1
%TAG !u! tag:unity3d.com,2011:
--- !u!114 &11400000
MonoBehaviour:
  m_ObjectHideFlags: 0
  m_CorrespondingSourceObject: {fileID: 0}
  m_PrefabInstance: {fileID: 0}
  m_PrefabAsset: {fileID: 0}
  m_GameObject: {fileID: 0}
  m_Enabled: 1
  m_EditorHideFlags: 0
  m_Script: {fileID: 11500000, guid: 6cab789d27c83b542bb75065df9ebe19, type: 3}
  m_Name: Nytmur Zone BOSS Interlude(NOLOOP)
  m_EditorClassIdentifier: 
  _HiddenIdentifier: 6c1b809b-c848-45c1-9c4a-adc2e2e335df
  Identifier: NytmurIntro
  SetupScript: 'SPAWN NytmurBossMap, 4, 2, map

    CHAR $p1, -1, -4, c1

    CHAR
    $p2, -1, -5, c2

    CHAR $p3, 0, -4, c3

    CHAR $p4, 0, -5, c4

    CHAR Nytmur,
    -1, 3, nytmur

    MUSIC nytmurtheme'
  Script: 'WAIT 0.01

    MOVEC 0,2,0


    SAY Nytmur:cutscenes.nytmurzone.loop.1

    WAIT
    1.5

    SAY Nytmur:cutscenes.nytmurzone.loop.2

    WAIT 0.5

    SOUND woosh

    FADEW
    0, 0.25

    SEPIA 1

    SHAKE* 5

    FADEW 1, 0.25

    WAIT 0.25

    FADE
    0,3

    SAY_RAW All:NO!


    SEPIA 0

    FADE 1,0

    SOUND woosh

    SHAKE*
    3

    SPAWN Flame, -3, -3, f1

    WAIT 1


    SOUND woosh

    SHAKE* 3

    SPAWN
    Flame, 3, -3, f2

    WAIT 1


    SOUND woosh

    SHAKE* 3

    SPAWN Flame,
    3, 3.5, f3

    WAIT 1


    SOUND woosh

    SHAKE* 3

    SPAWN Flame, -3,
    3.5, f4

    WAIT 1


    SHAKE* 5

    FADEW 0, 4

    CLEAR f1

    CLEAR f2

    CLEAR
    f3

    CLEAR f4


    FADE 1,0.5


    SAY Nytmur:cutscenes.nytmurzone.noloop.1

    SAY
    $p1:cutscenes.nytmurzone.noloop.$p1

    SAY $p2:cutscenes.nytmurzone.noloop.$p2

    SAY
    $p3:cutscenes.nytmurzone.noloop.$p3

    SAY $p4:cutscenes.nytmurzone.noloop.$p4


    WAIT
    0.5

    SAY Nytmur:cutscenes.nytmurzone.noloop.2

    WAIT 0.5

    SAY Nytmur:cutscenes.nytmurzone.noloop.3

    WAIT
    1

    SOUND nytmurlaugh

    PLAY nytmur,Transform

    WAIT 1.5'
