%YAML 1.1
%TAG !u! tag:unity3d.com,2011:
--- !u!114 &11400000
MonoBehaviour:
  m_ObjectHideFlags: 0
  m_CorrespondingSourceObject: {fileID: 0}
  m_PrefabInstance: {fileID: 0}
  m_PrefabAsset: {fileID: 0}
  m_GameObject: {fileID: 0}
  m_Enabled: 1
  m_EditorHideFlags: 0
  m_Script: {fileID: 11500000, guid: 6cab789d27c83b542bb75065df9ebe19, type: 3}
  m_Name: Nytmur Zone BOSS Interlude(LOOP)
  m_EditorClassIdentifier: 
  _HiddenIdentifier: 2e86da32-a7b2-44e3-b4a2-f6f33eea5389
  Identifier: NytmurIntro
  SetupScript: 'SPAWN NytmurBossMap, 4, 2, map

    CHAR $p1, -1, -4, c1

    CHAR
    $p2, -1, -5, c2

    CHAR $p3, 0, -4, c3

    CHAR $p4, 0, -5, c4

    CHAR Nytmur,
    -1, 3, nytmur

    MUSIC nytmurtheme'
  Script: 'WAIT 0.01

    MOVEC 0,2,0


    SAY Nytmur:cutscenes.nytmurzone.loop.1

    WAIT
    1.5

    SAY Nytmur:cutscenes.nytmurzone.loop.2

    WAIT 0.5

    SOUND woosh

    FADEW
    0, 0.25

    SEPIA 1

    SHAKE* 5

    FADEW 1, 0.25

    WAIT 0.25

    FADE
    0,3


    MUSIC MeetingSpotMusic

    TELE c1,-2, 4

    TELE c2,3,6

    TELE
    c3,-1,5

    TELE c4,0,3


    MOVEC 0,-2,0

    SPAWN Campsite, 0, 0, ms

    SPAWN
    Bonfire, 0, 0, bonfire

    CLEAR map


    DECHAR nytmur

    SEPIA 0


    FADE
    1,1


    WAIT 2


    SAY $p1:cutscenes.nytmurzone.loop.$p1

    SAY $p2:cutscenes.nytmurzone.loop.$p2

    SAY
    $p3:cutscenes.nytmurzone.loop.$p3

    SAY $p4:cutscenes.nytmurzone.loop.$p4


    WAIT
    2


    MOVE* c1,nnnnnnnnnn,0.75

    MOVE* c2,nnnnnnnnnn,0.75

    MOVE* c3,nnnnnnnnnn,0.75

    MOVE
    c4,nnnnnnnnnn,0.75


    SAY_RAW Narrator:To defeat Nytmur, you''ll need to bring
    a team that have all unlocked their supports with Nytmur. One of your teammates
    has unlocked their support, now.

'
