%YAML 1.1
%TAG !u! tag:unity3d.com,2011:
--- !u!114 &11400000
MonoBehaviour:
  m_ObjectHideFlags: 0
  m_CorrespondingSourceObject: {fileID: 0}
  m_PrefabInstance: {fileID: 0}
  m_PrefabAsset: {fileID: 0}
  m_GameObject: {fileID: 0}
  m_Enabled: 1
  m_EditorHideFlags: 0
  m_Script: {fileID: 11500000, guid: f2b8ec8027053c14f960d70359828345, type: 3}
  m_Name: Bat3_Map_Presentation
  m_EditorClassIdentifier: 
  _HiddenIdentifier: 67036d08-ea25-492f-8c07-d7eec79bcfb6
  Identifier: Generated_Bat3
  BigSprite: {fileID: 0}
  MapSprite: {fileID: -7482678979373752086, guid: 2bcdf9d1eebfa7843bcf24b112693e31,
    type: 3}
  AnimatorController: {fileID: 22100000, guid: 17c55d86297f8604d9233dc9d2371045, type: 2}
  Teleporter: 0
  persona: {fileID: 0}
  NametagSmall: {fileID: 0}
  NametagLarge: {fileID: 0}
  IconBackingSmall: {fileID: 0}
  IconBackingSmallSelected: {fileID: 0}
  IconBackingLarge: {fileID: 0}
  StickyNotes: []
  heartSprites: {fileID: 0}
  GhostPresentation: {fileID: 0}
  StarSprite: {fileID: 0}
  NametagSticky: {fileID: 0}
  Complexity: 0
