%YAML 1.1
%TAG !u! tag:unity3d.com,2011:
--- !u!114 &11400000
MonoBehaviour:
  m_ObjectHideFlags: 0
  m_CorrespondingSourceObject: {fileID: 0}
  m_PrefabInstance: {fileID: 0}
  m_PrefabAsset: {fileID: 0}
  m_GameObject: {fileID: 0}
  m_Enabled: 1
  m_EditorHideFlags: 0
  m_Script: {fileID: 11500000, guid: f2b8ec8027053c14f960d70359828345, type: 3}
  m_Name: Mudfrog3_Map_Presentation
  m_EditorClassIdentifier: 
  _HiddenIdentifier: c2ec3202-fabf-4c17-abff-a26a8b46682a
  Identifier: Generated_Mudfrog3
  BigSprite: {fileID: 0}
  MapSprite: {fileID: -2520124910738005274, guid: 76b31f2417d4d5a44a4028eba4bfbfa6,
    type: 3}
  AnimatorController: {fileID: 22100000, guid: 6f46599f3face964383a156be45bb7f9, type: 2}
  Teleporter: 1
  persona: {fileID: 0}
  NametagSmall: {fileID: 0}
  NametagLarge: {fileID: 0}
  IconBackingSmall: {fileID: 0}
  IconBackingSmallSelected: {fileID: 0}
  IconBackingLarge: {fileID: 0}
  StickyNotes: []
  heartSprites: {fileID: 0}
  GhostPresentation: {fileID: 0}
  StarSprite: {fileID: 0}
  NametagSticky: {fileID: 0}
  Complexity: 0
