%YAML 1.1
%TAG !u! tag:unity3d.com,2011:
--- !u!114 &11400000
MonoBehaviour:
  m_ObjectHideFlags: 0
  m_CorrespondingSourceObject: {fileID: 0}
  m_PrefabInstance: {fileID: 0}
  m_PrefabAsset: {fileID: 0}
  m_GameObject: {fileID: 0}
  m_Enabled: 1
  m_EditorHideFlags: 0
  m_Script: {fileID: 11500000, guid: f2b8ec8027053c14f960d70359828345, type: 3}
  m_Name: Stingray3_Map_Presentation
  m_EditorClassIdentifier: 
  _HiddenIdentifier: 7491ee25-639b-4ec9-939b-18bc551abb0e
  Identifier: Generated_Stingray3
  BigSprite: {fileID: 0}
  MapSprite: {fileID: -7149505925548714321, guid: a974d76e814ef7f4a991be2355aa2766,
    type: 3}
  AnimatorController: {fileID: 22100000, guid: 57f38f5cf99074f45a9149d9b1262f65, type: 2}
  Teleporter: 0
  persona: {fileID: 0}
  NametagSmall: {fileID: 0}
  NametagLarge: {fileID: 0}
  IconBackingSmall: {fileID: 0}
  IconBackingSmallSelected: {fileID: 0}
  IconBackingLarge: {fileID: 0}
  StickyNotes: []
  heartSprites: {fileID: 0}
  GhostPresentation: {fileID: 0}
  StarSprite: {fileID: 0}
  NametagSticky: {fileID: 0}
  Complexity: 0
