%YAML 1.1
%TAG !u! tag:unity3d.com,2011:
--- !u!221 &22100000
AnimatorOverrideController:
  m_ObjectHideFlags: 0
  m_CorrespondingSourceObject: {fileID: 0}
  m_PrefabInstance: {fileID: 0}
  m_PrefabAsset: {fileID: 0}
  m_Name: Painting3_Overrides
  m_Controller: {fileID: 9100000, guid: 794e73b68cf50314f80355886c8098b3, type: 2}
  m_Clips:
  - m_OriginalClip: {fileID: 7400000, guid: 2fa792e1d8edb7e488a6532929a3014c, type: 2}
    m_OverrideClip: {fileID: 7400000, guid: f61c268699177b541bded82f437d7ed3, type: 2}
  - m_OriginalClip: {fileID: 7400000, guid: 63d7e22ce8309664c86e7ef6c980af44, type: 2}
    m_OverrideClip: {fileID: 7400000, guid: f5f11a4b87d373643aa07596af365657, type: 2}
  - m_OriginalClip: {fileID: 7400000, guid: 5f4a0e6243164904591cc7b083bf551c, type: 2}
    m_OverrideClip: {fileID: 7400000, guid: 2def2065bed84f64f84034ddd9a5675c, type: 2}
  - m_OriginalClip: {fileID: 7400000, guid: 30a85f460e3b657409e4b23c14218cdd, type: 2}
    m_OverrideClip: {fileID: 7400000, guid: d0902533ca7dd5f4fba079249e7acf75, type: 2}
  - m_OriginalClip: {fileID: 7400000, guid: 260fee49625f0ea448ee7fc767d5d192, type: 2}
    m_OverrideClip: {fileID: 7400000, guid: cf527e5bc2967c949bb1bbe4e317cfd6, type: 2}
  - m_OriginalClip: {fileID: 7400000, guid: a273764eae197774aa125520754da724, type: 2}
    m_OverrideClip: {fileID: 7400000, guid: eb16daf3f48ff1d4f91a51804298b9a5, type: 2}
  - m_OriginalClip: {fileID: 7400000, guid: f4b4ec5c201292f40a0e0d2c630fcab8, type: 2}
    m_OverrideClip: {fileID: 7400000, guid: d2bef04110fde3c479fd17b7b182cf3f, type: 2}
  - m_OriginalClip: {fileID: 7400000, guid: 2c50c66858f745442a35c2735506db03, type: 2}
    m_OverrideClip: {fileID: 7400000, guid: d9621db85edf6b54e9779bd869434c2b, type: 2}
  - m_OriginalClip: {fileID: 7400000, guid: 02d6cecd0f43b11479342fff5ddd740f, type: 2}
    m_OverrideClip: {fileID: 7400000, guid: f246cebd20d55744cbc6d75680d4673b, type: 2}
  - m_OriginalClip: {fileID: 7400000, guid: a81cb08168e89594b8c4b793cbc00ee8, type: 2}
    m_OverrideClip: {fileID: 7400000, guid: 0258832212dfb9b4fb324a3adcdcf752, type: 2}
  - m_OriginalClip: {fileID: 7400000, guid: 6b7c08f38e77d2d4cb2a9249e0e6d822, type: 2}
    m_OverrideClip: {fileID: 7400000, guid: 5ab6c92fdb7bd7a449e7d41aca81c20a, type: 2}
  - m_OriginalClip: {fileID: 7400000, guid: 535c499f488ce3c4988f47d18820bc12, type: 2}
    m_OverrideClip: {fileID: 7400000, guid: 262231c4839f710419f156469cb29a65, type: 2}
  - m_OriginalClip: {fileID: 7400000, guid: 7bfc62403b7e5c34795aa9f88cb4fbc3, type: 2}
    m_OverrideClip: {fileID: 7400000, guid: 24b2f04c4b0e819429151dedcd1376d3, type: 2}
  - m_OriginalClip: {fileID: 7400000, guid: 2a26542c3e6d0154da25ae3f59cf6ca9, type: 2}
    m_OverrideClip: {fileID: 7400000, guid: 6d28beb0da99d324792ad4dcf468cea2, type: 2}
  - m_OriginalClip: {fileID: 7400000, guid: 8704da3c091fba049a78bf50172f8ffa, type: 2}
    m_OverrideClip: {fileID: 7400000, guid: 2391720bb4e82d14d9dccf12b9848900, type: 2}
  - m_OriginalClip: {fileID: 7400000, guid: 2b826aca1684a6341877c2c1f0fbe330, type: 2}
    m_OverrideClip: {fileID: 7400000, guid: 9659f90c5d4ecb54599b841c3083e47c, type: 2}
