%YAML 1.1
%TAG !u! tag:unity3d.com,2011:
--- !u!114 &11400000
MonoBehaviour:
  m_ObjectHideFlags: 0
  m_CorrespondingSourceObject: {fileID: 0}
  m_PrefabInstance: {fileID: 0}
  m_PrefabAsset: {fileID: 0}
  m_GameObject: {fileID: 0}
  m_Enabled: 1
  m_EditorHideFlags: 0
  m_Script: {fileID: 11500000, guid: beeaa02346a0f654ca20616b0d701e8f, type: 3}
  m_Name: Heal Tile Effect Pool
  m_EditorClassIdentifier: 
  _HiddenIdentifier: eb16b347-dfb5-4cd5-8d09-603bc3b41a8c
  Identifier: 
  DesiredCapacity: 5
  IncreasedCapacityPerFrame: 0
  opm: {fileID: 0}
  prefab: {fileID: 4297629776664693559, guid: 32f17de82480f74489e635f326b49b04, type: 3}
