%YAML 1.1
%TAG !u! tag:unity3d.com,2011:
--- !u!114 &11400000
MonoBehaviour:
  m_ObjectHideFlags: 0
  m_CorrespondingSourceObject: {fileID: 0}
  m_PrefabInstance: {fileID: 0}
  m_PrefabAsset: {fileID: 0}
  m_GameObject: {fileID: 0}
  m_Enabled: 1
  m_EditorHideFlags: 0
  m_Script: {fileID: 11500000, guid: 1065dc1cc53675145931dbf46f6cecc3, type: 3}
  m_Name: Chasm Status 7
  m_EditorClassIdentifier: 
  _HiddenIdentifier: 53b2ed40-589a-4f29-b657-67c05e510e5c
  Identifier: 
  StackingMethod: 0
  sprite: {fileID: 0}
  TalentName: 
  ShownAsBuff: 0
  CanBeAwardedAsPrize: 0
  Description: Chasm
  FlavorText: 
  MapDecorator: {fileID: 11400000, guid: a21e2bf84f7379648abd2cf54022fa60, type: 2}
  Upgrade: {fileID: 0}
  TicksDownOccupied: 1
  TicksDownUnoccupied: 1
  BlocksMovement: 1
  Modifiers: []
  InvisibleOffsets:
  - {x: 0, y: 1}
  - {x: 1, y: 0}
  - {x: 1, y: -1}
