%YAML 1.1
%TAG !u! tag:unity3d.com,2011:
--- !u!114 &11400000
MonoBehaviour:
  m_ObjectHideFlags: 0
  m_CorrespondingSourceObject: {fileID: 0}
  m_PrefabInstance: {fileID: 0}
  m_PrefabAsset: {fileID: 0}
  m_GameObject: {fileID: 0}
  m_Enabled: 1
  m_EditorHideFlags: 0
  m_Script: {fileID: 11500000, guid: d254e6b52433d3a46a23512b18252ee3, type: 3}
  m_Name: Dad
  m_EditorClassIdentifier: 
  _HiddenIdentifier: b27991ce-e23f-43ad-9d80-d6c68a5e2136
  Identifier: Dad
  Data:
    presentation: {fileID: 11400000, guid: 3791de031ce3835478e3911aa0284904, type: 2}
    Identifier: Dad
    CharacterName: Dad
    Description: "Dad is a minor healer and buffer who can support allies with all
      kinds of adjustments. He\u2019s an eager jokester who adores his two daughters.\r"
    CurrentLevel: 0
    pos: {x: 0, y: 0}
    IntrinsicTalents:
    - {fileID: 11400000, guid: 204438324201df54ab01abd882407b1e, type: 2}
    - {fileID: 11400000, guid: 120bc0d6f3a225344a479794978f1f7e, type: 2}
    - {fileID: 11400000, guid: 92f18d82c26be314cb00a3e4fac3b6f7, type: 2}
    inventory: []
    Spent: 0
    Friendly: 0
    currentDamage: 0
    DoesNotAct: 0
    Unaware: 0
    StartsUnaware: 1
    UnawareAnimatorName: Unaware
    HasDeathQuote: 1
    MaxHP: 20
    Movement: 5
    Strength: 0
    Armor: 0
    BaseNoise: 3
    BaseAlertness: 0
    Strategy: {fileID: 0}
    UnitPrefab: {fileID: 0}
    Mobility: 0
    CannotRaise: 0
    KnifeLocations: []
    CurrentBuffs: []
    currentQuote: 
    Complexity: 1
    IsCat: 0
  AlternateCostumes: []
  SelectableCharacter: 1
