%YAML 1.1
%TAG !u! tag:unity3d.com,2011:
--- !u!114 &11400000
MonoBehaviour:
  m_ObjectHideFlags: 0
  m_CorrespondingSourceObject: {fileID: 0}
  m_PrefabInstance: {fileID: 0}
  m_PrefabAsset: {fileID: 0}
  m_GameObject: {fileID: 0}
  m_Enabled: 1
  m_EditorHideFlags: 0
  m_Script: {fileID: 11500000, guid: 725979cec91c7fb47a370590b22daeff, type: 3}
  m_Name: Duct Tape Buff
  m_EditorClassIdentifier: 
  _HiddenIdentifier: b9203519-d2ec-4aa5-bea8-f18c5dd7f9ff
  Identifier: 
  StackingMethod: 0
  sprite: {fileID: 1558120017376494892, guid: ba1dc43b902473847a7763d515a6edae, type: 3}
  TalentName: Duct Tape Fortified
  ShownAsBuff: 0
  CanBeAwardedAsPrize: 0
  Description: Weak spots have been reinforced with duct tape increasing defense
    but lowering movement speed.
  FlavorText: 
  MapDecorator: {fileID: 0}
  Upgrade: {fileID: 0}
  TicksDownOccupied: 1
  TicksDownUnoccupied: 0
  BlocksMovement: 0
  Modifiers:
  - Stat: Armor
    modifier: 1
  - Stat: Movement
    modifier: -1
