%YAML 1.1
%TAG !u! tag:unity3d.com,2011:
--- !u!114 &11400000
MonoBehaviour:
  m_ObjectHideFlags: 0
  m_CorrespondingSourceObject: {fileID: 0}
  m_PrefabInstance: {fileID: 0}
  m_PrefabAsset: {fileID: 0}
  m_GameObject: {fileID: 0}
  m_Enabled: 1
  m_EditorHideFlags: 0
  m_Script: {fileID: 11500000, guid: f2b8ec8027053c14f960d70359828345, type: 3}
  m_Name: Daisy2_Map_Presentation
  m_EditorClassIdentifier: 
  _HiddenIdentifier: a194084f-8ab3-4099-a29d-e4e16dded24d
  Identifier: Generated_Daisy2
  BigSprite: {fileID: 0}
  MapSprite: {fileID: -1686310892207987027, guid: a974d76e814ef7f4a991be2355aa2766,
    type: 3}
  AnimatorController: {fileID: 22100000, guid: bcff8e6d291aed643812c381ef1600ea, type: 2}
  Teleporter: 0
  persona: {fileID: 0}
  NametagSmall: {fileID: 0}
  NametagLarge: {fileID: 0}
  IconBackingSmall: {fileID: 0}
  IconBackingSmallSelected: {fileID: 0}
  IconBackingLarge: {fileID: 0}
  StickyNotes: []
  heartSprites: {fileID: 0}
  GhostPresentation: {fileID: 0}
  StarSprite: {fileID: 0}
  NametagSticky: {fileID: 0}
  Complexity: 0
