%YAML 1.1
%TAG !u! tag:unity3d.com,2011:
--- !u!114 &11400000
MonoBehaviour:
  m_ObjectHideFlags: 0
  m_CorrespondingSourceObject: {fileID: 0}
  m_PrefabInstance: {fileID: 0}
  m_PrefabAsset: {fileID: 0}
  m_GameObject: {fileID: 0}
  m_Enabled: 1
  m_EditorHideFlags: 0
  m_Script: {fileID: 11500000, guid: 7218d7ef06b419042a3ee26968967df4, type: 3}
  m_Name: Status - Fire
  m_EditorClassIdentifier: 
  _HiddenIdentifier: 03859fc4-8689-40c8-959d-f9294e2455c3
  Identifier: Burn
  StackingMethod: 1
  sprite: {fileID: 782943224613392979, guid: a7fd6d2df3fc4564eb85ae0818a66454, type: 3}
  TalentName: Burning
  ShownAsBuff: 1
  CanBeAwardedAsPrize: 0
  Description: Take 3 damage at the start of their turn.
  FlavorText: 
  MapDecorator: {fileID: 0}
  Upgrade: {fileID: 0}
  TicksDownOccupied: 1
  TicksDownUnoccupied: 0
  BlocksMovement: 0
  Modifiers: []
  Onhit:
    NumberOfHits: 1
    Damage: 0
    Drain: 0
    Knockback: 0
    TargetStatus:
      buff: {fileID: 0}
      stacks: 0
    AnimatorController: {fileID: 0}
    TriggersShake: 1
    TriggersOnAttackCallback: 1
    Radius: 0
    SFX: {fileID: 0}
    DrainSFX: {fileID: 0}
    InstantKill: 0
    Nonlethal: 0
    ResetCooldowns: 0
    CanHitSelf: 1
    Projectile: {fileID: 0}
    AttackAnimatorParameter: Attack
    OverrideKBDirection: {x: 0, y: 0}
    Weaknesses: []
