%YAML 1.1
%TAG !u! tag:unity3d.com,2011:
--- !u!114 &11400000
MonoBehaviour:
  m_ObjectHideFlags: 0
  m_CorrespondingSourceObject: {fileID: 0}
  m_PrefabInstance: {fileID: 0}
  m_PrefabAsset: {fileID: 0}
  m_GameObject: {fileID: 0}
  m_Enabled: 1
  m_EditorHideFlags: 0
  m_Script: {fileID: 11500000, guid: 725979cec91c7fb47a370590b22daeff, type: 3}
  m_Name: Withdraw
  m_EditorClassIdentifier: 
  _HiddenIdentifier: 9bd0df18-1847-4827-9249-7ff1f7f774d5
  Identifier: 
  StackingMethod: 0
  sprite: {fileID: 0}
  TalentName: Hiding in shell
  ShownAsBuff: 1
  CanBeAwardedAsPrize: 0
  Description: +5 Defense
  FlavorText: 
  MapDecorator: {fileID: 0}
  Upgrade: {fileID: 0}
  TicksDownOccupied: 1
  TicksDownUnoccupied: 0
  BlocksMovement: 0
  Modifiers:
  - Stat: Armor
    modifier: 5
