%YAML 1.1
%TAG !u! tag:unity3d.com,2011:
--- !u!114 &11400000
MonoBehaviour:
  m_ObjectHideFlags: 0
  m_CorrespondingSourceObject: {fileID: 0}
  m_PrefabInstance: {fileID: 0}
  m_PrefabAsset: {fileID: 0}
  m_GameObject: {fileID: 0}
  m_Enabled: 1
  m_EditorHideFlags: 0
  m_Script: {fileID: 11500000, guid: 8e325d8d50a348f498bef9766a846f23, type: 3}
  m_Name: Aiza Persona
  m_EditorClassIdentifier: 
  _HiddenIdentifier: cb4e630c-7dbf-4f4f-bb3b-103f5e00fc84
  Identifier: Aiza
  SpeechClips:
  - {fileID: 8300000, guid: d338abce2bc661a40b37998da724ef53, type: 3}
  DefaultOffset: 1
  Offsets: 00000000
  ContainerSprite: {fileID: 4952126800539637840, guid: 08d059e9a8f670a4382a6b65e3618b97,
    type: 3}
  TextColor: {r: 1, g: 1, b: 1, a: 1}
  DefaultPortrait: {fileID: 699703873648253923, guid: da05804d78be3154d9fc2d750ee81a9c,
    type: 3}
  _PortraitData:
  - Key: grin
    Value: {fileID: 8558633213039616950, guid: da05804d78be3154d9fc2d750ee81a9c, type: 3}
  - Key: frown
    Value: {fileID: -7455959467572184964, guid: da05804d78be3154d9fc2d750ee81a9c,
      type: 3}
  - Key: sad
    Value: {fileID: 2434629766918126224, guid: da05804d78be3154d9fc2d750ee81a9c, type: 3}
  - Key: surprise
    Value: {fileID: 6504610415572811104, guid: da05804d78be3154d9fc2d750ee81a9c, type: 3}
  - Key: angry
    Value: {fileID: -7737748710114358818, guid: da05804d78be3154d9fc2d750ee81a9c,
      type: 3}
  - Key: sleep
    Value: {fileID: -4148219816195209633, guid: da05804d78be3154d9fc2d750ee81a9c,
      type: 3}
  - Key: embarrased
    Value: {fileID: 8232878538186372548, guid: da05804d78be3154d9fc2d750ee81a9c, type: 3}
