%YAML 1.1
%TAG !u! tag:unity3d.com,2011:
--- !u!114 &11400000
MonoBehaviour:
  m_ObjectHideFlags: 0
  m_CorrespondingSourceObject: {fileID: 0}
  m_PrefabInstance: {fileID: 0}
  m_PrefabAsset: {fileID: 0}
  m_GameObject: {fileID: 0}
  m_Enabled: 1
  m_EditorHideFlags: 0
  m_Script: {fileID: 11500000, guid: 8e325d8d50a348f498bef9766a846f23, type: 3}
  m_Name: Kara Persona
  m_EditorClassIdentifier: 
  _HiddenIdentifier: 8a37ef96-c68a-4b59-afdc-33aad9debd74
  Identifier: Kara
  SpeechClips:
  - {fileID: 8300000, guid: 5a9e1d65f4751f743853c0d1551c37e2, type: 3}
  DefaultOffset: -2
  Offsets: feffffff00000000010000000300000005000000
  ContainerSprite: {fileID: 6897152135352607216, guid: 08d059e9a8f670a4382a6b65e3618b97,
    type: 3}
  TextColor: {r: 1, g: 1, b: 1, a: 1}
  DefaultPortrait: {fileID: 21300000, guid: 4bcfd1637827c544aa268f655542c382, type: 3}
  _PortraitData:
  - Key: sleep
    Value: {fileID: 5260555400298505405, guid: da05804d78be3154d9fc2d750ee81a9c, type: 3}
  - Key: frown
    Value: {fileID: -6918414700857865222, guid: da05804d78be3154d9fc2d750ee81a9c,
      type: 3}
  - Key: surprise
    Value: {fileID: 8559219708590112310, guid: da05804d78be3154d9fc2d750ee81a9c, type: 3}
  - Key: angry
    Value: {fileID: 2779292131549322333, guid: da05804d78be3154d9fc2d750ee81a9c, type: 3}
  - Key: grin
    Value: {fileID: 7292437635596850055, guid: da05804d78be3154d9fc2d750ee81a9c, type: 3}
  - Key: embarrassed
    Value: {fileID: 7419441481181810868, guid: da05804d78be3154d9fc2d750ee81a9c, type: 3}
  - Key: none
    Value: {fileID: 0}
