%YAML 1.1
%TAG !u! tag:unity3d.com,2011:
--- !u!114 &11400000
MonoBehaviour:
  m_ObjectHideFlags: 0
  m_CorrespondingSourceObject: {fileID: 0}
  m_PrefabInstance: {fileID: 0}
  m_PrefabAsset: {fileID: 0}
  m_GameObject: {fileID: 0}
  m_Enabled: 1
  m_EditorHideFlags: 0
  m_Script: {fileID: 11500000, guid: 8e325d8d50a348f498bef9766a846f23, type: 3}
  m_Name: Eric
  m_EditorClassIdentifier: 
  _HiddenIdentifier: b4fd1baf-cd41-4b5a-ba6c-99ce81655c07
  Identifier: EricUnused
  SpeechClips: []
  DefaultOffset: 0
  Offsets: 00000000
  ContainerSprite: {fileID: 0}
  TextColor: {r: 0, g: 0, b: 0, a: 1}
  DefaultPortrait: {fileID: 0}
  _PortraitData: []
