%YAML 1.1
%TAG !u! tag:unity3d.com,2011:
--- !u!114 &11400000
MonoBehaviour:
  m_ObjectHideFlags: 0
  m_CorrespondingSourceObject: {fileID: 0}
  m_PrefabInstance: {fileID: 0}
  m_PrefabAsset: {fileID: 0}
  m_GameObject: {fileID: 0}
  m_Enabled: 1
  m_EditorHideFlags: 0
  m_Script: {fileID: 11500000, guid: d4276654c5d110e4e99281773998bd9e, type: 3}
  m_Name: Abstract Art
  m_EditorClassIdentifier: 
  _HiddenIdentifier: f0d55670-6545-4d61-a280-f0d5ab80fe88
  Identifier: 
  Data:
    presentation: {fileID: 11400000, guid: 0a64ac0fc20a16c45b84a312a9d6c4d7, type: 2}
    Identifier: 
    CharacterName: Abstract Art
    Description: 
    CurrentLevel: 0
    pos: {x: 0, y: 0}
    IntrinsicTalents:
    - {fileID: 11400000, guid: 697721b711934bd43ad958c89c287fd5, type: 2}
    inventory: []
    Spent: 0
    Friendly: 0
    currentDamage: 0
    DoesNotAct: 0
    Unaware: 0
    StartsUnaware: 1
    UnawareAnimatorName: Unaware
    HasDeathQuote: 0
    MaxHP: 10
    Movement: 7
    Strength: 0
    Armor: 0
    BaseNoise: 3
    BaseAlertness: 0
    Strategy: {fileID: 11400000, guid: 6f55a688338620349b42a312d63c9ae0, type: 2}
    UnitPrefab: {fileID: 0}
    Mobility: 2
    CannotRaise: 0
    KnifeLocations: []
    CurrentBuffs: []
    currentQuote: 
    Complexity: 1
    IsCat: 0
  AlternateCostumes:
  - {fileID: 11400000, guid: d54cab31595dbae47b8537e371c041b4, type: 2}
  - {fileID: 11400000, guid: a607ef02dc9b47b48bd1c837f91de658, type: 2}
  - {fileID: 11400000, guid: fa390f0a917fc0749896a3fbd9b6d047, type: 2}
  SelectableCharacter: 0
  DebugDisabled: 0
  weight: 100
  Boss: 0
