%YAML 1.1
%TAG !u! tag:unity3d.com,2011:
--- !u!114 &11400000
MonoBehaviour:
  m_ObjectHideFlags: 0
  m_CorrespondingSourceObject: {fileID: 0}
  m_PrefabInstance: {fileID: 0}
  m_PrefabAsset: {fileID: 0}
  m_GameObject: {fileID: 0}
  m_Enabled: 1
  m_EditorHideFlags: 0
  m_Script: {fileID: 11500000, guid: f2b8ec8027053c14f960d70359828345, type: 3}
  m_Name: Gremlin2_Map_Presentation
  m_EditorClassIdentifier: 
  _HiddenIdentifier: 4374ed6c-f239-4ef6-bf25-e412b3ee7a01
  Identifier: Generated_Gremlin2
  BigSprite: {fileID: 0}
  MapSprite: {fileID: -492767911228372343, guid: a46a8d9d5fda38c4eaa27abb4bcbffcf,
    type: 3}
  AnimatorController: {fileID: 22100000, guid: 4dc03a9c6cc514a47884fb6c69bc043f, type: 2}
  Teleporter: 0
  persona: {fileID: 0}
  NametagSmall: {fileID: 0}
  NametagLarge: {fileID: 0}
  IconBackingSmall: {fileID: 0}
  IconBackingSmallSelected: {fileID: 0}
  IconBackingLarge: {fileID: 0}
  StickyNotes: []
  heartSprites: {fileID: 0}
  GhostPresentation: {fileID: 0}
  StarSprite: {fileID: 0}
  NametagSticky: {fileID: 0}
  Complexity: 0
