%YAML 1.1
%TAG !u! tag:unity3d.com,2011:
--- !u!114 &11400000
MonoBehaviour:
  m_ObjectHideFlags: 0
  m_CorrespondingSourceObject: {fileID: 0}
  m_PrefabInstance: {fileID: 0}
  m_PrefabAsset: {fileID: 0}
  m_GameObject: {fileID: 0}
  m_Enabled: 1
  m_EditorHideFlags: 0
  m_Script: {fileID: 11500000, guid: f2b8ec8027053c14f960d70359828345, type: 3}
  m_Name: IceElemental2_Map_Presentation
  m_EditorClassIdentifier: 
  _HiddenIdentifier: f2ef197e-5781-467d-ae85-d4272c7dd408
  Identifier: Generated_IceElemental2
  BigSprite: {fileID: 0}
  MapSprite: {fileID: -5146894445049381506, guid: 5fa5890f04fafca41910072462bf4048,
    type: 3}
  AnimatorController: {fileID: 22100000, guid: 0de20c97cdf733144bbd6d80bdd3d3b4, type: 2}
  Teleporter: 0
  persona: {fileID: 0}
  NametagSmall: {fileID: 0}
  NametagLarge: {fileID: 0}
  IconBackingSmall: {fileID: 0}
  IconBackingSmallSelected: {fileID: 0}
  IconBackingLarge: {fileID: 0}
  StickyNotes: []
  heartSprites: {fileID: 0}
  GhostPresentation: {fileID: 0}
  StarSprite: {fileID: 0}
  NametagSticky: {fileID: 0}
  Complexity: 0
