%YAML 1.1
%TAG !u! tag:unity3d.com,2011:
--- !u!114 &11400000
MonoBehaviour:
  m_ObjectHideFlags: 0
  m_CorrespondingSourceObject: {fileID: 0}
  m_PrefabInstance: {fileID: 0}
  m_PrefabAsset: {fileID: 0}
  m_GameObject: {fileID: 0}
  m_Enabled: 1
  m_EditorHideFlags: 0
  m_Script: {fileID: 11500000, guid: 1065dc1cc53675145931dbf46f6cecc3, type: 3}
  m_Name: Chasm Status 3
  m_EditorClassIdentifier: 
  _HiddenIdentifier: 9aa4c4ce-7d14-44d7-89ff-052d24920162
  Identifier: 
  StackingMethod: 0
  sprite: {fileID: 0}
  TalentName: 
  ShownAsBuff: 0
  CanBeAwardedAsPrize: 0
  Description: Chasm
  FlavorText: 
  MapDecorator: {fileID: 11400000, guid: 47ead37d43dc5aa4eb57b69e62e4f14c, type: 2}
  Upgrade: {fileID: 0}
  TicksDownOccupied: 1
  TicksDownUnoccupied: 1
  BlocksMovement: 1
  Modifiers: []
  InvisibleOffsets:
  - {x: 0, y: -1}
  - {x: 1, y: -1}
  - {x: 0, y: 1}
  - {x: 0, y: 2}
