%YAML 1.1
%TAG !u! tag:unity3d.com,2011:
--- !u!221 &22100000
AnimatorOverrideController:
  m_ObjectHideFlags: 0
  m_CorrespondingSourceObject: {fileID: 0}
  m_PrefabInstance: {fileID: 0}
  m_PrefabAsset: {fileID: 0}
  m_Name: Jelly2_Overrides
  m_Controller: {fileID: 9100000, guid: 794e73b68cf50314f80355886c8098b3, type: 2}
  m_Clips:
  - m_OriginalClip: {fileID: 7400000, guid: 2fa792e1d8edb7e488a6532929a3014c, type: 2}
    m_OverrideClip: {fileID: 7400000, guid: 3a8a7157c5625c848a3925ef4890402f, type: 2}
  - m_OriginalClip: {fileID: 7400000, guid: 63d7e22ce8309664c86e7ef6c980af44, type: 2}
    m_OverrideClip: {fileID: 7400000, guid: 436263e9402400543985457ee3754882, type: 2}
  - m_OriginalClip: {fileID: 7400000, guid: 5f4a0e6243164904591cc7b083bf551c, type: 2}
    m_OverrideClip: {fileID: 7400000, guid: 208f8336b97fbe044abb1e934c4f784b, type: 2}
  - m_OriginalClip: {fileID: 7400000, guid: 30a85f460e3b657409e4b23c14218cdd, type: 2}
    m_OverrideClip: {fileID: 7400000, guid: 1a2c5c669ed4aca4d8b81b7df786a968, type: 2}
  - m_OriginalClip: {fileID: 7400000, guid: 260fee49625f0ea448ee7fc767d5d192, type: 2}
    m_OverrideClip: {fileID: 7400000, guid: c9eb1585c11b2db4e9f90262c242ba33, type: 2}
  - m_OriginalClip: {fileID: 7400000, guid: a273764eae197774aa125520754da724, type: 2}
    m_OverrideClip: {fileID: 7400000, guid: 1c27b741b53312148933514a40eb9d27, type: 2}
  - m_OriginalClip: {fileID: 7400000, guid: f4b4ec5c201292f40a0e0d2c630fcab8, type: 2}
    m_OverrideClip: {fileID: 7400000, guid: 0cca58e01e656ce4e857f321b40b3ee3, type: 2}
  - m_OriginalClip: {fileID: 7400000, guid: 2c50c66858f745442a35c2735506db03, type: 2}
    m_OverrideClip: {fileID: 7400000, guid: c5eb5d0f89b7d314c8e70beea024e605, type: 2}
  - m_OriginalClip: {fileID: 7400000, guid: 02d6cecd0f43b11479342fff5ddd740f, type: 2}
    m_OverrideClip: {fileID: 7400000, guid: bf39004a3e9922c43980971d92c0e9f3, type: 2}
  - m_OriginalClip: {fileID: 7400000, guid: a81cb08168e89594b8c4b793cbc00ee8, type: 2}
    m_OverrideClip: {fileID: 7400000, guid: f79585ce1fa88cc4da5bd281cb455c82, type: 2}
  - m_OriginalClip: {fileID: 7400000, guid: 6b7c08f38e77d2d4cb2a9249e0e6d822, type: 2}
    m_OverrideClip: {fileID: 7400000, guid: fe308d624701e2f44ba2b3414bb8dec0, type: 2}
  - m_OriginalClip: {fileID: 7400000, guid: 535c499f488ce3c4988f47d18820bc12, type: 2}
    m_OverrideClip: {fileID: 7400000, guid: 0c974734d5c4ef84d863cf3cc52b1d1d, type: 2}
  - m_OriginalClip: {fileID: 7400000, guid: 7bfc62403b7e5c34795aa9f88cb4fbc3, type: 2}
    m_OverrideClip: {fileID: 7400000, guid: 9b10b6099b9c1054399d647cb5559afd, type: 2}
  - m_OriginalClip: {fileID: 7400000, guid: 2a26542c3e6d0154da25ae3f59cf6ca9, type: 2}
    m_OverrideClip: {fileID: 7400000, guid: b1378b092cb018a42a054aa4882e1eb4, type: 2}
  - m_OriginalClip: {fileID: 7400000, guid: 8704da3c091fba049a78bf50172f8ffa, type: 2}
    m_OverrideClip: {fileID: 7400000, guid: 3ae0fb2084890924da43e4f61a717b15, type: 2}
  - m_OriginalClip: {fileID: 7400000, guid: 2b826aca1684a6341877c2c1f0fbe330, type: 2}
    m_OverrideClip: {fileID: 7400000, guid: f66527a81041efb40b40d878134d79fc, type: 2}
