%YAML 1.1
%TAG !u! tag:unity3d.com,2011:
--- !u!114 &11400000
MonoBehaviour:
  m_ObjectHideFlags: 0
  m_CorrespondingSourceObject: {fileID: 0}
  m_PrefabInstance: {fileID: 0}
  m_PrefabAsset: {fileID: 0}
  m_GameObject: {fileID: 0}
  m_Enabled: 1
  m_EditorHideFlags: 0
  m_Script: {fileID: 11500000, guid: 725979cec91c7fb47a370590b22daeff, type: 3}
  m_Name: Aura of Mobility (Status)
  m_EditorClassIdentifier: 
  _HiddenIdentifier: 832c4bff-821f-455e-8029-01efacef89f4
  Identifier: 
  StackingMethod: 0
  sprite: {fileID: 6337394897091332072, guid: ba1dc43b902473847a7763d515a6edae, type: 3}
  TalentName: Aura of Mobility
  ShownAsBuff: 1
  CanBeAwardedAsPrize: 0
  Description: +1 MOV
  FlavorText: 
  MapDecorator: {fileID: 0}
  Upgrade: {fileID: 0}
  TicksDownOccupied: 1
  TicksDownUnoccupied: 0
  BlocksMovement: 0
  Modifiers:
  - Stat: Movement
    modifier: 1
