%YAML 1.1
%TAG !u! tag:unity3d.com,2011:
--- !u!114 &11400000
MonoBehaviour:
  m_ObjectHideFlags: 0
  m_CorrespondingSourceObject: {fileID: 0}
  m_PrefabInstance: {fileID: 0}
  m_PrefabAsset: {fileID: 0}
  m_GameObject: {fileID: 0}
  m_Enabled: 1
  m_EditorHideFlags: 0
  m_Script: {fileID: 11500000, guid: d254e6b52433d3a46a23512b18252ee3, type: 3}
  m_Name: (20) Rock Thrower - Summonable
  m_EditorClassIdentifier: 
  _HiddenIdentifier: 8dd0413a-cd78-4c4f-ac41-0f62d5c43624
  Identifier: 
  Data:
    presentation: {fileID: 11400000, guid: 6f7e7422d24fc214b934693d4e591104, type: 2}
    Identifier: 
    CharacterName: Rock
    Description: 
    CurrentLevel: 0
    pos: {x: 0, y: 0}
    IntrinsicTalents: []
    inventory: []
    Spent: 0
    Friendly: 0
    currentDamage: 0
    DoesNotAct: 1
    Unaware: 0
    StartsUnaware: 1
    UnawareAnimatorName: Unaware
    HasDeathQuote: 0
    MaxHP: 5
    Movement: 0
    Strength: 0
    Armor: 0
    BaseNoise: 3
    BaseAlertness: 0
    Strategy: {fileID: 0}
    UnitPrefab: {fileID: 0}
    Mobility: 0
    CannotRaise: 0
    KnifeLocations: []
    CurrentBuffs: []
    currentQuote: 
    Complexity: 1
    IsCat: 0
  AlternateCostumes: []
  SelectableCharacter: 0
