%YAML 1.1
%TAG !u! tag:unity3d.com,2011:
--- !u!114 &11400000
MonoBehaviour:
  m_ObjectHideFlags: 0
  m_CorrespondingSourceObject: {fileID: 0}
  m_PrefabInstance: {fileID: 0}
  m_PrefabAsset: {fileID: 0}
  m_GameObject: {fileID: 0}
  m_Enabled: 1
  m_EditorHideFlags: 0
  m_Script: {fileID: 11500000, guid: c6ff0079bc8472e48a7742ea710b1319, type: 3}
  m_Name: (5) Bomb Bag - Status
  m_EditorClassIdentifier: 
  _HiddenIdentifier: 15e52596-372f-4337-894e-73e1f850aa44
  Identifier: 
  StackingMethod: 0
  sprite: {fileID: -6969694084022226740, guid: a7fd6d2df3fc4564eb85ae0818a66454, type: 3}
  TalentName: Burning Fuse
  ShownAsBuff: 1
  CanBeAwardedAsPrize: 0
  Description: Counting down to explosion...
  FlavorText: 
  MapDecorator: {fileID: 0}
  Upgrade: {fileID: 0}
  TicksDownOccupied: 1
  TicksDownUnoccupied: 0
  BlocksMovement: 0
  SelfDestruct:
    NumberOfHits: 1
    Damage: 0
    Drain: 0
    Knockback: 0
    TargetStatus:
      buff: {fileID: 0}
      stacks: 0
    AnimatorController: {fileID: 9100000, guid: 29ae25617968a2b49a7d9c7e11dcebb0,
      type: 2}
    TriggersShake: 1
    TriggersOnAttackCallback: 1
    Radius: 0
    SFX: {fileID: 8300000, guid: 418cc72c7d4b8c047b0eba6750aebd13, type: 3}
    DrainSFX: {fileID: 0}
    InstantKill: 1
    Nonlethal: 0
    ResetCooldowns: 0
    CanHitSelf: 1
    Projectile: {fileID: 0}
    AttackAnimatorParameter: Attack
    OverrideKBDirection: {x: 0, y: 0}
    Weaknesses: []
  ExplosionDamage:
    NumberOfHits: 1
    Damage: 5
    Drain: 0
    Knockback: 0
    TargetStatus:
      buff: {fileID: 0}
      stacks: 0
    AnimatorController: {fileID: 9100000, guid: 29ae25617968a2b49a7d9c7e11dcebb0,
      type: 2}
    TriggersShake: 1
    TriggersOnAttackCallback: 1
    Radius: 2
    SFX: {fileID: 8300000, guid: 29e84a4f51027514a82f26f11a2909a6, type: 3}
    DrainSFX: {fileID: 0}
    InstantKill: 0
    Nonlethal: 0
    ResetCooldowns: 0
    CanHitSelf: 0
    Projectile: {fileID: 0}
    AttackAnimatorParameter: Attack
    OverrideKBDirection: {x: 0, y: 0}
    Weaknesses: []
