%YAML 1.1
%TAG !u! tag:unity3d.com,2011:
--- !u!114 &11400000
MonoBehaviour:
  m_ObjectHideFlags: 0
  m_CorrespondingSourceObject: {fileID: 0}
  m_PrefabInstance: {fileID: 0}
  m_PrefabAsset: {fileID: 0}
  m_GameObject: {fileID: 0}
  m_Enabled: 1
  m_EditorHideFlags: 0
  m_Script: {fileID: 11500000, guid: f241c6eab70905742a0676ac2afe1123, type: 3}
  m_Name: (8) Hyperbeam Projector Attack
  m_EditorClassIdentifier: 
  _HiddenIdentifier: 5bb64ff6-eec7-4d6d-a0ba-e8c65589726f
  Identifier: 
  StackingMethod: 0
  sprite: {fileID: -1772244045117237821, guid: ba1dc43b902473847a7763d515a6edae, type: 3}
  TalentName: Hyperbeam Projector
  ShownAsBuff: 0
  CanBeAwardedAsPrize: 1
  Description: Deals massive damage, but stuns the user. Usable once per room.
  FlavorText: The projector from your old school classroom, only more dangerous.
  MapDecorator: {fileID: 0}
  Upgrade: {fileID: 0}
  TicksDownOccupied: 1
  TicksDownUnoccupied: 0
  BlocksMovement: 0
  RequiresNoMovement: 0
  UsesPerRoom: 1
  cooldown: 0
  OverrideCooldownName: 
  _Consumable: 0
  MinRange: 1
  MaxRange: 1
  onHit:
    NumberOfHits: 1
    Damage: 5
    Drain: 0
    Knockback: 0
    TargetStatus:
      buff: {fileID: 0}
      stacks: 0
    AnimatorController: {fileID: 9100000, guid: 5391b0c2c4f1cda45b28e06a1fae6095,
      type: 2}
    TriggersShake: 1
    TriggersOnAttackCallback: 1
    Radius: 0
    SFX: {fileID: 8300000, guid: 4d7bfd9438db75f4ab7849c93506a3a9, type: 3}
    DrainSFX: {fileID: 0}
    InstantKill: 0
    Nonlethal: 0
    ResetCooldowns: 0
    CanHitSelf: 1
    Projectile: {fileID: 0}
    AttackAnimatorParameter: Attack
    OverrideKBDirection: {x: 0, y: 0}
    Weaknesses: []
  TargetEmptyTiles: 0
  TargetFriendlyUnits: 0
  TargetHostileUnit: 1
  CanHitSelf: 1
  animPool: {fileID: 0}
  SelfAttack:
    NumberOfHits: 1
    Damage: 0
    Drain: 0
    Knockback: 0
    TargetStatus:
      buff: {fileID: 11400000, guid: c14ee1474e0f62c45a48ffca299c1e99, type: 2}
      stacks: 1
    AnimatorController: {fileID: 9100000, guid: cb89d5e8fd1b6e049a4ca057cd39f2d4,
      type: 2}
    TriggersShake: 1
    TriggersOnAttackCallback: 0
    Radius: 1
    SFX: {fileID: 0}
    DrainSFX: {fileID: 0}
    InstantKill: 0
    Nonlethal: 0
    ResetCooldowns: 0
    CanHitSelf: 1
    Projectile: {fileID: 0}
    AttackAnimatorParameter: Attack
    OverrideKBDirection: {x: 0, y: 0}
    Weaknesses: []
