%YAML 1.1
%TAG !u! tag:unity3d.com,2011:
--- !u!114 &11400000
MonoBehaviour:
  m_ObjectHideFlags: 0
  m_CorrespondingSourceObject: {fileID: 0}
  m_PrefabInstance: {fileID: 0}
  m_PrefabAsset: {fileID: 0}
  m_GameObject: {fileID: 0}
  m_Enabled: 1
  m_EditorHideFlags: 0
  m_Script: {fileID: 11500000, guid: 8160ccdc3da9f6a49a2288c257013e8f, type: 3}
  m_Name: Standard Map Unit
  m_EditorClassIdentifier: 
  _HiddenIdentifier: 5fd8d531-d28d-42c4-a386-2205d74f4eef
  Identifier: 
  prefab: {fileID: 8281214450079555757, guid: 0cf59b0e97c8afb4cbdcc255834a4ea8, type: 3}
