%YAML 1.1
%TAG !u! tag:unity3d.com,2011:
--- !u!114 &11400000
MonoBehaviour:
  m_ObjectHideFlags: 0
  m_CorrespondingSourceObject: {fileID: 0}
  m_PrefabInstance: {fileID: 0}
  m_PrefabAsset: {fileID: 0}
  m_GameObject: {fileID: 0}
  m_Enabled: 1
  m_EditorHideFlags: 0
  m_Script: {fileID: 11500000, guid: edc369de63a1d254b852cd0a335bff8a, type: 3}
  m_Name: Wait
  m_EditorClassIdentifier: 
  _HiddenIdentifier: 7ed86c75-5a19-44d0-9732-6b5371714d5a
  Identifier: 
  StackingMethod: 0
  sprite: {fileID: -1863859237976802683, guid: ba1dc43b902473847a7763d515a6edae, type: 3}
  TalentName: Wait
  ShownAsBuff: 0
  CanBeAwardedAsPrize: 0
  Description: Reduces cooldowns by an additional 1 turn.
  FlavorText: 
  MapDecorator: {fileID: 0}
  Upgrade: {fileID: 0}
  TicksDownOccupied: 1
  TicksDownUnoccupied: 0
  BlocksMovement: 0
  RequiresNoMovement: 0
  UsesPerRoom: 0
  cooldown: 0
  OverrideCooldownName: 
  _Consumable: 0
