%YAML 1.1
%TAG !u! tag:unity3d.com,2011:
--- !u!221 &22100000
AnimatorOverrideController:
  m_ObjectHideFlags: 0
  m_CorrespondingSourceObject: {fileID: 0}
  m_PrefabInstance: {fileID: 0}
  m_PrefabAsset: {fileID: 0}
  m_Name: Segment Override Controller
  m_Controller: {fileID: 9100000, guid: 82e3b46b4ef798a4a96b010a005c79d0, type: 2}
  m_Clips:
  - m_OriginalClip: {fileID: 7400000, guid: bbf616eb300b1bc4db563d29f5e8c38e, type: 2}
    m_OverrideClip: {fileID: 7400000, guid: 9cd4119344de6fc48a8f8185a409b92d, type: 2}
  - m_OriginalClip: {fileID: 7400000, guid: 7f19203b5fdea1742871fa22903ec191, type: 2}
    m_OverrideClip: {fileID: 7400000, guid: 6500ef008a821c14a93a0e8bb08dc110, type: 2}
  - m_OriginalClip: {fileID: 7400000, guid: 31f17f56f0271f144988d1dc2c7199ef, type: 2}
    m_OverrideClip: {fileID: 7400000, guid: 5a0a572931dfdd245aa47f481b5d7e52, type: 2}
  - m_OriginalClip: {fileID: 7400000, guid: 82a69c3eb98bf7c4682f0d04aa6cfc02, type: 2}
    m_OverrideClip: {fileID: 7400000, guid: a57a2d65ace1c3e44aeb820f5bb7c955, type: 2}
  - m_OriginalClip: {fileID: 7400000, guid: 58d08a2b3af81824d90085ec01331996, type: 2}
    m_OverrideClip: {fileID: 7400000, guid: 9c63794eb5f70a84399f148a98ef9f60, type: 2}
  - m_OriginalClip: {fileID: 7400000, guid: c6b0e3bf0f152f34eb687361cca62025, type: 2}
    m_OverrideClip: {fileID: 7400000, guid: e96f3894d2143e043aa0bec857230f45, type: 2}
  - m_OriginalClip: {fileID: 7400000, guid: 89d7a07930461fa4a837554fd32c4b4a, type: 2}
    m_OverrideClip: {fileID: 7400000, guid: 9be21b15d5b75624586b3602cf2bc341, type: 2}
  - m_OriginalClip: {fileID: 7400000, guid: 379348320549cf04ea3e2019bc501b1f, type: 2}
    m_OverrideClip: {fileID: 7400000, guid: b69b9d08086120f47874cbec64c6e8ca, type: 2}
  - m_OriginalClip: {fileID: 7400000, guid: abde67717059ee341a5c83d720305667, type: 2}
    m_OverrideClip: {fileID: 7400000, guid: cfd1a14f8f60c1c4e980e04c47e1330b, type: 2}
  - m_OriginalClip: {fileID: 7400000, guid: 5b6fb4edba513f043bf0ab0301fed5b9, type: 2}
    m_OverrideClip: {fileID: 7400000, guid: 01f3c6815a8eb8a4ea2f36b72e26f5a7, type: 2}
  - m_OriginalClip: {fileID: 7400000, guid: cd0a0bc66c424a541898ff1417b8a48d, type: 2}
    m_OverrideClip: {fileID: 7400000, guid: 1625b6b4daf17644c8bd209f61693882, type: 2}
  - m_OriginalClip: {fileID: 7400000, guid: 7c7e682cf79324841b80ecbcd808ee8a, type: 2}
    m_OverrideClip: {fileID: 7400000, guid: a40432b8ee7f5914aa6840cc8e5c24bf, type: 2}
  - m_OriginalClip: {fileID: 7400000, guid: 67a90e27fb5f54b4f921830e94cae4bb, type: 2}
    m_OverrideClip: {fileID: 7400000, guid: d4e4aa5111d93b04586733c58c2d194c, type: 2}
  - m_OriginalClip: {fileID: 7400000, guid: 5580cf2e7bc96744498afcf4f468e659, type: 2}
    m_OverrideClip: {fileID: 7400000, guid: 6bf0c94ca9b909e47b5038f3b72c0369, type: 2}
  - m_OriginalClip: {fileID: 7400000, guid: bcbde161db30baf408c7875acb67b820, type: 2}
    m_OverrideClip: {fileID: 7400000, guid: fd064abe6b28b7440a66ddbc63f534ac, type: 2}
