%YAML 1.1
%TAG !u! tag:unity3d.com,2011:
--- !u!114 &11400000
MonoBehaviour:
  m_ObjectHideFlags: 0
  m_CorrespondingSourceObject: {fileID: 0}
  m_PrefabInstance: {fileID: 0}
  m_PrefabAsset: {fileID: 0}
  m_GameObject: {fileID: 0}
  m_Enabled: 1
  m_EditorHideFlags: 0
  m_Script: {fileID: 11500000, guid: a34a9b82b3407a6479414e1690900b8a, type: 3}
  m_Name: Debuff All PCs
  m_EditorClassIdentifier: 
  _HiddenIdentifier: 0a2c9d66-2c8c-4d25-bbed-7f72043cb63f
  Identifier: 
  StackingMethod: 0
  sprite: {fileID: 0}
  TalentName: Cloud of Lethargy
  ShownAsBuff: 0
  CanBeAwardedAsPrize: 0
  Description: 
  FlavorText: 
  MapDecorator: {fileID: 0}
  Upgrade: {fileID: 0}
  TicksDownOccupied: 1
  TicksDownUnoccupied: 0
  BlocksMovement: 0
  RequiresNoMovement: 0
  UsesPerRoom: 0
  cooldown: 3
  OverrideCooldownName: 
  _Consumable: 0
  MinRange: 1
  MaxRange: 20
  onHit:
    NumberOfHits: 1
    Damage: 0
    Drain: 0
    Knockback: 0
    TargetStatus:
      buff: {fileID: 11400000, guid: dd8812e21f6b03e4b868ebad48b08b33, type: 2}
      stacks: 3
    AnimatorController: {fileID: 9100000, guid: 738a1defafdcdb3428f7ebe3afafa68c,
      type: 2}
    TriggersShake: 1
    TriggersOnAttackCallback: 1
    Radius: 0
    SFX: {fileID: 8300000, guid: 0775100d4ce363f44a737308460ba6ad, type: 3}
    DrainSFX: {fileID: 0}
    InstantKill: 0
    Nonlethal: 0
    ResetCooldowns: 0
    CanHitSelf: 1
    Projectile: {fileID: 0}
    AttackAnimatorParameter: Attack
    OverrideKBDirection: {x: 0, y: 0}
    Weaknesses: []
  TargetEmptyTiles: 0
  TargetFriendlyUnits: 0
  TargetHostileUnit: 1
  CanHitSelf: 0
  animPool: {fileID: 11400000, guid: 7180dbf2ebe4b204e86f91b1397c0a58, type: 2}
