%YAML 1.1
%TAG !u! tag:unity3d.com,2011:
--- !u!114 &11400000
MonoBehaviour:
  m_ObjectHideFlags: 0
  m_CorrespondingSourceObject: {fileID: 0}
  m_PrefabInstance: {fileID: 0}
  m_PrefabAsset: {fileID: 0}
  m_GameObject: {fileID: 0}
  m_Enabled: 1
  m_EditorHideFlags: 0
  m_Script: {fileID: 11500000, guid: 725979cec91c7fb47a370590b22daeff, type: 3}
  m_Name: MEGA BIG
  m_EditorClassIdentifier: 
  _HiddenIdentifier: f4ab23c0-b3a6-4714-9304-87b880cdad30
  Identifier: 
  StackingMethod: 0
  sprite: {fileID: -704072626132827017, guid: ba1dc43b902473847a7763d515a6edae, type: 3}
  TalentName: Enlarge
  ShownAsBuff: 1
  CanBeAwardedAsPrize: 0
  Description: ' '
  FlavorText: 
  MapDecorator: {fileID: 0}
  Upgrade: {fileID: 0}
  TicksDownOccupied: 1
  TicksDownUnoccupied: 0
  BlocksMovement: 0
  Modifiers:
  - Stat: XSize
    modifier: 9
  - Stat: YSize
    modifier: 4
