%YAML 1.1
%TAG !u! tag:unity3d.com,2011:
--- !u!114 &11400000
MonoBehaviour:
  m_ObjectHideFlags: 0
  m_CorrespondingSourceObject: {fileID: 0}
  m_PrefabInstance: {fileID: 0}
  m_PrefabAsset: {fileID: 0}
  m_GameObject: {fileID: 0}
  m_Enabled: 1
  m_EditorHideFlags: 0
  m_Script: {fileID: 11500000, guid: 6cab789d27c83b542bb75065df9ebe19, type: 3}
  m_Name: Cave Snake Boss Defeat
  m_EditorClassIdentifier: 
  _HiddenIdentifier: fef11843-8046-44f0-aa32-9023fe43e5c1
  Identifier: 
  SetupScript: 'SPAWN CaveBossMap, 5, 0, map

    CHAR $p1, 2, 1, c1

    CHAR $p2,
    0, -1, c2

    CHAR $p3, -3, 1, c3

    CHAR $p4, -1, -1, c4

    MUSIC newstage

    FACE
    c1, left

    FACE c2, up

    FACE c3, right

    FACE c4, up

    SPAWN Flame,
    1, 1.5, f'
  Script: 'SAY $p1:cutscenes.cave.bossoutro.post_flashback.$p1

    SAY $p2:cutscenes.cave.bossoutro.post_flashback.$p2

    SAY
    $p3:cutscenes.cave.bossoutro.post_flashback.$p3

    SAY $p4:cutscenes.cave.bossoutro.post_flashback.$p4


    WAIT*
    3

    MOVE* c1,wwsssssss

    MOVE* c2,sssssss

    MOVE* c3,eesssssss

    MOVE
    c4,ssssssssssss'
