%YAML 1.1
%TAG !u! tag:unity3d.com,2011:
--- !u!114 &11400000
MonoBehaviour:
  m_ObjectHideFlags: 0
  m_CorrespondingSourceObject: {fileID: 0}
  m_PrefabInstance: {fileID: 0}
  m_PrefabAsset: {fileID: 0}
  m_GameObject: {fileID: 0}
  m_Enabled: 1
  m_EditorHideFlags: 0
  m_Script: {fileID: 11500000, guid: beeaa02346a0f654ca20616b0d701e8f, type: 3}
  m_Name: Chasm Pool 1
  m_EditorClassIdentifier: 
  _HiddenIdentifier: 56f54fdd-a725-4096-bd13-9f45c9d416ca
  Identifier: 
  DesiredCapacity: 1
  IncreasedCapacityPerFrame: 0
  opm: {fileID: 0}
  prefab: {fileID: 4297629776664693559, guid: 6333c0a59b2905c428c116b47b01e7bb, type: 3}
