%YAML 1.1
%TAG !u! tag:unity3d.com,2011:
--- !u!114 &11400000
MonoBehaviour:
  m_ObjectHideFlags: 0
  m_CorrespondingSourceObject: {fileID: 0}
  m_PrefabInstance: {fileID: 0}
  m_PrefabAsset: {fileID: 0}
  m_GameObject: {fileID: 0}
  m_Enabled: 1
  m_EditorHideFlags: 0
  m_Script: {fileID: 11500000, guid: f2b8ec8027053c14f960d70359828345, type: 3}
  m_Name: Termite2_Map_Presentation
  m_EditorClassIdentifier: 
  _HiddenIdentifier: 29bdf344-a886-47d1-8e1c-c7dbfd677c7c
  Identifier: Generated_Termite2
  BigSprite: {fileID: 0}
  MapSprite: {fileID: -4316516861355409301, guid: d67551060527ea144b16742cc20267d8,
    type: 3}
  AnimatorController: {fileID: 22100000, guid: 68c68fe02a4bf5943b48df3d8c51a6ac, type: 2}
  Teleporter: 0
  persona: {fileID: 0}
  NametagSmall: {fileID: 0}
  NametagLarge: {fileID: 0}
  IconBackingSmall: {fileID: 0}
  IconBackingSmallSelected: {fileID: 0}
  IconBackingLarge: {fileID: 0}
  StickyNotes: []
  heartSprites: {fileID: 0}
  GhostPresentation: {fileID: 0}
  StarSprite: {fileID: 0}
  NametagSticky: {fileID: 0}
  Complexity: 0
