%YAML 1.1
%TAG !u! tag:unity3d.com,2011:
--- !u!78 &1
TagManager:
  serializedVersion: 2
  tags: []
  layers:
  - Default
  - TransparentFX
  - Ignore Raycast
  - 
  - Water
  - UI
  - 
  - 
  - Geometry
  - Map Water
  - Puddle
  - PostProcess
  - 
  - 
  - 
  - 
  - 
  - 
  - 
  - 
  - 
  - 
  - 
  - 
  - 
  - 
  - 
  - 
  - 
  - 
  - 
  - 
  m_SortingLayers:
  - name: Background
    uniqueID: 3824965419
    locked: 0
  - name: Default
    uniqueID: 0
    locked: 0
  - name: FLOOR
    uniqueID: 2139108999
    locked: 0
  - name: OBJECT
    uniqueID: 124061685
    locked: 0
  - name: ORNAMENT
    uniqueID: 366454711
    locked: 0
  - name: Units
    uniqueID: 631035115
    locked: 0
  - name: Above
    uniqueID: 2637478143
    locked: 0
  - name: FX
    uniqueID: 2555654155
    locked: 0
  - name: ui
    uniqueID: 302638403
    locked: 0
