%YAML 1.1
%TAG !u! tag:unity3d.com,2011:
--- !u!114 &11400000
MonoBehaviour:
  m_ObjectHideFlags: 0
  m_CorrespondingSourceObject: {fileID: 0}
  m_PrefabInstance: {fileID: 0}
  m_PrefabAsset: {fileID: 0}
  m_GameObject: {fileID: 0}
  m_Enabled: 1
  m_EditorHideFlags: 0
  m_Script: {fileID: 11500000, guid: 4d31beca4ce173f43822a6e3b6852278, type: 3}
  m_Name: Webs
  m_EditorClassIdentifier: 
  _HiddenIdentifier: aa2db0c2-9b31-42dd-bbc3-392601f1b13a
  Identifier: 
  StackingMethod: 0
  sprite: {fileID: 3873474430974499451, guid: 4b8678dd9e8a5384ba704eb627d6ac66, type: 3}
  TalentName: Spider Webs
  ShownAsBuff: 1
  CanBeAwardedAsPrize: 0
  Description: Friends get -2 MOV, dream denizens get +1 MOV.
  FlavorText: 
  MapDecorator: {fileID: 11400000, guid: b2620301c538f8143b1e5b14aa3894a5, type: 2}
  Upgrade: {fileID: 0}
  TicksDownOccupied: 1
  TicksDownUnoccupied: 0
  BlocksMovement: 0
  ModifiersFriendly:
  - Stat: Movement
    modifier: -2
  ModifiersEnemy:
  - Stat: Movement
    modifier: 1
