%YAML 1.1
%TAG !u! tag:unity3d.com,2011:
--- !u!114 &11400000
MonoBehaviour:
  m_ObjectHideFlags: 0
  m_CorrespondingSourceObject: {fileID: 0}
  m_PrefabInstance: {fileID: 0}
  m_PrefabAsset: {fileID: 0}
  m_GameObject: {fileID: 0}
  m_Enabled: 1
  m_EditorHideFlags: 0
  m_Script: {fileID: 11500000, guid: ce7eb6b9896181444a47dfcb6571071d, type: 3}
  m_Name: Aiza + Kara Part1
  m_EditorClassIdentifier: 
  _HiddenIdentifier: 3bbbad6a-076b-48ca-8549-60e0639504ea
  Identifier: 
  SetupScript: 'SPAWN housebg,0,0,bg

    MUSIC beachhouse'
  Script: 'SAY_RAW Aiza: Hey Kara. What''s up?

    SAY_RAW Kara: Hello, Aiza. I''m
    sitting.

    SAY_RAW Aiza<frown>: Sitting?

    SAY_RAW Kara: Yes. Simply sitting.

    SAY_RAW
    Aiza<frown>: That seems kind of boring.

    SAY_RAW Kara: One woman''s "boring"
    is another''s "relaxing". I''m fine here.

    SAY_RAW Kara: I''ve seen you meditate
    frequently. Isn''t that the same thing as sitting?

    SAY_RAW Aiza<frown>:
    Not quite. There are mental and physical techniques that go along with it.

    SAY_RAW
    Aiza: Isn''t there something else you want to do instead of just sitting?

    SAY_RAW
    Kara<frown>: No. I don''t see why it''s a big deal.

    SAY_RAW Aiza<frown>:
    Like I said, it just seems...boring.

    SAY_RAW Kara: I finished all my chores
    yesterday, and I''m not on the cooking or cleaning rotation today. No one''s
    sick or injured. I don''t have anything to do.

    SAY_RAW Aiza<frown>: Don''t
    you have a hobby or something?

    SAY_RAW Kara: A what?

    SAY_RAW Aiza:
    A hobby. You know, something you like doing in your free time. Something you
    do just for fun.

    SAY_RAW Kara: I don''t normally have enough down time to
    do things with no explicit purpose. The hospital keeps me far too busy for that.

    SAY_RAW
    Aiza<frown>: Isn''t there anything you like to do?

    SAY_RAW Kara: I find
    enjoyment in saving lives and helping people. Why would I need something else?

    SAY_RAW
    Aiza: For times like this, I guess. When you''re just sitting. Or when you retire
    or something.

    SAY_RAW Kara<frown>: Exactly how old do you think I am?

    SAY_RAW
    Aiza: Come on, I bet we can figure out a fun activity for you to do. I''ve found
    some cool stuff in the corners of this house. There has to be something you enjoy.

    SAY_RAW
    Kara: If you insist.

    SAY_RAW Kara: I doubt I''ll enjoy anything as much
    as just sitting.

'
  RequiredCharacters:
  - Aiza
  - Kara
  TooltipText: 
  icon: {fileID: 0}
  RequiredSupportLevel: 3
  IsWithNytmur: 0
  AddNightmareBG: 0
