%YAML 1.1
%TAG !u! tag:unity3d.com,2011:
--- !u!114 &11400000
MonoBehaviour:
  m_ObjectHideFlags: 0
  m_CorrespondingSourceObject: {fileID: 0}
  m_PrefabInstance: {fileID: 0}
  m_PrefabAsset: {fileID: 0}
  m_GameObject: {fileID: 0}
  m_Enabled: 1
  m_EditorHideFlags: 0
  m_Script: {fileID: 11500000, guid: ce7eb6b9896181444a47dfcb6571071d, type: 3}
  m_Name: Aiza + Isgard - Part3
  m_EditorClassIdentifier: 
  _HiddenIdentifier: c6ee0666-854c-41be-ab52-a5667ccbb463
  Identifier: 
  SetupScript: 'SPAWN housebg,0,0,bg

    MUSIC beachhouse'
  Script: 'SAY_RAW Aiza: So let me get this straight. I can do anything I want here?

    SAY_RAW
    Isgard: That''s right.

    SAY_RAW Aiza: Okay. I choose to start the day by
    praying.

    SAY_RAW Isgard: You get a temporary boost to your wisdom stat and
    some spirit armor.

    SAY_RAW Aiza: Then I think I''ll brush my teeth and eat
    some breakfast.

    SAY_RAW Isgard<frown>: Um.

    SAY_RAW Aiza<frown>: What?

    SAY_RAW
    Isgard<frown>: You know this is a fantasy world, right? You don''t have to do
    all this normal stuff. You can do cool stuff you''d never get to do in real life.
    That''s the fun of it.

    SAY_RAW Aiza<frown>: Okay. After a moment of patient
    consideration, I drop-kick Gorrigan the Sorcerer in the balls.

    SAY_RAW Isgard<frown>:
    Point taken.

    SAY_RAW Isgard: You find a paper stuck to the village message
    board. It reads, "The villagers are complaining of a monstrous being that''s
    been eating their people. It appears to live inside the woods just outside the
    town. Are you brave enough to fight it?"

    SAY_RAW Aiza: Of course I am! Let''s
    go kick some ass!

    SAY_RAW Isgard: All right, we''re outside the creature''s
    layer. This monstrous being is revealed to be a chimaera. Roll for initiative!

    SAY_RAW
    Aiza<grin>: Yeah! 19!

    SAY_RAW Isgard<frown>: The chimaera rolled a 12, and
    I rolled...a 4. Fine. You go first.

    SAY_RAW Aiza: I pummel the chimaera
    with my fists!

    SAY_RAW Isgard: Nice, you did some fair damage. Now the chimaera
    moves.

    SAY_RAW Isgard<frown>: It strikes me for 10 damage. I''m nearly dead.

    SAY_RAW
    Aiza: What will you do?

    SAY_RAW Isgard<grin>: I''ll use my Staff of Sanctification
    to bathe it in holy fire! Roll for damage!

    SAY_RAW Isgard<frown>: A 1. A
    critical miss.

    SAY_RAW Aiza: So what does the chimaera do?

    SAY_RAW
    Isgard<frown>: He sticks his tongue out at me and steps aside to dodge the holy
    fire.

    SAY_RAW Aiza: My turn again, right? I''ll use my agility to jump behind
    him and kick him hard.

    SAY_RAW Isgard: The chimaera rolled a 4.

    SAY_RAW
    Aiza<grin>: And I rolled an 18!

    SAY_RAW Isgard<frown>: That''s enough to
    kill it. Hmmph.

    SAY_RAW Aiza<grin>: Wow, this is fun! I really feel like
    a monk! Tolly is going places!

    SAY_RAW Isgard<frown>: Cool.

    SAY_RAW
    Aiza<frown>: What''s your problem? You''ve been huffy this whole time.

    SAY_RAW
    Isgard<angry>: I just can''t believe that you, a first-time player, keep getting
    better rolls than me even though you''re using my broken dice!

    SAY_RAW Aiza<angry>:
    These dice are broken?! Isgard, you asshole! That''s a stupid thing to do.

    SAY_RAW
    Isgard<frown>: I just like being the best, okay? And I don''t get to be the best
    very often.

    SAY_RAW Aiza<frown>: If you''re the best because my dice are
    broken, then you''re not really the best. That''s a cheater''s way of winning.
    Sure, I''ve gotten lucky, but I also don''t know what I''m doing.

    SAY_RAW
    Isgard<frown>: Hmmph.

    SAY_RAW Aiza<frown>: You said at the beginning that
    this wasn''t competitive. It''s supposed to be just for fun. You should take
    your own advice to heart.

    SAY_RAW Isgard<frown>: I know. I just want to
    be the cool one.

    SAY_RAW Aiza: This is an imaginary world, right? We can
    all be cool. But Tolly''s definitely the coolest.

    SAY_RAW Aiza: Let''s try
    this. Want to trade dice with me?

    SAY_RAW Isgard<frown>: If you say so.

    SAY_RAW
    Aiza: It''s fine. Hand them over.

    SAY_RAW Isgard<angry>: Thanks--wait, did
    you scrape out all the high numbers? How did you do that so quickly?

    SAY_RAW
    Aiza<grin>: Monk''s secret. Now, roll for initiative!

'
  RequiredCharacters:
  - Aiza
  - Isgard
  TooltipText: Districts and Demons pt. 3
  icon: {fileID: -7321451856159453031, guid: ba1dc43b902473847a7763d515a6edae, type: 3}
  RequiredSupportLevel: 15
  IsWithNytmur: 0
  AddNightmareBG: 0
