%YAML 1.1
%TAG !u! tag:unity3d.com,2011:
--- !u!114 &11400000
MonoBehaviour:
  m_ObjectHideFlags: 0
  m_CorrespondingSourceObject: {fileID: 0}
  m_PrefabInstance: {fileID: 0}
  m_PrefabAsset: {fileID: 0}
  m_GameObject: {fileID: 0}
  m_Enabled: 1
  m_EditorHideFlags: 0
  m_Script: {fileID: 11500000, guid: ce7eb6b9896181444a47dfcb6571071d, type: 3}
  m_Name: Carlos + Kara Part3
  m_EditorClassIdentifier: 
  _HiddenIdentifier: 7d7bed82-964a-43f9-b3bb-01ae248f3634
  Identifier: 
  SetupScript: 'SPAWN housebg,0,0,bg

    MUSIC beachhouse'
  Script: 'SAY_RAW Carlos: Kara! Look what I found!

    SAY_RAW Kara: Is that one
    of those flying pigs from the Cloudlands?

    SAY_RAW Carlos<grin>: Yeah. I
    found it just outside the entrance on the sand. It looks like it''s recently
    dead. We can try our embalming on it!

    SAY_RAW Kara: Good idea. I''ll see
    what I can find in my pack while you wash your hands. Thoroughly.

    SAY_RAW
    Carlos: Give me a minute.

    SAY_RAW Carlos: All right, what do we do first?

    SAY_RAW
    Kara: Let''s put on gloves.

    SAY_RAW Kara: I''m not sure that this is absolutely
    scientific, but I''ve got some hand sanitizer and a bottle of wound cleaner that
    I found in my pack, and there was some salt in the kitchen. Let''s mix this all
    together and see what happens.

    SAY_RAW Carlos: Here, put it in this bowl.

    SAY_RAW
    Carlos: Mix it together, then cover the pig...

    SAY_RAW Kara: I think that''s
    all we need. Now to wait and see what happens.

    SAY_RAW Kara: I couldn''t
    find my notepad, unfortunately. Otherwise we could record the results.

    SAY_RAW
    Carlos<sad>: I don''t think we''d want to record this. Look, the pig''s already
    decomposing.

    SAY_RAW Kara<frown>: If anything, it''s happening faster than
    normal. That''s too bad.

    SAY_RAW Carlos<sad>: This poor pig. He didn''t
    deserve this.

    SAY_RAW Carlos<sad>: I''m going to perform a burial ritual
    for him. You''re welcome to participate if you want.

    SAY_RAW Kara: I think
    I''ll stay on the sidelines, thanks.

    SAY_RAW Carlos: Suit yourself.

    SAY_RAW
    Carlos<sleep>: Ahem. We''re gathered here today to see off this winged pig, whose
    life we didn''t know much about...

    SAY_RAW Kara<frown>: (He''s referring
    to the pig like it''s a person.)

    SAY_RAW Carlos<sad>: We''re sorry if we
    distressed your spirit. Our attempts to, uh, forward science were unsuccessful.

    SAY_RAW
    Kara<frown>: (To say the least.)

    SAY_RAW Carlos<sleep>: We sincerely hope
    that your piggy brethren continue to flourish in the Cloudlands, and we wish
    you safe travels to your afterlife of choice.

    SAY_RAW Carlos: Kara, are
    you sure you don''t want to say anything?

    SAY_RAW Kara: Um. I hope you have
    a nice...immaterial...life. Post-life.

    SAY_RAW Carlos: Seconded.

    SAY_RAW
    Carlos<sad>: Rest in peace, piggie.

    SAY_RAW Kara: You put sincere effort
    into that ceremony. Why?

    SAY_RAW Carlos: Well, you know me. I love rituals
    and burials.

    SAY_RAW Carlos<sad>: I also genuinely felt bad for that pig.
    We probably shouldn''t have messed with him, even after death.

    SAY_RAW Kara<grin>:
    I wish we had the time to do this for everyone who passes away in the hospital.
    Practical demands mean that we don''t, but...it seems nice.

    SAY_RAW Carlos:
    I think it''s respectful.

    SAY_RAW Carlos<frown>: I hope this pig doesn''t
    come back and haunt us for this.

    SAY_RAW Kara<frown>: I refuse to believe
    it!

    SAY_RAW Carlos<grin>: Is that a hint of fear in your voice?

    SAY_RAW
    Kara<frown>: It most certainly is not.

'
  RequiredCharacters:
  - Carlos
  - Kara
  TooltipText: 
  icon: {fileID: 0}
  RequiredSupportLevel: 15
  IsWithNytmur: 0
  AddNightmareBG: 0
