%YAML 1.1
%TAG !u! tag:unity3d.com,2011:
--- !u!114 &11400000
MonoBehaviour:
  m_ObjectHideFlags: 0
  m_CorrespondingSourceObject: {fileID: 0}
  m_PrefabInstance: {fileID: 0}
  m_PrefabAsset: {fileID: 0}
  m_GameObject: {fileID: 0}
  m_Enabled: 1
  m_EditorHideFlags: 0
  m_Script: {fileID: 11500000, guid: ce7eb6b9896181444a47dfcb6571071d, type: 3}
  m_Name: Carlos + Francine Part3
  m_EditorClassIdentifier: 
  _HiddenIdentifier: 0b075dbf-85c3-4805-b8c7-dd76d25e94dd
  Identifier: 
  SetupScript: 'SPAWN housebg,0,0,bg

    MUSIC beachhouse'
  Script: 'SAY_RAW Francine: Carlos? I had an idea and I''m curious what you''d think
    about it.

    SAY_RAW Carlos: Let me hear it.

    SAY_RAW Francine<grin>: Remember
    how we said that movie that Hollywood wants to make is full of tropes and spirit
    stereotypes? Well, what if we made our own movie instead? Something more...realistic.

    SAY_RAW
    Carlos<frown>: It''s a fun idea, but I''m no camera operator or director. I doubt
    it would match up with anything you''d find on the internet, let alone a Hollywood-funded
    movie.

    SAY_RAW Francine: I was thinking that we could just write the script
    and stage directions ourselves. When we wake up, I can pitch it to a few studios
    to see if anyone would be interested in making it. I''ve made a few director
    friends over the years.

    SAY_RAW Carlos: I say it''s worth a shot, then.
    I''d love to be able to tell the world what spirits are really like. They don''t
    show up on camera, so it''s hard to actually show them.

    SAY_RAW Carlos:
    Where do we start?

    SAY_RAW Francine: Well, since we can''t interview them
    directly, maybe we could do some reenactments with a voiceover. Sort of like
    a documentary, you know?

    SAY_RAW Francine: You tell me some interesting
    stories about you and the spirits and I''ll write them down. What''s the funniest
    thing that a spirit has ever said to you?

    SAY_RAW Carlos<grin>: The funniest
    thing... It was probably the time that a ghost tried to insult me by telling
    me I looked "as pale as death". I told her, "Have you looked in the mirror recently?
    You''re translucent!"

    SAY_RAW Francine<grin>: That''s what she deserves
    for trying to insult you!

    SAY_RAW Carlos<grin>: There was another funny
    moment where a spirit tried to scare me by popping out of my portal with a hockey
    mask and a chainsaw. He thought I was some sort of summoning novice. I told him
    that his mask was upside down and his chainsaw wasn''t plugged in, and he got
    so mad that he disappeared in a puff of smoke.

    SAY_RAW Francine<grin>: This
    is great material! I think people will be a lot more interested in seeing actual
    stories of spirits than that fake creepy stuff.

    SAY_RAW Francine: Let''s
    go in a different direction. What''s a touching moment you had with a specter?

    SAY_RAW
    Carlos: I did run into Marty''s grandmother once. I''d only met her once in real
    life, so I wasn''t sure if she''d recognize me, but she knew me right away.

    SAY_RAW
    Francine<frown>: Did she know that Marty had...passed?

    SAY_RAW Carlos: She
    did. Spirits have an innate knowledge of that sort of thing. She hadn''t seen
    him in the spirit world, but she promised that she would look for him.

    SAY_RAW
    Carlos<sad>: I think she could tell that I was more upset than usual, having
    gotten so close to finding him. She gave me a hug and told me that even though
    we''d only met that one time, it was enough for her to know that Marty and I
    were soulmates. It was...very kind of her. That night, I went to bed with more
    hope than I''d had in weeks.

    SAY_RAW Francine<frown>: If I end up portraying
    Marty''s grandmother, I hope I can do it with as much emotion as you did here.

    SAY_RAW
    Francine: Is it okay if I act in the movie? In the reenactment segments?

    SAY_RAW
    Carlos: I think the spirits would like that. It''s only fitting, since you''ve
    taken the time to get to know their world.

    SAY_RAW Francine<grin>: I''d
    welcome the chance. I''d also love to do the wardrobe! Spirits might be translucent,
    but there''s no reason they can''t look good in only one color.

    SAY_RAW
    Francine: We mentioned a voiceover, too. I really like the way you''re telling
    these stories. Do you want to be the narrator? I''m sure my manager would appreciate
    not having to find someone else to do it.

    SAY_RAW Carlos<grin>: I''d love
    to! Being able to put my voice in something that matters so much to me would
    be...amazing.

    SAY_RAW Carlos: It''s too bad Marty won''t be able to see
    it. He always did want to be in a movie.

    SAY_RAW Francine<grin>: Well, since
    you''re in one, he''s in it by proxy.

    SAY_RAW Carlos: Speaking of which...would
    you pass me your notes?

    SAY_RAW Francine: Here you go.

    SAY_RAW Francine:
    What are you writing on them?

    SAY_RAW Carlos: You can see for yourself.

    SAY_RAW
    Francine: "Stories of Specters: Tales of the Dead In Their Own Words. Dedicated
    to Marty, who has joined their ranks already. I love you. Carlos."

    SAY_RAW
    Francine: I''ll make sure it comes right after the title card.

    SAY_RAW Carlos<sleep>:
    I''d really appreciate that. Thanks, Francine.

'
  RequiredCharacters:
  - Carlos
  - Francine
  TooltipText: 
  icon: {fileID: 0}
  RequiredSupportLevel: 15
  IsWithNytmur: 0
  AddNightmareBG: 0
