%YAML 1.1
%TAG !u! tag:unity3d.com,2011:
--- !u!114 &11400000
MonoBehaviour:
  m_ObjectHideFlags: 0
  m_CorrespondingSourceObject: {fileID: 0}
  m_PrefabInstance: {fileID: 0}
  m_PrefabAsset: {fileID: 0}
  m_GameObject: {fileID: 0}
  m_Enabled: 1
  m_EditorHideFlags: 0
  m_Script: {fileID: 11500000, guid: ce7eb6b9896181444a47dfcb6571071d, type: 3}
  m_Name: Carlos + Matt Part2
  m_EditorClassIdentifier: 
  _HiddenIdentifier: 7a6ad158-0abf-48f5-9b13-32c41b4cdecd
  Identifier: 
  SetupScript: 'SPAWN housebg,0,0,bg

    MUSIC beachhouse'
  Script: "(Only Carlos is present at the beginning)\nSAY_RAW Carlos: Damn, that
    episode was fantastic. The way the serial killer covered the blood in ketchup
    to disguise it is just devious.\nSAY_RAW Carlos<frown>: Where's Matt? He said
    he was going to watch it with me.\nSAY_RAW Carlos<surprise>: Whoa, it's 9 o'clock
    already? I totally forgot to eat dinner. I need to slam it down if I'm going
    to do my pre-bed ritual on time.\n(Matt enters, facing away)\nSAY_RAW Matt<frown>:
    Where is that bag of spinach? He said it was right here in the fridge...\nSAY_RAW
    Carlos: Matt! Where were you? You missed tonight's Bloody Empire!\n(Matt faces
    toward Carlos)\nSAY_RAW Matt<surprise>: Oh crap, I completely forgot! I knew
    I was missing something. My pec workout ran too long and I wasn't watching the
    clock...\nSAY_RAW Matt: Fill me in on what happened.\nSAY_RAW Carlos: Okay, so
    the most interesting part was that they discovered that the serial killer was
    covering his blood trails in ketchup so they would look just like food spills.
    He also started leaving messages on the painted gravestones, like--\nSAY_RAW
    Matt: Yeah, yeah, but did the guy's wife catch the mistress?\nSAY_RAW Carlos<frown>:
    Uh, I don't remember. But they found an ouija board in his room and they think
    he was trying to summon the souls of his victims. Why would he want to torment
    them in death, I wonder...\nSAY_RAW Matt: I still don't understand what would
    make the guy kill like this. Was it his troubled past? His abusive relationships?
    Does he really love the mistress, or is she just another victim in this whole
    thing?\nSAY_RAW Carlos: You remind me a little of Marty. He was always focused
    on shows' relationships, too.\nSAY_RAW Matt<grin>: Yeah, I kinda have a thing
    for reality TV. Everyone teases me about it, and I know it's trashy, but it's
    just so fun to watch, right? It's nice to get caught up in someone else's problems
    for a little while.\nSAY_RAW Carlos: There's no shame in that. We all have our
    guilty pleasures.\nSAY_RAW Matt: You seem to be really interested in the...death
    parts.\nSAY_RAW Carlos: It's a lifelong thing. I've always been interested in
    rituals, burial grounds, death rites, those sorts of things. \nSAY_RAW Carlos<frown>:
    Come on, don't look at me like that. I'm not a serial killer or anything. I just
    find the many ways that humans deal with death fascinating.\nSAY_RAW Matt: Like
    you said, we all have our guilty pleasures.\nSAY_RAW Matt: So when's the season
    finale? I've gotta see that prison interview.\nSAY_RAW Carlos<grin>: I think
    it's tomorrow, same time as usual. Meet in my room beforehand?\nSAY_RAW Matt<grin>:
    Sounds great!\n"
  RequiredCharacters:
  - Carlos
  - Matt
  TooltipText: 
  icon: {fileID: 0}
  RequiredSupportLevel: 7
  IsWithNytmur: 0
  AddNightmareBG: 0
