%YAML 1.1
%TAG !u! tag:unity3d.com,2011:
--- !u!114 &11400000
MonoBehaviour:
  m_ObjectHideFlags: 0
  m_CorrespondingSourceObject: {fileID: 0}
  m_PrefabInstance: {fileID: 0}
  m_PrefabAsset: {fileID: 0}
  m_GameObject: {fileID: 0}
  m_Enabled: 1
  m_EditorHideFlags: 0
  m_Script: {fileID: 11500000, guid: ce7eb6b9896181444a47dfcb6571071d, type: 3}
  m_Name: Carlos + Faith Part3
  m_EditorClassIdentifier: 
  _HiddenIdentifier: 8716b8d8-20c8-45c1-9a5d-a928f347a2e5
  Identifier: 
  SetupScript: 'SPAWN housebg,0,0,bg

    MUSIC beachhouse'
  Script: 'SAY_RAW Faith<frown>: It''s so d-dark in h-here...c-can we t-turn on a
    light?

    SAY_RAW Carlos: I wish we could, but we can''t. If there''s something
    dangerous in here, a lightbulb would be like a hot pizza sign for a monster.

    SAY_RAW
    Faith<frown>: How c-can I t-tell it that I d-don''t taste g-good?

    SAY_RAW
    Carlos: Shh! Did you hear that?

    SAY_RAW Faith<frown>: N-no.

    SAY_RAW
    Carlos: Listen again.

    SAY_RAW House: Thump.

    SAY_RAW Faith: The s-same
    sound, b-but quieter this t-time.

    SAY_RAW Carlos: Exactly. Maybe whatever
    it is has realized its mistake.

    SAY_RAW Carlos: I think it''s in one of
    the rooms. Let''s go down the hallway.

    SAY_RAW Faith<frown>: How h-has no
    one else w-woken up?

    SAY_RAW Carlos: Good question. Maybe it put them into
    a trance.

    SAY_RAW Faith<surprise>: EEEK!

    SAY_RAW Carlos<angry>: Faith!
    If you''re going to eek, eek quietly.

    SAY_RAW Faith<frown>: S-sorry. Eeek!

    SAY_RAW
    Carlos<frown>: Uh-oh.

    SAY_RAW Carlos<frown>: I think it''s in my room.

    SAY_RAW
    Faith<frown>: ...

    SAY_RAW Carlos: I''m going to open the door. Stand back,
    okay?

    SAY_RAW Faith<frown>: Is your h-hand shaking?

    SAY_RAW Carlos<frown>:
    Of course not. I just haven''t taken my medication yet today.

    SAY_RAW Faith<frown>:
    (It''s the end of the day.)

    SAY_RAW Carlos: On the count of three.

    SAY_RAW
    Carlos: One...two...THREE!

    SAY_RAW Faith<surprise>: EEK!

    (Spirit enters
    - name but no portrait)

    SAY_RAW Spirit: EEK!

    SAY_RAW Carlos<surprise>:
    Wait. You''re not a monster. You''re a spirit!

    SAY_RAW Spirit: Yes! Please
    don''t be mad at me!

    SAY_RAW Faith<surprise>: How d-did you get here?

    SAY_RAW
    Spirit: I was wandering around the spirit world, but someone left a gateway open
    and I got sucked out. I don''t know how to get back!

    SAY_RAW Carlos<frown>:
    That''s probably my fault. I thought I closed the gateway after I finished my
    seance, but I guess I left it open.

    SAY_RAW Carlos: Easy there, easy there.
    Don''t cry. We''ll help you get back. Let me work for a little bit.

    SAY_RAW
    Spirit: Sniff.

    SAY_RAW Spirit: I''m sorry for knocking your things over.
    I can''t see very well in the dark, and I walked into something and it made a
    big crash.

    SAY_RAW Faith: (For some reason, I always assumed ghosts could
    see well in the dark.)

    SAY_RAW Faith: What''s it l-like in the sp-spirit
    world?

    SAY_RAW Spirit: Normally it''s very nice. There''s always this gentle
    pink glow, and the weather is pleasant year-round. We have a little beach that
    looks kind of like yours.

    SAY_RAW Faith: That s-sounds n-nice. Can I v-visit?

    SAY_RAW
    Spirit: I wish, but it''s a lot harder for living people to get into the spirit
    realm than it is for us to visit you. Dreams are probably as close as you can
    get for now.

    SAY_RAW Spirit: Come and find me when you get there, okay?
    But hopefully that isn''t for a very long time.

    SAY_RAW Spirit: My name
    is Chloe.

    SAY_RAW Faith: I''m Faith. It''s v-very nice to meet you.

    SAY_RAW
    Faith: (I never thought I''d be saying that to a ghost...)

    SAY_RAW Carlos:
    All right, I''ve reopened the gateway. It''ll only last until the candles burn
    out, though, so you''d better hurry.

    SAY_RAW Spirit: Goodbye, Faith. I hope
    you have a nice life.

    SAY_RAW Faith: Goodbye, Chloe. I hope you have a nice...afterlife?

    SAY_RAW
    Spirit: Hee hee. Thank you.

    (Spirit exits)

    SAY_RAW Faith: You''re right.
    Ghosts aren''t as bad as people say they are.

    SAY_RAW Faith: That''s one
    less thing to be afraid of, I guess.

    SAY_RAW Carlos: Like I said, most of
    them are very nice. I enjoy talking to them.

    SAY_RAW Faith: I think I do,
    too.

'
  RequiredCharacters:
  - Carlos
  - Faith
  TooltipText: 
  icon: {fileID: 0}
  RequiredSupportLevel: 15
  IsWithNytmur: 0
  AddNightmareBG: 0
