%YAML 1.1
%TAG !u! tag:unity3d.com,2011:
--- !u!114 &11400000
MonoBehaviour:
  m_ObjectHideFlags: 0
  m_CorrespondingSourceObject: {fileID: 0}
  m_PrefabInstance: {fileID: 0}
  m_PrefabAsset: {fileID: 0}
  m_GameObject: {fileID: 0}
  m_Enabled: 1
  m_EditorHideFlags: 0
  m_Script: {fileID: 11500000, guid: ce7eb6b9896181444a47dfcb6571071d, type: 3}
  m_Name: Dad + Kara Part3
  m_EditorClassIdentifier: 
  _HiddenIdentifier: a64e319b-d396-4d4d-b435-31a6ae8297ef
  Identifier: 
  SetupScript: 'SPAWN housebg,0,0,bg

    MUSIC beachhouse'
  Script: "(Only Kara is present)\nSAY_RAW Kara: 8:32? Time to take my medication.
    I'll have to go to the kitchen pantry to get it.\nSAY_RAW Kara<angry>: I can't
    believe they picked Dad's meal over mine. He had one course and no appetizers.
    Is grilling even considered cooking?\nSAY_RAW Kara<angry>: I took the time to
    make sure that all of my cucumber sandwiches were the exact same size!\nSAY_RAW
    Kara: Easy, Kara. You know that your food is better than his, and that's what
    matters.\nSAY_RAW Kara: Here are my pills, right where I left them. Now I just
    need some water from inside the fridge.\nSAY_RAW Kara: What's that next to my
    water bottle? Leftovers?\nSAY_RAW Kara<frown>: Dad's steaks. If they're that
    good, why weren't all of them eaten?\nSAY_RAW Kara<frown>: Hmmph. I see no one's
    touched my leftovers.\nSAY_RAW Kara: Why are there crumbs all over this table?
    Someone didn't clean up correctly after dinner.\nSAY_RAW Kara: (Do his steaks
    really taste good?)\nSAY_RAW Kara: While I'm here, I may as well put these dishes
    away.\nSAY_RAW Kara: (They're right there in the refrigerator. I could try them.)\nSAY_RAW
    Kara<frown>: Absolutely not! These towels need to be folded.\nSAY_RAW Kara: (Just
    one bite. You could cut it so that no one would know.)\nSAY_RAW Kara<angry>:
    Why do I keep thinking about those steaks?!\nSAY_RAW Kara<frown>: Fine. One bite.
    Just to prove that they're not as good as my food.\nSAY_RAW Kara: Cut off a tiny
    bit, put it on a plate, warm it in the microwave...\nSAY_RAW Kara<frown>: Let's
    see what these really taste like.\n(Dad enters)\nSAY_RAW Dad<surprise>: Kara?
    What are you doing in the dark?\nSAY_RAW Kara<embarrassed>: Dad?! I'm not doing
    anything of importance!\nSAY_RAW Kara<embarrassed>: Just cleaning up the counter
    and folding towels.\nSAY_RAW Dad<frown>: And putting plates in your pack?\nSAY_RAW
    Kara<embarrassed>: Yes. I'm taking them to my room for important medical purposes.\nSAY_RAW
    Dad<frown>: Kara, don't lie to me. I saw you about to take a big bite of my steak.\nSAY_RAW
    Kara<frown>: I blame my mental facilities. They insisted that I try it.\nSAY_RAW
    Dad: There's nothing wrong with that.\nSAY_RAW Dad: Go on. Give it a bite.\nSAY_RAW
    Kara<frown>: Why aren't you yelling at me? You have every right to.\nSAY_RAW
    Dad: Even though you were upset, you were gracious to me at the cook-off. It's
    not fair for me to yell.\nSAY_RAW Dad<grin>: Besides, it makes me happy when
    people enjoy my food. I hope you like it! And if you don't, well...there's been
    a mis-steak!\nSAY_RAW Kara: Thank you.\nSAY_RAW Kara<grin>: Wow, this is wonderful.
    How did you cook this so well?\nSAY_RAW Dad<grin>: Father's secret! It's something
    I've always known how to do.\nSAY_RAW Kara: It's incredibly savory. I didn't
    think such depth of flavor could be found in something so...\nSAY_RAW Dad: Simple?\nSAY_RAW
    Kara: Yes. \nSAY_RAW Dad: Complex doesn't necessarily mean better.\nSAY_RAW Dad<grin>:
    I'm just glad you enjoyed it!\nSAY_RAW Kara<grin>: I did, Dad. Thank you."
  RequiredCharacters:
  - Dad
  - Kara
  TooltipText: 
  icon: {fileID: 0}
  RequiredSupportLevel: 15
  IsWithNytmur: 0
  AddNightmareBG: 0
