%YAML 1.1
%TAG !u! tag:unity3d.com,2011:
--- !u!114 &11400000
MonoBehaviour:
  m_ObjectHideFlags: 0
  m_CorrespondingSourceObject: {fileID: 0}
  m_PrefabInstance: {fileID: 0}
  m_PrefabAsset: {fileID: 0}
  m_GameObject: {fileID: 0}
  m_Enabled: 1
  m_EditorHideFlags: 0
  m_Script: {fileID: 11500000, guid: ce7eb6b9896181444a47dfcb6571071d, type: 3}
  m_Name: Faith + Kara Part1
  m_EditorClassIdentifier: 
  _HiddenIdentifier: a7ee843a-f3ae-4c97-bfb9-be40aa4310fb
  Identifier: 
  SetupScript: 'SPAWN housebg,0,0,bg

    MUSIC beachhouse'
  Script: 'SAY_RAW Kara: Faith? What''s going on?

    SAY_RAW Faith<frown>: Oh,
    h-hi Kara.

    SAY_RAW Kara: You look upset. Are you in pain?

    SAY_RAW Faith<frown>:
    N-no.

    SAY_RAW Kara: Was someone rude to you?

    SAY_RAW Faith<frown>:
    Not th-this time.

    SAY_RAW Kara: Are you just sad?

    SAY_RAW Faith<frown>:
    I m-mean, yes? B-but also n-no.

    SAY_RAW Kara<frown>: Then what happened?

    SAY_RAW
    Faith<frown>: Can we j-just be quiet for a m-minute?

    SAY_RAW Kara: All right.
    I''m not a touchy-feely person, but I suppose a hug would help you.

    SAY_RAW
    Faith<frown>: Y-you''re right. Th-thanks.

    SAY_RAW Kara: There''s a box of
    tissues in my bag. Fish one out and dry your eyes.

    SAY_RAW Faith<frown>:
    Okay.

    SAY_RAW Kara: Well, your cheeks are still a little swollen, but that
    will go away.

    SAY_RAW Kara: Now, what was your issue?

    SAY_RAW Faith:
    Well, I was t-trying to sharpen my arrows, b-but I was having a t-tough time.
    I wanted t-to ask someone for help, b-but everyone looked really b-busy and I
    didn''t want to b-bother them.

    SAY_RAW Faith<frown>: I g-got really nervous
    and everything st-started to spin.

    SAY_RAW Kara: $f1 and $f2 are over there
    building a potato chip fortress. I''m sure they could spare a moment to give
    you a hand.

    SAY_RAW Faith<frown>: B-but they were really c-concentrating...

    SAY_RAW
    Kara: Faith, let me give you some advice. I know it''s easy to fall back on this
    nervousness, but you''re never going to get anywhere if you can''t push through
    it. Just get up and ask someone. Nine times out of ten, you''ll find that this
    fear of "bothering someone" is all in your head.

    SAY_RAW Faith<frown>: B-but...

    SAY_RAW
    Kara<frown>: No buts. You''ve gotta stand up for yourself. I won''t always be
    here to hand out tissues and advice.

    SAY_RAW Kara: I can''t afford to get
    overwhelmed that easily, especially in my line of work.

    SAY_RAW Faith<frown>:
    I d-don''t know if I can d-do that, Kara. I j-just want to...it m-makes me...

    SAY_RAW
    Faith<frown>: I have to g-go.

    SAY_RAW Kara<frown>: What on earth was she
    going on about? Usually my advice reinforces people immediately.

'
  RequiredCharacters:
  - Faith
  - Kara
  TooltipText: Tough Love
  icon: {fileID: 0}
  RequiredSupportLevel: 3
  IsWithNytmur: 0
  AddNightmareBG: 0
