%YAML 1.1
%TAG !u! tag:unity3d.com,2011:
--- !u!114 &11400000
MonoBehaviour:
  m_ObjectHideFlags: 0
  m_CorrespondingSourceObject: {fileID: 0}
  m_PrefabInstance: {fileID: 0}
  m_PrefabAsset: {fileID: 0}
  m_GameObject: {fileID: 0}
  m_Enabled: 1
  m_EditorHideFlags: 0
  m_Script: {fileID: 11500000, guid: ce7eb6b9896181444a47dfcb6571071d, type: 3}
  m_Name: Faith + Kion - Part 3
  m_EditorClassIdentifier: 
  _HiddenIdentifier: 90be7df2-b2de-4051-874f-849291db98d6
  Identifier: 
  SetupScript: 'SPAWN housebg,0,0,bg

    MUSIC beachhouse'
  Script: 'SAY_RAW Faith: Kion? Are y-you in h-here?

    SAY_RAW Kion: I''m back
    here!

    SAY_RAW Kion: Sorry. It''s hard to see through all the plants sometimes.

    SAY_RAW
    Faith: We have d-dinner duty t-together. Ready to g-get started?

    SAY_RAW
    Kion<frown>: I completely forgot. That means I''ll have to do my evening watering
    later than I usually do. Man...

    SAY_RAW Faith<frown>: I''m s-sorry.

    SAY_RAW
    Kion: No need to apologize so much, Faith. Everything''s fine.

    SAY_RAW Kion:
    Let''s go figure out dinner.

    SAY_RAW Faith: Wh-what should we m-make?

    SAY_RAW
    Kion: When we were looking for the book on fertilizer, I saw a book of plant-based
    recipes on your shelf. Let''s check that out. I have some vegetables in my room
    that we can use.

    SAY_RAW Faith: S-sounds great. You g-get those, and I''ll
    g-get the book.

    FADE 0,1

    FADE 1,1

    SAY_RAW Faith: ...

    SAY_RAW
    Kion: ...

    SAY_RAW Faith: (The book says to put the kale in next. Maybe if
    I motion toward Kion, they''ll hand me the kale.)

    SAY_RAW Kion<frown>: (Faith''s
    waving her hand at me. What does she want? Maybe the tomato?)

    SAY_RAW Faith<surprise>:
    (Why did they give me this? This is a tomato, not kale. Never mind, I''ll grab
    it myself.)

    SAY_RAW Kion: (I need to mix the batter in a bowl for 5 minutes.
    Let me just set it on the counter and grab the dough.)

    SAY_RAW Faith<grin>:
    (A bowl! Good, I can use that to combine the veggies.)

    SAY_RAW Kion: (Okay,
    I''ve got the dough. Where did my bowl go?)

    SAY_RAW Kion<frown>: (Why is
    she using it to combine the vegetables?)

    SAY_RAW Kion<frown>: Uh, Faith?

    SAY_RAW
    Faith: Yeah?

    SAY_RAW Kion<frown>: I''m not sure we can do this in silence,
    man.

    SAY_RAW Faith<frown>: You''re r-right.

    SAY_RAW Faith: Let me just
    p-put what we h-have in the o-oven.

    SAY_RAW Kion<frown>: It doesn''t look
    very tasty.

    SAY_RAW Faith<frown>: No, it d-doesn''t. Maybe we sh-should
    just let it b-burn.

    SAY_RAW Faith: Can I admit s-something?

    SAY_RAW
    Kion: Go for it.

    SAY_RAW Faith: I really like b-being around you and b-being
    quiet. It''s n-nice.

    SAY_RAW Kion: I know what you mean, man. At first I
    didn''t think I''d like having someone around so much, but it''s nice to have
    another presence there, you know?

    SAY_RAW Faith<grin>: Yeah! I''m so g-glad
    you feel the same way. It m-means a lot to me.

    SAY_RAW Kion: Me too. Thanks
    for being a good friend in silence, Faith.

    SAY_RAW Faith: You too, Kion.

    SAY_RAW
    Faith<surprise>: Uh-oh! The mix really is burning!

    SAY_RAW Kion<grin>: Whatever.
    We can just have some of my veggie straws instead.

'
  RequiredCharacters:
  - Faith
  - Kion
  TooltipText: 
  icon: {fileID: 0}
  RequiredSupportLevel: 15
  IsWithNytmur: 0
  AddNightmareBG: 0
