%YAML 1.1
%TAG !u! tag:unity3d.com,2011:
--- !u!114 &11400000
MonoBehaviour:
  m_ObjectHideFlags: 0
  m_CorrespondingSourceObject: {fileID: 0}
  m_PrefabInstance: {fileID: 0}
  m_PrefabAsset: {fileID: 0}
  m_GameObject: {fileID: 0}
  m_Enabled: 1
  m_EditorHideFlags: 0
  m_Script: {fileID: 11500000, guid: ce7eb6b9896181444a47dfcb6571071d, type: 3}
  m_Name: Francine + Kion 1
  m_EditorClassIdentifier: 
  _HiddenIdentifier: 3975f5b1-2a01-4688-8137-b1261e6c7e9a
  Identifier: 
  SetupScript: 'SPAWN forestbg,0,0,bg

    MUSIC beachhouse'
  Script: '(Only Francine is present at the beginning)

    SAY_RAW Francine: I should
    come out here for walks more often. The air is fresh, the trees are lush and
    green...

    SAY_RAW Francine: I wish more places like this existed in the real
    world.

    SAY_RAW Francine<grin>: Oh! That pink flower is beautiful! It''s
    just growing right here on the edge of the path. It''s practically asking to
    be picked.

    SAY_RAW Francine: Pink accessories bring out the color of your
    cheeks and lips. Plus, it would go very well with this skirt. I knew peach was
    the right color to wear today.

    SAY_RAW Francine<grin>: I''ll tuck it right
    behind my ear. Just wait until the others see it!

    SAY_RAW Francine<surprise>:
    My, is it really that late already? I need to go back to the house. I don''t
    want to miss dinner again.

    FADE 0,1

    SAY_RAW Narrator: A few minutes
    later...

    CLEAR bg

    SPAWN housebg,0,0,bg

    FADE 1,1

    SAY_RAW Francine<surprise>:
    I feel--strange. Flushed. Why is everything spinning?

    SAY_RAW Francine<sleep>:
    I should try to--sit down--

    SAY_RAW Francine<surprise>: It wasn''t--hot,
    and nothing--bit me. Why do I--feel like--this...?

    (Kion enters)

    SAY_RAW
    Kion: I think someone left a chocolate bar on the table last night. I bet that
    would make a good pre-dinner snack.

    SAY_RAW Kion: Oh. Those are Francine''s
    shoes. Pink with purple laces and snaps...I like them. Those would go well with
    my flowers, man.

    SAY_RAW Kion<frown>: Wait. I saw Francine leave for a walk
    earlier. Why are her shoes here? Did she go barefoot?

    SAY_RAW Francine<sleep>:
    Oh--ohhhh dear--

    SAY_RAW Kion: Francine? Is everything cool?

    SAY_RAW
    Kion<surprise>: Wait! That''s a poisonous flower in your hair! You shouldn''t
    put that anywhere near your skin.

    SAY_RAW Francine<sleep>: A--a what?

    SAY_RAW
    Kion<surprise>: That''s a clematis flower. They''re alluring but dangerous, man.
    Did you find it in the woods?

    SAY_RAW Francine<sleep>: Yes...

    SAY_RAW
    Kion<frown>: I didn''t know they grew there. I''ll tell the group later. For
    now, you need to get that out of your hair, man.

    SAY_RAW Kion: I''ll grab
    it with this chocolate bar wrapper.

    SAY_RAW Kion: Stay calm and breathe.
    Deep breaths. That wasn''t enough poison to really hurt you, but you''ll probably
    feel strange for a while.

    SAY_RAW Francine<sleep>: I''m--I''m okay. Thank
    you, Kion. I didn''t--didn''t know that flower was poisonous.

    SAY_RAW Kion<frown>:
    Looking nice isn''t worth getting sick from these. They''re very dangerous. I
    don''t grow them in my greenhouse because of that.

    SAY_RAW Francine<embarrassed>:
    I promise I won''t--won''t be picking any more flowers any time--soon.

    SAY_RAW
    Kion: It''s all good, man. I''m glad you''re okay.

    SAY_RAW Francine<embarrassed>:
    I am too. Thank goodness you--you were around.

    SAY_RAW Francine<sleep>:
    I''m going--going to rest for a little bit. You don''t have to--to stay with
    me.

    SAY_RAW Kion: Call if you need help, okay? I''ll tell everyone what
    happened.

    SAY_RAW Francine<sleep>: Thanks, Kion.

'
  RequiredCharacters:
  - Francine
  - Kion
  TooltipText: 
  icon: {fileID: 2930469019482044741, guid: 8f76f01ac3c769543aa084f30bffa46a, type: 3}
  RequiredSupportLevel: 1
  IsWithNytmur: 0
  AddNightmareBG: 0
