%YAML 1.1
%TAG !u! tag:unity3d.com,2011:
--- !u!114 &11400000
MonoBehaviour:
  m_ObjectHideFlags: 0
  m_CorrespondingSourceObject: {fileID: 0}
  m_PrefabInstance: {fileID: 0}
  m_PrefabAsset: {fileID: 0}
  m_GameObject: {fileID: 0}
  m_Enabled: 1
  m_EditorHideFlags: 0
  m_Script: {fileID: 11500000, guid: ce7eb6b9896181444a47dfcb6571071d, type: 3}
  m_Name: Isgard + Raven Part2
  m_EditorClassIdentifier: 
  _HiddenIdentifier: 0ea613d8-b1df-449f-93ff-174c13a72045
  Identifier: 
  SetupScript: 'SPAWN housebg,0,0,bg

    MUSIC beachhouse'
  Script: 'SAY_RAW Raven<grin>: Ah, we meet again! What brings you to the kitchen?

    SAY_RAW
    Isgard: Just questing for more snacks. I heard that the pantry apparently refilled
    itself after I brought everything to my room.

    SAY_RAW Raven: A strange turn
    of events. Maybe I can find something to enjoy, too.

    SAY_RAW Isgard<grin>:
    Like I was saying last time, my mom keeps our home pantry full of the best snacks.
    She also cooks really great chicken tenders, too. I''ve barely eaten anything
    else my whole life.

    SAY_RAW Raven: She sounds very charming.

    SAY_RAW
    Isgard<grin>: She''s a fine example for ladies everywhere. She leaves the windows
    open when she cooks and the smell fills up our whole yard. It makes people passing
    by stop in their tracks and ask what she''s making. Like I said, usually it''s
    chicken tenders. She coats them in a special seasoning on Friday nights to celebrate
    the weekend!

    SAY_RAW Raven<grin>: My daddy does the same thing! Well, mostly
    the same thing. When I''m sick or feeling sad, he''ll surprise me with a banquet
    from my favorite restaurant. I can almost smell the tacos now, made with cabbage,
    just the way I like it...

    SAY_RAW Raven: Uh, in any case, he also hired
    a personal chef for me last year. I''m sure he could recreate your mom''s chicken
    tenders recipe.

    SAY_RAW Isgard<frown>: Oh, I''m not so sure of that. It''s
    a family recipe that''s been passed down for generations. She wrote the story
    on the back of our recipe page. The top of the paper also said "pickyeaters.net".

    SAY_RAW
    Raven<grin>: We''ll just have to combine the two: chicken tender tacos.

    SAY_RAW
    Raven<surprise>: Grumble.

    SAY_RAW Raven<surprise>: Oh dear, please excuse
    me!

    SAY_RAW Isgard<grin>: Sounds like your stomach agrees with you.

    SAY_RAW
    Isgard<angry>: Damn, is that a ketchup stain on my shirt? Not again! That''s
    the third one today! Does anyone around here have laundry...soap...or whatever
    you use?

    SAY_RAW Raven: You know, I''m not even sure what it''s called.
    Maybe wash lather or something? Because you...wash...clothes? I assume that''s
    what happens.

    SAY_RAW Isgard: My mom would know. She always does my laundry
    with this sweet-smelling stuff and returns it in nice folded piles.

    SAY_RAW
    Raven: Daddy just throws out my old clothes when I get them dirty. He has a stylist
    restock my closet before every ball and state dinner.

    SAY_RAW Isgard: Your
    dad sounds like a really nice guy. Mom keeps telling me I need to "update my
    wardrobe", but my Birby t-shirts are just way too comfy to part with.

    SAY_RAW
    Raven<grin>: Your mother sounds very nice, as well. Aren''t parents simply the
    most wonderful things in the world?

    SAY_RAW Isgard<grin>: They really are.

'
  RequiredCharacters:
  - Isgard
  - Raven
  TooltipText: 
  icon: {fileID: 0}
  RequiredSupportLevel: 7
  IsWithNytmur: 0
  AddNightmareBG: 0
