%YAML 1.1
%TAG !u! tag:unity3d.com,2011:
--- !u!114 &11400000
MonoBehaviour:
  m_ObjectHideFlags: 0
  m_CorrespondingSourceObject: {fileID: 0}
  m_PrefabInstance: {fileID: 0}
  m_PrefabAsset: {fileID: 0}
  m_GameObject: {fileID: 0}
  m_Enabled: 1
  m_EditorHideFlags: 0
  m_Script: {fileID: 11500000, guid: ce7eb6b9896181444a47dfcb6571071d, type: 3}
  m_Name: Isgard + Kara 1
  m_EditorClassIdentifier: 
  _HiddenIdentifier: b0c5275d-4ce9-4d1d-91c3-b4bdc1655537
  Identifier: 
  SetupScript: 'SPAWN housebg,0,0,bg

    MUSIC beachhouse'
  Script: "(Only Kara is present at the beginning)\nSAY_RAW Kara: That should be
    the last of my chores. Most people don't think about polishing their shoes, but
    it's an essential part of maintaining a clean image. Now it's time to--\nSAY_RAW
    Kara<angry>: Dear goodness, what is that smell?\n(Isgard enters, facing away
    from Kara until otherwise noted)\nSAY_RAW Isgard<angry>: Come on, rush mid! We
    don't have a lot of time here!\nSAY_RAW Kara<frown>: Isgard needs to yell more
    quietly. He probably left his door open again. I know he won't close it on his
    own, so I suppose I'll have to do it.\nSAY_RAW Kara<angry>: Ugh, that smell is
    like a mix between rotten eggs and vomit...and it's coming straight from his
    room.\nSAY_RAW Isgard: Okay, now flank around the back. I'll distract them from
    the front.\nSAY_RAW Kara<frown>: He's always playing those video games. Doesn't
    he know those will impair his brain? \nSAY_RAW Kara<angry>: Does he even know
    I'm in here? ISGARD!\nSAY_RAW Isgard: ...\nSAY_RAW Kara: Seems not. I may as
    well clean up a bit while I'm in here, if only to protect my nose from further
    damage.\nSAY_RAW Isgard: ...\nSAY_RAW Kara<frown>: How did all this food get
    in here? I didn't know one human could eat this much! Half of it is molded beyond
    consumption.\nSAY_RAW Isgard<angry>: Shoot! Shoot now! Ugh, you missed him!\nSAY_RAW
    Kara: Old tissues and napkins? Those should be thrown away. These cans of Valley
    Don't can be recycled.\nSAY_RAW Kara: I'm going to need more trash bags. I think
    I have a few in my room.\n(Isgard faces towards Kara)\nSAY_RAW Isgard: Oh, hi
    Kara. I didn't hear you come in. Where are you taking my Valley Don't cans?\nSAY_RAW
    Kara<frown>: To the recycling bin, which is where they belong. How can you stand
    the stench of this place? I can smell you from all the way down the hall!\nSAY_RAW
    Isgard: To be honest with you, I didn't even notice it.\nSAY_RAW Kara<frown>:
    That's apparent.\nSAY_RAW Isgard<frown>: I can shut my door if it's really bothering
    you.\nSAY_RAW Kara<frown>: Don't bother. This entire room needs to be sanitized
    anyway.\nSAY_RAW Isgard<angry>: That's your opinion. I'm perfectly okay with
    the state of my chambers.\nSAY_RAW Isgard<angry>: I need to get back to my match.
    See you later.\nSAY_RAW Kara<frown>: Absolutely not. I'm not leaving until you
    agree to keep this pigsty cleaner. Living within a mile of this place is a health
    code violation.\nSAY_RAW Kara<angry>: If you don't keep it clean, I will. And
    I'll trash everything.\nSAY_RAW Isgard<surprise>: N-not my retro magazines!\nSAY_RAW
    Kara<frown>: You know I will. Every last one of them.\nSAY_RAW Isgard<angry>:
    Fine. I'll try and clean up.\nSAY_RAW Kara: I'll be back for an inspection later.\n"
  RequiredCharacters:
  - Kara
  - Isgard
  TooltipText: Cleaning Up
  icon: {fileID: 0}
  RequiredSupportLevel: 1
  IsWithNytmur: 0
  AddNightmareBG: 0
