%YAML 1.1
%TAG !u! tag:unity3d.com,2011:
--- !u!114 &11400000
MonoBehaviour:
  m_ObjectHideFlags: 0
  m_CorrespondingSourceObject: {fileID: 0}
  m_PrefabInstance: {fileID: 0}
  m_PrefabAsset: {fileID: 0}
  m_GameObject: {fileID: 0}
  m_Enabled: 1
  m_EditorHideFlags: 0
  m_Script: {fileID: 11500000, guid: ce7eb6b9896181444a47dfcb6571071d, type: 3}
  m_Name: Kion + Matt Part3
  m_EditorClassIdentifier: 
  _HiddenIdentifier: 6c9a591e-2e4a-494d-a4c0-8f79103d80eb
  Identifier: 
  SetupScript: 'SPAWN beachbg,0,0,bg

    MUSIC beachhouse'
  Script: "(Only Kion is present at the beginning)\nSAY_RAW Kion: Matt's having a
    rough time with this philosophy stuff. I wonder if there's any way I could help
    him.\n(Matt enters, facing away from Kion)\nSAY_RAW Matt: 45...46...47...\nSAY_RAW
    Kion: He's working out again.\nSAY_RAW Kion: Maybe if I ask him now, he'll give
    a better answer. He won't have had time to think about it or anything. Just something
    right off the top of his head.\nSAY_RAW Matt: 49...50.\nSAY_RAW Kion: Matt.\nSAY_RAW
    Matt: Hi again, Kion. Need something?\nSAY_RAW Kion: Let me ask you something.
    Why do you enjoy working out?\nSAY_RAW Matt<grin>: It makes me feel good and
    look good.\nSAY_RAW Kion: Is that it?\nSAY_RAW Matt: Well, the ladies like it,
    too. \nSAY_RAW Kion: Anything else?\nSAY_RAW Matt<frown>: Why are you quizzing
    me?\nSAY_RAW Kion: I'm not, man, I promise. I thought it might help you find
    your philosophy if you don't think about the questions too much.\nSAY_RAW Matt<frown>:
    That's totally different from what you've been saying this whole time.\nSAY_RAW
    Kion: I know, but thinking about it a lot seems to make you more confused. That's
    why I tried this.\nSAY_RAW Kion: So, why do you like working out?\nSAY_RAW Matt:
    I guess I do it because I like exercising. It's a fun activity for me.\nSAY_RAW
    Matt<frown>: That seems too simple. Philosophy has to be complicated, right?\nSAY_RAW
    Kion: Nah, not always. Doing things because you like doing them is its own philosophy.\nSAY_RAW
    Matt<surprise>: Really?\nSAY_RAW Kion: Yeah, man. Pursuit of pleasure is a classic
    school of thought.\nSAY_RAW Matt: Wow. I didn't think it would be that easy.
    I think I understand it now.\nSAY_RAW Matt: What's your philosophy, Kion?\nSAY_RAW
    Kion: Haven't found it yet, man. I just kinda let things happen around me. I'll
    get there eventually, but even if I don't, it's no big deal.\nSAY_RAW Matt: I
    kind of feel that way, too. Whatever happens, happens.\nSAY_RAW Kion: Yeah, man.
    You get it.\nSAY_RAW Matt<grin>: I feel like I'm seeing myself in a whole new
    light. So many things make sense now.\nSAY_RAW Matt<grin>: Thanks, Kion. You
    really helped me out here.\nSAY_RAW Kion: No problem. Glad I could lend a hand.\nSAY_RAW
    Matt: I'm going to spend some time thinking about the things I like--working
    out, women, romance...\nSAY_RAW Matt: I wonder where all that fits in.\nSAY_RAW
    Kion: I'm sure you'll figure it out. Don't think about it too hard, though. Do
    whatever's natural for you, man.\nSAY_RAW Matt: You're right. After I finish
    these crunches, I'll start thinking.\nSAY_RAW Matt: I hope you find your philosophy
    soon, Kion.\nSAY_RAW Kion: Me too, man. But if I don't, that's cool too. Maybe
    it's meant to be that way.\nSAY_RAW Matt: Maybe it is."
  RequiredCharacters:
  - Kion
  - Matt
  TooltipText: Philosophy  pt. 3
  icon: {fileID: 0}
  RequiredSupportLevel: 15
  IsWithNytmur: 0
  AddNightmareBG: 0
