%YAML 1.1
%TAG !u! tag:unity3d.com,2011:
--- !u!114 &11400000
MonoBehaviour:
  m_ObjectHideFlags: 0
  m_CorrespondingSourceObject: {fileID: 0}
  m_PrefabInstance: {fileID: 0}
  m_PrefabAsset: {fileID: 0}
  m_GameObject: {fileID: 0}
  m_Enabled: 1
  m_EditorHideFlags: 0
  m_Script: {fileID: 11500000, guid: 1d43b98b4c65e9c4b8df977d0bc3ce37, type: 3}
  m_Name: prop_19
  m_EditorClassIdentifier: 
  _HiddenIdentifier: 0c128436-2e6f-43ae-8306-41e829a13d83
  Identifier: 
  PropName: Shelf
  PropDescription: 
  PropSprite: {fileID: 6466683442421056840, guid: 5a93c15b94ef6b144b024261a3f41800,
    type: 3}
  Size: {x: 1, y: 1}
  CustomSpriteOffsetPosition: {x: 0, y: 0}
  OverrideStandardOffsetPosition: 0
  AlwaysAvailable: 1
  UnlockFlag: prop_19
  CurrentVarient: -1
  Varients: []
  IsVarient: 1
  TableHeight: 11
  layer: 1
