%YAML 1.1
%TAG !u! tag:unity3d.com,2011:
--- !u!114 &11400000
MonoBehaviour:
  m_ObjectHideFlags: 0
  m_CorrespondingSourceObject: {fileID: 0}
  m_PrefabInstance: {fileID: 0}
  m_PrefabAsset: {fileID: 0}
  m_GameObject: {fileID: 0}
  m_Enabled: 1
  m_EditorHideFlags: 0
  m_Script: {fileID: 11500000, guid: 1d43b98b4c65e9c4b8df977d0bc3ce37, type: 3}
  m_Name: prop_154
  m_EditorClassIdentifier: 
  _HiddenIdentifier: 1060bd15-01e8-4dbc-9251-a2e5a17d7634
  Identifier: 
  PropName: Plant
  PropDescription: 
  PropSprite: {fileID: -4672753954871036185, guid: 5a93c15b94ef6b144b024261a3f41800,
    type: 3}
  Size: {x: 1, y: 1}
  CustomSpriteOffsetPosition: {x: 0, y: 0}
  OverrideStandardOffsetPosition: 0
  AlwaysAvailable: 1
  UnlockFlag: prop_154
  CurrentVarient: -1
  Varients:
  - {fileID: 11400000, guid: 7d0f6bf06ba94df4386d6aa7f815b218, type: 2}
  - {fileID: 11400000, guid: b51881864048d7042bf7b7876b25a779, type: 2}
  - {fileID: 11400000, guid: 309570d130b039e4391d65879b6b0239, type: 2}
  - {fileID: 11400000, guid: fa701d6d24804e244b97c6621a8c7a73, type: 2}
  - {fileID: 11400000, guid: dd7b5e5f5494e0f4481391fdfe5227d6, type: 2}
  - {fileID: 11400000, guid: 8703006b1bf73c14cb53ad552a70061f, type: 2}
  - {fileID: 11400000, guid: f45ab632e19c56d4f954bbbee190067d, type: 2}
  IsVarient: 0
  TableHeight: 0
  layer: 0
