%YAML 1.1
%TAG !u! tag:unity3d.com,2011:
--- !u!114 &11400000
MonoBehaviour:
  m_ObjectHideFlags: 0
  m_CorrespondingSourceObject: {fileID: 0}
  m_PrefabInstance: {fileID: 0}
  m_PrefabAsset: {fileID: 0}
  m_GameObject: {fileID: 0}
  m_Enabled: 1
  m_EditorHideFlags: 0
  m_Script: {fileID: 11500000, guid: 1d43b98b4c65e9c4b8df977d0bc3ce37, type: 3}
  m_Name: reward_prop_10
  m_EditorClassIdentifier: 
  _HiddenIdentifier: 95d1aebc-adbf-4b25-8814-10fefda23cd3
  Identifier: 
  PropName: Hydroponics set
  PropDescription: 'Kion grows all of their herbs in this lighted mini garden. It
    comes with a magnifying glass so they can investigate the leaves'' patterns. '
  PropSprite: {fileID: -3040473732137679707, guid: 743d80012ac87f54ca80838fe4a23ef9,
    type: 3}
  Size: {x: 2, y: 1}
  CustomSpriteOffsetPosition: {x: 0, y: 0}
  OverrideStandardOffsetPosition: 0
  AlwaysAvailable: 0
  UnlockFlag: reward_prop_10
  CurrentVarient: -1
  Varients: []
  IsVarient: 0
  TableHeight: 0
  layer: 4
