%YAML 1.1
%TAG !u! tag:unity3d.com,2011:
--- !u!114 &11400000
MonoBehaviour:
  m_ObjectHideFlags: 0
  m_CorrespondingSourceObject: {fileID: 0}
  m_PrefabInstance: {fileID: 0}
  m_PrefabAsset: {fileID: 0}
  m_GameObject: {fileID: 0}
  m_Enabled: 1
  m_EditorHideFlags: 0
  m_Script: {fileID: 11500000, guid: 1d43b98b4c65e9c4b8df977d0bc3ce37, type: 3}
  m_Name: reward_prop_32
  m_EditorClassIdentifier: 
  _HiddenIdentifier: 8339fc8e-6a8b-44ba-ae5d-5dd0101573ba
  Identifier: 
  PropName: Toothbrush
  PropDescription: Have you been flossing?
  PropSprite: {fileID: -4593866659012320168, guid: 743d80012ac87f54ca80838fe4a23ef9,
    type: 3}
  Size: {x: 1, y: 1}
  CustomSpriteOffsetPosition: {x: 0, y: 0}
  OverrideStandardOffsetPosition: 0
  AlwaysAvailable: 0
  UnlockFlag: reward_prop_32
  CurrentVarient: -1
  Varients: []
  IsVarient: 0
  TableHeight: 0
  layer: 3
