%YAML 1.1
%TAG !u! tag:unity3d.com,2011:
--- !u!114 &11400000
MonoBehaviour:
  m_ObjectHideFlags: 0
  m_CorrespondingSourceObject: {fileID: 0}
  m_PrefabInstance: {fileID: 0}
  m_PrefabAsset: {fileID: 0}
  m_GameObject: {fileID: 0}
  m_Enabled: 1
  m_EditorHideFlags: 0
  m_Script: {fileID: 11500000, guid: 1d43b98b4c65e9c4b8df977d0bc3ce37, type: 3}
  m_Name: reward_prop_40
  m_EditorClassIdentifier: 
  _HiddenIdentifier: 90b9ad5a-e0ad-4106-aadb-aee961440e63
  Identifier: 
  PropName: Lion cub sappling
  PropDescription: It grew from a seed that got stuck on your shirt after defeating
    the lion plant in the Townlands. The blooms growl at you sometimes, but it's
    just being playful...you hope.
  PropSprite: {fileID: 4862865984053023624, guid: 743d80012ac87f54ca80838fe4a23ef9,
    type: 3}
  Size: {x: 1, y: 1}
  CustomSpriteOffsetPosition: {x: 0, y: 0}
  OverrideStandardOffsetPosition: 0
  AlwaysAvailable: 0
  UnlockFlag: reward_prop_40
  CurrentVarient: -1
  Varients: []
  IsVarient: 0
  TableHeight: 0
  layer: 3
