%YAML 1.1
%TAG !u! tag:unity3d.com,2011:
--- !u!114 &11400000
MonoBehaviour:
  m_ObjectHideFlags: 0
  m_CorrespondingSourceObject: {fileID: 0}
  m_PrefabInstance: {fileID: 0}
  m_PrefabAsset: {fileID: 0}
  m_GameObject: {fileID: 0}
  m_Enabled: 1
  m_EditorHideFlags: 0
  m_Script: {fileID: 11500000, guid: d254e6b52433d3a46a23512b18252ee3, type: 3}
  m_Name: Barricade
  m_EditorClassIdentifier: 
  _HiddenIdentifier: 7cee78cb-6ff1-46d3-a28c-66aab6106745
  Identifier: 
  Data:
    presentation: {fileID: 11400000, guid: 43165a04c204a82499e219ae40ae09b0, type: 2}
    Identifier: 
    CharacterName: Barricade
    Description: 
    CurrentLevel: 0
    pos: {x: 0, y: 0}
    IntrinsicTalents: []
    inventory: []
    Spent: 0
    Friendly: 0
    currentDamage: 0
    DoesNotAct: 1
    Unaware: 0
    StartsUnaware: 1
    UnawareAnimatorName: Unaware
    HasDeathQuote: 0
    MaxHP: 2
    Movement: 5
    Strength: 0
    Armor: 0
    BaseNoise: 3
    BaseAlertness: 0
    Strategy: {fileID: 0}
    UnitPrefab: {fileID: 0}
    Mobility: 0
    CannotRaise: 1
    KnifeLocations: []
    CurrentBuffs: []
    currentQuote: 
    Complexity: 1
    IsCat: 0
  AlternateCostumes:
  - {fileID: 11400000, guid: b4e9b2476f0666b428940f534847fd38, type: 2}
  SelectableCharacter: 0
