%YAML 1.1
%TAG !u! tag:unity3d.com,2011:
--- !u!114 &11400000
MonoBehaviour:
  m_ObjectHideFlags: 0
  m_CorrespondingSourceObject: {fileID: 0}
  m_PrefabInstance: {fileID: 0}
  m_PrefabAsset: {fileID: 0}
  m_GameObject: {fileID: 0}
  m_Enabled: 1
  m_EditorHideFlags: 0
  m_Script: {fileID: 11500000, guid: 20e495f08b0393a4d83459b79dc37772, type: 3}
  m_Name: Summon Barricade
  m_EditorClassIdentifier: 
  _HiddenIdentifier: d4fdbaa1-c678-4c29-b33d-bdb47747c284
  Identifier: 
  StackingMethod: 0
  sprite: {fileID: 0}
  TalentName: 
  ShownAsBuff: 0
  CanBeAwardedAsPrize: 0
  Description: ' '
  FlavorText: 
  MapDecorator: {fileID: 0}
  Upgrade: {fileID: 0}
  TicksDownOccupied: 1
  TicksDownUnoccupied: 0
  BlocksMovement: 0
  RequiresNoMovement: 0
  UsesPerRoom: 0
  cooldown: 0
  OverrideCooldownName: 
  _Consumable: 0
  MinRange: 1
  MaxRange: 1
  clip: {fileID: 8300000, guid: 8439c6a687d08f241887ea2346fafd95, type: 3}
  audioPool: {fileID: 11400000, guid: 3ca8b839fdc7b7f4cb9af5a08ab84905, type: 2}
  animatorPool: {fileID: 11400000, guid: 7180dbf2ebe4b204e86f91b1397c0a58, type: 2}
  effectRAC: {fileID: 9100000, guid: 738a1defafdcdb3428f7ebe3afafa68c, type: 2}
  Summonable: {fileID: 11400000, guid: 32007123241fc4047b13a9be7dd77a41, type: 2}
  InitialBuffs: []
