%YAML 1.1
%TAG !u! tag:unity3d.com,2011:
--- !u!114 &11400000
MonoBehaviour:
  m_ObjectHideFlags: 0
  m_CorrespondingSourceObject: {fileID: 0}
  m_PrefabInstance: {fileID: 0}
  m_PrefabAsset: {fileID: 0}
  m_GameObject: {fileID: 0}
  m_Enabled: 1
  m_EditorHideFlags: 0
  m_Script: {fileID: 11500000, guid: 13b75c95f34a00d4e8c04f76b73312e6, type: 3}
  m_Name: Bush2
  m_EditorClassIdentifier: 
  m_AnimatedSprites:
  - {fileID: 3634675738954794377, guid: 065a5c22366a43a419d72167817f224f, type: 3}
  - {fileID: 7566568145335024648, guid: 065a5c22366a43a419d72167817f224f, type: 3}
  m_MinSpeed: 0.75
  m_MaxSpeed: 1.25
  m_AnimationStartTime: 0
  m_AnimationStartFrame: 0
  m_TileColliderType: 1
