%YAML 1.1
%TAG !u! tag:unity3d.com,2011:
--- !u!114 &11400000
MonoBehaviour:
  m_ObjectHideFlags: 0
  m_CorrespondingSourceObject: {fileID: 0}
  m_PrefabInstance: {fileID: 0}
  m_PrefabAsset: {fileID: 0}
  m_GameObject: {fileID: 0}
  m_Enabled: 1
  m_EditorHideFlags: 0
  m_Script: {fileID: 11500000, guid: f2b8ec8027053c14f960d70359828345, type: 3}
  m_Name: Thundercell_Map_Presentation
  m_EditorClassIdentifier: 
  _HiddenIdentifier: dcfb0f66-1493-4581-b168-61303f92e2d4
  Identifier: Generated_Thundercell
  BigSprite: {fileID: 0}
  MapSprite: {fileID: -3524960879304452053, guid: d9411c69d56fa424f8194419c3c21292,
    type: 3}
  AnimatorController: {fileID: 22100000, guid: cbefd509b5c40bf49818d7d47e52e5aa, type: 2}
  Teleporter: 0
  persona: {fileID: 0}
  NametagSmall: {fileID: 0}
  NametagLarge: {fileID: 0}
  IconBackingSmall: {fileID: 0}
  IconBackingSmallSelected: {fileID: 0}
  IconBackingLarge: {fileID: 0}
  StickyNotes: []
  heartSprites: {fileID: 0}
  GhostPresentation: {fileID: 0}
  StarSprite: {fileID: 0}
  NametagSticky: {fileID: 0}
  Complexity: 0
