%YAML 1.1
%TAG !u! tag:unity3d.com,2011:
--- !u!114 &11400000
MonoBehaviour:
  m_ObjectHideFlags: 0
  m_CorrespondingSourceObject: {fileID: 0}
  m_PrefabInstance: {fileID: 0}
  m_PrefabAsset: {fileID: 0}
  m_GameObject: {fileID: 0}
  m_Enabled: 1
  m_EditorHideFlags: 0
  m_Script: {fileID: 11500000, guid: d4276654c5d110e4e99281773998bd9e, type: 3}
  m_Name: Scorpion Enemy
  m_EditorClassIdentifier: 
  _HiddenIdentifier: 35497ee7-2fcc-45ee-9054-6aa5b48b6205
  Identifier: 
  Data:
    presentation: {fileID: 11400000, guid: cf839b85e64087b498a297a805e230d6, type: 2}
    Identifier: Scorpion
    CharacterName: Scorpion
    Description: If it stays out in the cold for too long, the poison in its body
      crystallizes, making it more potent. It can blend into the ground to protect
      itself from predators.
    CurrentLevel: 0
    pos: {x: 0, y: 0}
    IntrinsicTalents:
    - {fileID: 11400000, guid: 464055c93e3703c4c852954c41f8d7e1, type: 2}
    - {fileID: 11400000, guid: d5cb596092269e443a796b6d91cde341, type: 2}
    inventory: []
    Spent: 0
    Friendly: 0
    currentDamage: 0
    DoesNotAct: 0
    Unaware: 0
    StartsUnaware: 1
    UnawareAnimatorName: Unaware
    HasDeathQuote: 0
    MaxHP: 12
    Movement: 5
    Strength: 0
    Armor: 0
    BaseNoise: 3
    BaseAlertness: 0
    Strategy: {fileID: 11400000, guid: 6f55a688338620349b42a312d63c9ae0, type: 2}
    UnitPrefab: {fileID: 0}
    Mobility: 0
    CannotRaise: 0
    KnifeLocations: []
    CurrentBuffs: []
    currentQuote: 
    Complexity: 1
    IsCat: 0
  AlternateCostumes:
  - {fileID: 11400000, guid: bd9110ee996cb8947981faba0388a6a5, type: 2}
  - {fileID: 11400000, guid: 3bf05880f6a10ce418cbe9dcd75b4bf5, type: 2}
  SelectableCharacter: 0
  DebugDisabled: 0
  weight: 100
  Boss: 0
