%YAML 1.1
%TAG !u! tag:unity3d.com,2011:
--- !u!221 &22100000
AnimatorOverrideController:
  m_ObjectHideFlags: 0
  m_CorrespondingSourceObject: {fileID: 0}
  m_PrefabInstance: {fileID: 0}
  m_PrefabAsset: {fileID: 0}
  m_Name: Fox3_Overrides
  m_Controller: {fileID: 9100000, guid: 794e73b68cf50314f80355886c8098b3, type: 2}
  m_Clips:
  - m_OriginalClip: {fileID: 7400000, guid: 2fa792e1d8edb7e488a6532929a3014c, type: 2}
    m_OverrideClip: {fileID: 7400000, guid: 00988b3244dc84240bcc4a7bb5594ae0, type: 2}
  - m_OriginalClip: {fileID: 7400000, guid: 63d7e22ce8309664c86e7ef6c980af44, type: 2}
    m_OverrideClip: {fileID: 7400000, guid: f18b9db1130efc74295139289166dcce, type: 2}
  - m_OriginalClip: {fileID: 7400000, guid: 5f4a0e6243164904591cc7b083bf551c, type: 2}
    m_OverrideClip: {fileID: 7400000, guid: 057ea2c5eb184cd4a858a61e9999a892, type: 2}
  - m_OriginalClip: {fileID: 7400000, guid: 30a85f460e3b657409e4b23c14218cdd, type: 2}
    m_OverrideClip: {fileID: 7400000, guid: a4505545c33078a4281b7fafd77135e2, type: 2}
  - m_OriginalClip: {fileID: 7400000, guid: 260fee49625f0ea448ee7fc767d5d192, type: 2}
    m_OverrideClip: {fileID: 7400000, guid: 4c785298f29f59647b45f665ba25a492, type: 2}
  - m_OriginalClip: {fileID: 7400000, guid: a273764eae197774aa125520754da724, type: 2}
    m_OverrideClip: {fileID: 7400000, guid: 09c50bdf6301ac545ac4898a61ec40d9, type: 2}
  - m_OriginalClip: {fileID: 7400000, guid: f4b4ec5c201292f40a0e0d2c630fcab8, type: 2}
    m_OverrideClip: {fileID: 7400000, guid: f4267032c96db8248b59c1e4e9bbc2f1, type: 2}
  - m_OriginalClip: {fileID: 7400000, guid: 2c50c66858f745442a35c2735506db03, type: 2}
    m_OverrideClip: {fileID: 7400000, guid: bf370c87529462142b835be6c61cd277, type: 2}
  - m_OriginalClip: {fileID: 7400000, guid: 02d6cecd0f43b11479342fff5ddd740f, type: 2}
    m_OverrideClip: {fileID: 7400000, guid: cd2d46a638bf6b14db009740c12eaf78, type: 2}
  - m_OriginalClip: {fileID: 7400000, guid: a81cb08168e89594b8c4b793cbc00ee8, type: 2}
    m_OverrideClip: {fileID: 7400000, guid: fb0bd55fc32d8ea4bb57b2c49f24a612, type: 2}
  - m_OriginalClip: {fileID: 7400000, guid: 6b7c08f38e77d2d4cb2a9249e0e6d822, type: 2}
    m_OverrideClip: {fileID: 7400000, guid: 7de19cd1cb8df8948bd5c9ce3da4353f, type: 2}
  - m_OriginalClip: {fileID: 7400000, guid: 535c499f488ce3c4988f47d18820bc12, type: 2}
    m_OverrideClip: {fileID: 7400000, guid: 9c59b59250ae0644c8f704d456cf982c, type: 2}
  - m_OriginalClip: {fileID: 7400000, guid: 7bfc62403b7e5c34795aa9f88cb4fbc3, type: 2}
    m_OverrideClip: {fileID: 7400000, guid: 90072c74ee26d8c47bae94115f4300a7, type: 2}
  - m_OriginalClip: {fileID: 7400000, guid: 2a26542c3e6d0154da25ae3f59cf6ca9, type: 2}
    m_OverrideClip: {fileID: 7400000, guid: a850df1984c09264aabbbb05553b1b77, type: 2}
  - m_OriginalClip: {fileID: 7400000, guid: 8704da3c091fba049a78bf50172f8ffa, type: 2}
    m_OverrideClip: {fileID: 7400000, guid: 763c7bbb9d9c1ec429182ca3f0a55683, type: 2}
  - m_OriginalClip: {fileID: 7400000, guid: 2b826aca1684a6341877c2c1f0fbe330, type: 2}
    m_OverrideClip: {fileID: 7400000, guid: 7c7cd7214cd80304384c40acba10538c, type: 2}
