%YAML 1.1
%TAG !u! tag:unity3d.com,2011:
--- !u!114 &11400000
MonoBehaviour:
  m_ObjectHideFlags: 0
  m_CorrespondingSourceObject: {fileID: 0}
  m_PrefabInstance: {fileID: 0}
  m_PrefabAsset: {fileID: 0}
  m_GameObject: {fileID: 0}
  m_Enabled: 1
  m_EditorHideFlags: 0
  m_Script: {fileID: 11500000, guid: d4276654c5d110e4e99281773998bd9e, type: 3}
  m_Name: SpinCell
  m_EditorClassIdentifier: 
  _HiddenIdentifier: b0baa8e1-635d-4f27-9215-d56144ca208c
  Identifier: 
  Data:
    presentation: {fileID: 11400000, guid: b17c7b943c7180d46955807d867449cb, type: 2}
    Identifier: 
    CharacterName: Spin Cell
    Description: 
    CurrentLevel: 0
    pos: {x: 0, y: 0}
    IntrinsicTalents:
    - {fileID: 11400000, guid: 6d864849885015549a786ebc0eeda6be, type: 2}
    - {fileID: 11400000, guid: 6d864849885015549a786ebc0eeda6be, type: 2}
    inventory: []
    Spent: 0
    Friendly: 0
    currentDamage: 0
    DoesNotAct: 0
    Unaware: 0
    StartsUnaware: 1
    UnawareAnimatorName: Unaware
    HasDeathQuote: 0
    MaxHP: 6
    Movement: 5
    Strength: 0
    Armor: 0
    BaseNoise: 3
    BaseAlertness: 0
    Strategy: {fileID: 11400000, guid: 6f55a688338620349b42a312d63c9ae0, type: 2}
    UnitPrefab: {fileID: 0}
    Mobility: 0
    CannotRaise: 0
    KnifeLocations: []
    CurrentBuffs: []
    currentQuote: 
    Complexity: 1
    IsCat: 0
  AlternateCostumes: []
  SelectableCharacter: 0
  DebugDisabled: 0
  weight: 100
  Boss: 0
