%YAML 1.1
%TAG !u! tag:unity3d.com,2011:
--- !u!221 &22100000
AnimatorOverrideController:
  m_ObjectHideFlags: 0
  m_CorrespondingSourceObject: {fileID: 0}
  m_PrefabInstance: {fileID: 0}
  m_PrefabAsset: {fileID: 0}
  m_Name: Rat2_Overrides
  m_Controller: {fileID: 9100000, guid: 794e73b68cf50314f80355886c8098b3, type: 2}
  m_Clips:
  - m_OriginalClip: {fileID: 7400000, guid: 2fa792e1d8edb7e488a6532929a3014c, type: 2}
    m_OverrideClip: {fileID: 7400000, guid: 6eff6a6ab5f6f6c468fdeb675e1aaaa4, type: 2}
  - m_OriginalClip: {fileID: 7400000, guid: 63d7e22ce8309664c86e7ef6c980af44, type: 2}
    m_OverrideClip: {fileID: 7400000, guid: e0be622ce74a58a419c7d7b9c4e85449, type: 2}
  - m_OriginalClip: {fileID: 7400000, guid: 5f4a0e6243164904591cc7b083bf551c, type: 2}
    m_OverrideClip: {fileID: 7400000, guid: d3c2b10af67b9f447b0ebccda906d2b7, type: 2}
  - m_OriginalClip: {fileID: 7400000, guid: 30a85f460e3b657409e4b23c14218cdd, type: 2}
    m_OverrideClip: {fileID: 7400000, guid: 28d0cee1baefd944e95bc3d9de00d49c, type: 2}
  - m_OriginalClip: {fileID: 7400000, guid: 260fee49625f0ea448ee7fc767d5d192, type: 2}
    m_OverrideClip: {fileID: 7400000, guid: 98d2dde8c8959144186bd094f6146b94, type: 2}
  - m_OriginalClip: {fileID: 7400000, guid: a273764eae197774aa125520754da724, type: 2}
    m_OverrideClip: {fileID: 7400000, guid: 5da49afd43fe0ae4fa3e6a69461cc7bf, type: 2}
  - m_OriginalClip: {fileID: 7400000, guid: f4b4ec5c201292f40a0e0d2c630fcab8, type: 2}
    m_OverrideClip: {fileID: 7400000, guid: 7fc1741d5ced31740bc38c81f6f6e368, type: 2}
  - m_OriginalClip: {fileID: 7400000, guid: 2c50c66858f745442a35c2735506db03, type: 2}
    m_OverrideClip: {fileID: 7400000, guid: 7c6f00a1fb7698340924f2f7d6dd1a52, type: 2}
  - m_OriginalClip: {fileID: 7400000, guid: 02d6cecd0f43b11479342fff5ddd740f, type: 2}
    m_OverrideClip: {fileID: 7400000, guid: 41b2f8cdf9ed30d4494a171e9560d9cd, type: 2}
  - m_OriginalClip: {fileID: 7400000, guid: a81cb08168e89594b8c4b793cbc00ee8, type: 2}
    m_OverrideClip: {fileID: 7400000, guid: 631621e65e201154ca9aaebbd3991288, type: 2}
  - m_OriginalClip: {fileID: 7400000, guid: 6b7c08f38e77d2d4cb2a9249e0e6d822, type: 2}
    m_OverrideClip: {fileID: 7400000, guid: 8986a3ec1a79c0141a93a454a6946fb3, type: 2}
  - m_OriginalClip: {fileID: 7400000, guid: 535c499f488ce3c4988f47d18820bc12, type: 2}
    m_OverrideClip: {fileID: 7400000, guid: b83a8c8a2716d7d4ebda9618c8ed73a7, type: 2}
  - m_OriginalClip: {fileID: 7400000, guid: 7bfc62403b7e5c34795aa9f88cb4fbc3, type: 2}
    m_OverrideClip: {fileID: 7400000, guid: bb39c459b2ded5d4a950dd18b110ba9c, type: 2}
  - m_OriginalClip: {fileID: 7400000, guid: 2a26542c3e6d0154da25ae3f59cf6ca9, type: 2}
    m_OverrideClip: {fileID: 7400000, guid: 5752a4ae751039c45a385d352d615578, type: 2}
  - m_OriginalClip: {fileID: 7400000, guid: 8704da3c091fba049a78bf50172f8ffa, type: 2}
    m_OverrideClip: {fileID: 7400000, guid: 6c8e0e49de2c61643afd4f2c28b4b5f8, type: 2}
  - m_OriginalClip: {fileID: 7400000, guid: 2b826aca1684a6341877c2c1f0fbe330, type: 2}
    m_OverrideClip: {fileID: 7400000, guid: 2279902c2945ece41ada6d8fd4b58836, type: 2}
