%YAML 1.1
%TAG !u! tag:unity3d.com,2011:
--- !u!74 &7400000
AnimationClip:
  m_ObjectHideFlags: 0
  m_CorrespondingSourceObject: {fileID: 0}
  m_PrefabInstance: {fileID: 0}
  m_PrefabAsset: {fileID: 0}
  m_Name: LavaMonkeyAppear
  serializedVersion: 6
  m_Legacy: 0
  m_Compressed: 0
  m_UseHighQualityCurve: 1
  m_RotationCurves: []
  m_CompressedRotationCurves: []
  m_EulerCurves: []
  m_PositionCurves: []
  m_ScaleCurves: []
  m_FloatCurves:
  - curve:
      serializedVersion: 2
      m_Curve:
      - serializedVersion: 3
        time: 0
        value: 3.875
        inSlope: 0
        outSlope: 0
        tangentMode: 136
        weightedMode: 0
        inWeight: 0
        outWeight: 0
      m_PreInfinity: 2
      m_PostInfinity: 2
      m_RotationOrder: 4
    attribute: m_Size.x
    path: Sprite
    classID: 212
    script: {fileID: 0}
  - curve:
      serializedVersion: 2
      m_Curve:
      - serializedVersion: 3
        time: 0
        value: 3.875
        inSlope: 0
        outSlope: 0
        tangentMode: 136
        weightedMode: 0
        inWeight: 0
        outWeight: 0
      m_PreInfinity: 2
      m_PostInfinity: 2
      m_RotationOrder: 4
    attribute: m_Size.y
    path: Sprite
    classID: 212
    script: {fileID: 0}
  m_PPtrCurves:
  - curve:
    - time: 0
      value: {fileID: 7080181263447506807, guid: 961c7dc4204cca146ad2ef6c06213e68,
        type: 3}
    - time: 0.083333336
      value: {fileID: -8404953871660875063, guid: 961c7dc4204cca146ad2ef6c06213e68,
        type: 3}
    - time: 0.16666667
      value: {fileID: 8362103919217333805, guid: 961c7dc4204cca146ad2ef6c06213e68,
        type: 3}
    - time: 0.25
      value: {fileID: 601160696149152849, guid: 961c7dc4204cca146ad2ef6c06213e68,
        type: 3}
    - time: 0.33333334
      value: {fileID: 7204668257774833487, guid: 961c7dc4204cca146ad2ef6c06213e68,
        type: 3}
    - time: 0.41666666
      value: {fileID: 5284262960486300889, guid: 961c7dc4204cca146ad2ef6c06213e68,
        type: 3}
    - time: 0.5
      value: {fileID: 944022133342315696, guid: 961c7dc4204cca146ad2ef6c06213e68,
        type: 3}
    - time: 0.5833333
      value: {fileID: 3589083641893471583, guid: 961c7dc4204cca146ad2ef6c06213e68,
        type: 3}
    - time: 0.6666667
      value: {fileID: -8200601551199309053, guid: 961c7dc4204cca146ad2ef6c06213e68,
        type: 3}
    - time: 0.75
      value: {fileID: -2279493548378803888, guid: 961c7dc4204cca146ad2ef6c06213e68,
        type: 3}
    - time: 0.8333333
      value: {fileID: -4358825857913998743, guid: 961c7dc4204cca146ad2ef6c06213e68,
        type: 3}
    - time: 0.9166667
      value: {fileID: -6609633981289197709, guid: 961c7dc4204cca146ad2ef6c06213e68,
        type: 3}
    - time: 1
      value: {fileID: -5524441418283111003, guid: 961c7dc4204cca146ad2ef6c06213e68,
        type: 3}
    - time: 1.0833334
      value: {fileID: -8863209896635462978, guid: 961c7dc4204cca146ad2ef6c06213e68,
        type: 3}
    - time: 1.1666666
      value: {fileID: 2485277086991771857, guid: 961c7dc4204cca146ad2ef6c06213e68,
        type: 3}
    attribute: m_Sprite
    path: Sprite
    classID: 212
    script: {fileID: 0}
  m_SampleRate: 12
  m_WrapMode: 0
  m_Bounds:
    m_Center: {x: 0, y: 0, z: 0}
    m_Extent: {x: 0, y: 0, z: 0}
  m_ClipBindingConstant:
    genericBindings:
    - serializedVersion: 2
      path: 850496168
      attribute: 0
      script: {fileID: 0}
      typeID: 212
      customType: 23
      isPPtrCurve: 1
    - serializedVersion: 2
      path: 850496168
      attribute: 4197328169
      script: {fileID: 0}
      typeID: 212
      customType: 0
      isPPtrCurve: 0
    - serializedVersion: 2
      path: 850496168
      attribute: 2368279999
      script: {fileID: 0}
      typeID: 212
      customType: 0
      isPPtrCurve: 0
    pptrCurveMapping:
    - {fileID: 7080181263447506807, guid: 961c7dc4204cca146ad2ef6c06213e68, type: 3}
    - {fileID: -8404953871660875063, guid: 961c7dc4204cca146ad2ef6c06213e68, type: 3}
    - {fileID: 8362103919217333805, guid: 961c7dc4204cca146ad2ef6c06213e68, type: 3}
    - {fileID: 601160696149152849, guid: 961c7dc4204cca146ad2ef6c06213e68, type: 3}
    - {fileID: 7204668257774833487, guid: 961c7dc4204cca146ad2ef6c06213e68, type: 3}
    - {fileID: 5284262960486300889, guid: 961c7dc4204cca146ad2ef6c06213e68, type: 3}
    - {fileID: 944022133342315696, guid: 961c7dc4204cca146ad2ef6c06213e68, type: 3}
    - {fileID: 3589083641893471583, guid: 961c7dc4204cca146ad2ef6c06213e68, type: 3}
    - {fileID: -8200601551199309053, guid: 961c7dc4204cca146ad2ef6c06213e68, type: 3}
    - {fileID: -2279493548378803888, guid: 961c7dc4204cca146ad2ef6c06213e68, type: 3}
    - {fileID: -4358825857913998743, guid: 961c7dc4204cca146ad2ef6c06213e68, type: 3}
    - {fileID: -6609633981289197709, guid: 961c7dc4204cca146ad2ef6c06213e68, type: 3}
    - {fileID: -5524441418283111003, guid: 961c7dc4204cca146ad2ef6c06213e68, type: 3}
    - {fileID: -8863209896635462978, guid: 961c7dc4204cca146ad2ef6c06213e68, type: 3}
    - {fileID: 2485277086991771857, guid: 961c7dc4204cca146ad2ef6c06213e68, type: 3}
  m_AnimationClipSettings:
    serializedVersion: 2
    m_AdditiveReferencePoseClip: {fileID: 0}
    m_AdditiveReferencePoseTime: 0
    m_StartTime: 0
    m_StopTime: 1.25
    m_OrientationOffsetY: 0
    m_Level: 0
    m_CycleOffset: 0
    m_HasAdditiveReferencePose: 0
    m_LoopTime: 1
    m_LoopBlend: 0
    m_LoopBlendOrientation: 0
    m_LoopBlendPositionY: 0
    m_LoopBlendPositionXZ: 0
    m_KeepOriginalOrientation: 0
    m_KeepOriginalPositionY: 1
    m_KeepOriginalPositionXZ: 0
    m_HeightFromFeet: 0
    m_Mirror: 0
  m_EditorCurves:
  - curve:
      serializedVersion: 2
      m_Curve:
      - serializedVersion: 3
        time: 0
        value: 3.875
        inSlope: 0
        outSlope: 0
        tangentMode: 136
        weightedMode: 0
        inWeight: 0
        outWeight: 0
      m_PreInfinity: 2
      m_PostInfinity: 2
      m_RotationOrder: 4
    attribute: m_Size.x
    path: Sprite
    classID: 212
    script: {fileID: 0}
  - curve:
      serializedVersion: 2
      m_Curve:
      - serializedVersion: 3
        time: 0
        value: 3.875
        inSlope: 0
        outSlope: 0
        tangentMode: 136
        weightedMode: 0
        inWeight: 0
        outWeight: 0
      m_PreInfinity: 2
      m_PostInfinity: 2
      m_RotationOrder: 4
    attribute: m_Size.y
    path: Sprite
    classID: 212
    script: {fileID: 0}
  m_EulerEditorCurves: []
  m_HasGenericRootTransform: 0
  m_HasMotionFloatCurves: 0
  m_Events: []
