%YAML 1.1
%TAG !u! tag:unity3d.com,2011:
--- !u!114 &11400000
MonoBehaviour:
  m_ObjectHideFlags: 0
  m_CorrespondingSourceObject: {fileID: 0}
  m_PrefabInstance: {fileID: 0}
  m_PrefabAsset: {fileID: 0}
  m_GameObject: {fileID: 0}
  m_Enabled: 1
  m_EditorHideFlags: 0
  m_Script: {fileID: 11500000, guid: f2b8ec8027053c14f960d70359828345, type: 3}
  m_Name: Bomb Map Presentation
  m_EditorClassIdentifier: 
  _HiddenIdentifier: 734937bf-cceb-468c-87b4-ac8f68449a3d
  Identifier: BombAnimator
  BigSprite: {fileID: 0}
  MapSprite: {fileID: -6969694084022226740, guid: a7fd6d2df3fc4564eb85ae0818a66454,
    type: 3}
  AnimatorController: {fileID: 9100000, guid: 0f0bc3caad69bad4fb5e549c11128ce1, type: 2}
  Teleporter: 0
  persona: {fileID: 0}
  NametagSmall: {fileID: 0}
  NametagLarge: {fileID: 0}
  IconBackingSmall: {fileID: 6736764798738393094, guid: f9e2d9d8444f87e499efe474997d5a78,
    type: 3}
  IconBackingSmallSelected: {fileID: 0}
  IconBackingLarge: {fileID: 0}
  StickyNotes: []
  heartSprites: {fileID: 0}
  GhostPresentation: {fileID: 0}
  StarSprite: {fileID: 0}
  NametagSticky: {fileID: 0}
  Complexity: 0
