%YAML 1.1
%TAG !u! tag:unity3d.com,2011:
--- !u!221 &22100000
AnimatorOverrideController:
  m_ObjectHideFlags: 0
  m_CorrespondingSourceObject: {fileID: 0}
  m_PrefabInstance: {fileID: 0}
  m_PrefabAsset: {fileID: 0}
  m_Name: Luis_Overrides
  m_Controller: {fileID: 9100000, guid: 794e73b68cf50314f80355886c8098b3, type: 2}
  m_Clips:
  - m_OriginalClip: {fileID: 7400000, guid: 2fa792e1d8edb7e488a6532929a3014c, type: 2}
    m_OverrideClip: {fileID: 7400000, guid: 8543625b7d1d466489f88d234452a639, type: 2}
  - m_OriginalClip: {fileID: 7400000, guid: 63d7e22ce8309664c86e7ef6c980af44, type: 2}
    m_OverrideClip: {fileID: 7400000, guid: 1749c11939be6fe47ab502331917dd0e, type: 2}
  - m_OriginalClip: {fileID: 7400000, guid: 5f4a0e6243164904591cc7b083bf551c, type: 2}
    m_OverrideClip: {fileID: 7400000, guid: 882ae95d546e05547aa941fe17b91a81, type: 2}
  - m_OriginalClip: {fileID: 7400000, guid: 30a85f460e3b657409e4b23c14218cdd, type: 2}
    m_OverrideClip: {fileID: 7400000, guid: 59ff6ed4db5facb48916b938eae58425, type: 2}
  - m_OriginalClip: {fileID: 7400000, guid: 260fee49625f0ea448ee7fc767d5d192, type: 2}
    m_OverrideClip: {fileID: 7400000, guid: ec1a735b1ad15ee4ca46b9d1171b260a, type: 2}
  - m_OriginalClip: {fileID: 7400000, guid: a273764eae197774aa125520754da724, type: 2}
    m_OverrideClip: {fileID: 7400000, guid: be486a2c4b76a9a4aab6b6f76864adfb, type: 2}
  - m_OriginalClip: {fileID: 7400000, guid: f4b4ec5c201292f40a0e0d2c630fcab8, type: 2}
    m_OverrideClip: {fileID: 7400000, guid: a0b046df7fe9ad74eafb3394e872e701, type: 2}
  - m_OriginalClip: {fileID: 7400000, guid: 2c50c66858f745442a35c2735506db03, type: 2}
    m_OverrideClip: {fileID: 7400000, guid: 770156dc62f4dbf46840615c3f64397f, type: 2}
