%YAML 1.1
%TAG !u! tag:unity3d.com,2011:
--- !u!114 &11400000
MonoBehaviour:
  m_ObjectHideFlags: 0
  m_CorrespondingSourceObject: {fileID: 0}
  m_PrefabInstance: {fileID: 0}
  m_PrefabAsset: {fileID: 0}
  m_GameObject: {fileID: 0}
  m_Enabled: 1
  m_EditorHideFlags: 0
  m_Script: {fileID: 11500000, guid: d254e6b52433d3a46a23512b18252ee3, type: 3}
  m_Name: Francine Def
  m_EditorClassIdentifier: 
  _HiddenIdentifier: 4b6cf457-4d27-48e6-877d-2006f378bdf2
  Identifier: 
  Data:
    presentation: {fileID: 11400000, guid: 5d28db69a91b31a4ca864097019ea162, type: 2}
    Identifier: Francine
    CharacterName: Francine
    Description: "Francine is an area attacker who stores energy to release high-powered
      finishing moves. She\u2019s a lifelong model and entertainer who\u2019s happy
      to be your big sister.\r"
    CurrentLevel: 0
    pos: {x: 0, y: 0}
    IntrinsicTalents:
    - {fileID: 11400000, guid: d0ba8a07d63148543b111331d7684281, type: 2}
    - {fileID: 11400000, guid: d647cbfe86fe3e342879777191e51e37, type: 2}
    - {fileID: 11400000, guid: d258e620856f2ad4fb12152af829346c, type: 2}
    inventory: []
    Spent: 0
    Friendly: 0
    currentDamage: 0
    DoesNotAct: 0
    Unaware: 0
    StartsUnaware: 1
    UnawareAnimatorName: Unaware
    HasDeathQuote: 1
    MaxHP: 18
    Movement: 5
    Strength: 0
    Armor: 0
    BaseNoise: 3
    BaseAlertness: 0
    Strategy: {fileID: 0}
    UnitPrefab: {fileID: 0}
    Mobility: 0
    CannotRaise: 0
    KnifeLocations: []
    CurrentBuffs: []
    currentQuote: 
    Complexity: 2
    IsCat: 0
  AlternateCostumes: []
  SelectableCharacter: 1
