%YAML 1.1
%TAG !u! tag:unity3d.com,2011:
--- !u!114 &11400000
MonoBehaviour:
  m_ObjectHideFlags: 0
  m_CorrespondingSourceObject: {fileID: 0}
  m_PrefabInstance: {fileID: 0}
  m_PrefabAsset: {fileID: 0}
  m_GameObject: {fileID: 0}
  m_Enabled: 1
  m_EditorHideFlags: 0
  m_Script: {fileID: 11500000, guid: 13b75c95f34a00d4e8c04f76b73312e6, type: 3}
  m_Name: Candelabra
  m_EditorClassIdentifier: 
  m_AnimatedSprites:
  - {fileID: 5731836656552993079, guid: 7f10ea2dd10ce8b4ba6567e0b6bfe7dc, type: 3}
  - {fileID: 1540331489843100129, guid: 7f10ea2dd10ce8b4ba6567e0b6bfe7dc, type: 3}
  - {fileID: 2034753231959628144, guid: 7f10ea2dd10ce8b4ba6567e0b6bfe7dc, type: 3}
  - {fileID: 5731836656552993079, guid: 7f10ea2dd10ce8b4ba6567e0b6bfe7dc, type: 3}
  - {fileID: 1540331489843100129, guid: 7f10ea2dd10ce8b4ba6567e0b6bfe7dc, type: 3}
  - {fileID: 5731836656552993079, guid: 7f10ea2dd10ce8b4ba6567e0b6bfe7dc, type: 3}
  - {fileID: 1540331489843100129, guid: 7f10ea2dd10ce8b4ba6567e0b6bfe7dc, type: 3}
  - {fileID: 5731836656552993079, guid: 7f10ea2dd10ce8b4ba6567e0b6bfe7dc, type: 3}
  - {fileID: 1540331489843100129, guid: 7f10ea2dd10ce8b4ba6567e0b6bfe7dc, type: 3}
  - {fileID: 2034753231959628144, guid: 7f10ea2dd10ce8b4ba6567e0b6bfe7dc, type: 3}
  - {fileID: 5731836656552993079, guid: 7f10ea2dd10ce8b4ba6567e0b6bfe7dc, type: 3}
  - {fileID: 1540331489843100129, guid: 7f10ea2dd10ce8b4ba6567e0b6bfe7dc, type: 3}
  - {fileID: 5731836656552993079, guid: 7f10ea2dd10ce8b4ba6567e0b6bfe7dc, type: 3}
  - {fileID: 1540331489843100129, guid: 7f10ea2dd10ce8b4ba6567e0b6bfe7dc, type: 3}
  - {fileID: 5731836656552993079, guid: 7f10ea2dd10ce8b4ba6567e0b6bfe7dc, type: 3}
  - {fileID: 1540331489843100129, guid: 7f10ea2dd10ce8b4ba6567e0b6bfe7dc, type: 3}
  m_MinSpeed: 5
  m_MaxSpeed: 5
  m_AnimationStartTime: 0
  m_AnimationStartFrame: 0
  m_TileColliderType: 1
