%YAML 1.1
%TAG !u! tag:unity3d.com,2011:
--- !u!114 &11400000
MonoBehaviour:
  m_ObjectHideFlags: 0
  m_CorrespondingSourceObject: {fileID: 0}
  m_PrefabInstance: {fileID: 0}
  m_PrefabAsset: {fileID: 0}
  m_GameObject: {fileID: 0}
  m_Enabled: 1
  m_EditorHideFlags: 0
  m_Script: {fileID: 11500000, guid: d4276654c5d110e4e99281773998bd9e, type: 3}
  m_Name: Boss Firemonkey
  m_EditorClassIdentifier: 
  _HiddenIdentifier: bf3f4c60-53fa-4255-a07a-fe3412ecde31
  Identifier: 
  Data:
    presentation: {fileID: 11400000, guid: 593141388760690468b147b5fbf3af92, type: 2}
    Identifier: 
    CharacterName: Boss Monkey
    Description: These monkeys are the watchful sentinels of the Lavalands. Though
      they are peaceful by nature, they can be bribed to attack with food and magic.
    CurrentLevel: 0
    pos: {x: 0, y: 0}
    IntrinsicTalents:
    - {fileID: 11400000, guid: b08b4c4b2e240154ab4f6ba3c378cfdd, type: 2}
    - {fileID: 11400000, guid: a2ca2ee87678575438fffc1d38c24e7b, type: 2}
    - {fileID: 11400000, guid: 204438324201df54ab01abd882407b1e, type: 2}
    - {fileID: 11400000, guid: 4d51f9f3f72f85a43841c79029150e76, type: 2}
    inventory: []
    Spent: 0
    Friendly: 0
    currentDamage: 0
    DoesNotAct: 0
    Unaware: 0
    StartsUnaware: 1
    UnawareAnimatorName: Unaware
    HasDeathQuote: 0
    MaxHP: 42
    Movement: 5
    Strength: 0
    Armor: 0
    BaseNoise: 3
    BaseAlertness: 0
    Strategy: {fileID: 11400000, guid: daa25fee8ae3e16448810fc820a6b098, type: 2}
    UnitPrefab: {fileID: 0}
    Mobility: 0
    CannotRaise: 0
    KnifeLocations: []
    CurrentBuffs: []
    currentQuote: 
    Complexity: 1
    IsCat: 0
  AlternateCostumes: []
  SelectableCharacter: 0
  DebugDisabled: 0
  weight: 100
  Boss: 1
