%YAML 1.1
%TAG !u! tag:unity3d.com,2011:
--- !u!114 &11400000
MonoBehaviour:
  m_ObjectHideFlags: 0
  m_CorrespondingSourceObject: {fileID: 0}
  m_PrefabInstance: {fileID: 0}
  m_PrefabAsset: {fileID: 0}
  m_GameObject: {fileID: 0}
  m_Enabled: 1
  m_EditorHideFlags: 0
  m_Script: {fileID: 11500000, guid: 9a46a3de3a31c2e4ba9d81dadc19dca0, type: 3}
  m_Name: mini Monkey Moves
  m_EditorClassIdentifier: 
  _HiddenIdentifier: d1488f89-b9b3-4db2-8a08-724a28744db8
  Identifier: 
  WalkSpeed: 1
  ChangeFacingOnAttacks: 1
  BossRoar: {fileID: 8300000, guid: e12b69e30a13fd644b6c5b5f83528a90, type: 3}
  IsAttackScore: 100
  TargetLureMultiplier: 5
  DistanceFromNearestPlayerUnitScore: 0
  DistanceFromNearestOtherEnemyScore: 0
  ScorePerAttackPower: 0
  ScorePerMovement: 1
  HasPlanScore: 30
  Bonus: 500
  PreferredAttacks:
  - {fileID: 11400000, guid: bdd6598e23a8f044693af0c93f0c0716, type: 2}
  - {fileID: 11400000, guid: b08b4c4b2e240154ab4f6ba3c378cfdd, type: 2}
