%YAML 1.1
%TAG !u! tag:unity3d.com,2011:
--- !u!114 &11400000
MonoBehaviour:
  m_ObjectHideFlags: 0
  m_CorrespondingSourceObject: {fileID: 0}
  m_PrefabInstance: {fileID: 0}
  m_PrefabAsset: {fileID: 0}
  m_GameObject: {fileID: 0}
  m_Enabled: 1
  m_EditorHideFlags: 0
  m_Script: {fileID: 11500000, guid: 9a46a3de3a31c2e4ba9d81dadc19dca0, type: 3}
  m_Name: Monkey Moves
  m_EditorClassIdentifier: 
  _HiddenIdentifier: 58a2883f-639f-408d-8ada-faafbf3d35ad
  Identifier: 
  WalkSpeed: 1
  ChangeFacingOnAttacks: 1
  BossRoar: {fileID: 8300000, guid: 1d4eb7b1a4b586d45b71605818c5b0e3, type: 3}
  IsAttackScore: 100
  TargetLureMultiplier: 5
  DistanceFromNearestPlayerUnitScore: 0
  DistanceFromNearestOtherEnemyScore: 0
  ScorePerAttackPower: 0
  ScorePerMovement: 1
  HasPlanScore: 30
  Bonus: 500
  PreferredAttacks:
  - {fileID: 11400000, guid: bdd6598e23a8f044693af0c93f0c0716, type: 2}
  - {fileID: 11400000, guid: b08b4c4b2e240154ab4f6ba3c378cfdd, type: 2}
