%YAML 1.1
%TAG !u! tag:unity3d.com,2011:
--- !u!114 &11400000
MonoBehaviour:
  m_ObjectHideFlags: 0
  m_CorrespondingSourceObject: {fileID: 0}
  m_PrefabInstance: {fileID: 0}
  m_PrefabAsset: {fileID: 0}
  m_GameObject: {fileID: 0}
  m_Enabled: 1
  m_EditorHideFlags: 0
  m_Script: {fileID: 11500000, guid: 1e0fcb397dc74e44691c4558d7dded9c, type: 3}
  m_Name: LION Ai
  m_EditorClassIdentifier: 
  _HiddenIdentifier: 0b575567-b3ef-44f7-af17-94f20b3ad8d2
  Identifier: 
  WalkSpeed: 1
  ChangeFacingOnAttacks: 0
  BossRoar: {fileID: 8300000, guid: c3ca1f180974f77478be90a7af3ee104, type: 3}
  talents:
  - {fileID: 11400000, guid: 7e0b2c0df4089e645aca1d6dfaf72e97, type: 2}
  - {fileID: 11400000, guid: ff6cbbecafcb41e4ba6f994d3596d9c9, type: 2}
  - {fileID: 11400000, guid: 6634a0a4d6c699a4099e4ea24fdf703a, type: 2}
