%YAML 1.1
%TAG !u! tag:unity3d.com,2011:
--- !u!114 &11400000
MonoBehaviour:
  m_ObjectHideFlags: 0
  m_CorrespondingSourceObject: {fileID: 0}
  m_PrefabInstance: {fileID: 0}
  m_PrefabAsset: {fileID: 0}
  m_GameObject: {fileID: 0}
  m_Enabled: 1
  m_EditorHideFlags: 0
  m_Script: {fileID: 11500000, guid: 8ede2ea4fbc898144be9260dc8a1ff30, type: 3}
  m_Name: Town World
  m_EditorClassIdentifier: 
  _HiddenIdentifier: 05834d44-6cbd-416b-b822-740d804c5e8a
  Identifier: town
  Maps:
  - {fileID: 2966556246673960955, guid: 265a49c37699f094b8aad5632463b769, type: 3}
  - {fileID: 2966556246673960955, guid: 4850589934281cf459a7a2415f2842ec, type: 3}
  - {fileID: 2966556246673960955, guid: 4850feae7810d59409ec3e18ba2b5a0c, type: 3}
  - {fileID: 2966556246673960955, guid: 95c499ac10583984eb774bb5427d0415, type: 3}
  - {fileID: 2966556246673960955, guid: 0a7193f7858fcb74a9070836a0c7f35d, type: 3}
  LevelsCount: 5
  enemies:
  - {fileID: 11400000, guid: 2006fad28398b094b8d6f2417387f779, type: 2}
  - {fileID: 11400000, guid: c917c2495e27aa94ca9c5b846b93b78f, type: 2}
  - {fileID: 11400000, guid: c7c63c132984d7647acfe558c76c2919, type: 2}
  - {fileID: 11400000, guid: 72183c7b61bc81548bc2b6b9fb77b534, type: 2}
  - {fileID: 11400000, guid: 620a62a0d1280c449ba6c5a0e3e92163, type: 2}
  IntroCutscene: {fileID: 11400000, guid: 82a87229ab48b48428e0c092009285b3, type: 2}
  BossCutscene: {fileID: 11400000, guid: 8b17d4e36f3ba5347b940d2300c842fd, type: 2}
  StageCompleteCutscene: {fileID: 11400000, guid: 5c6803028fbf045418a17ba2d449c371,
    type: 2}
  PowerupStationBG: {fileID: 6620262873983665083, guid: e21042fb5f2df1840b634b6227bab5a4,
    type: 3}
  TreasureChestDefinition: {fileID: 11400000, guid: 7c2385552990b7246965bb785d71532f,
    type: 2}
