%YAML 1.1
%TAG !u! tag:unity3d.com,2011:
--- !u!114 &11400000
MonoBehaviour:
  m_ObjectHideFlags: 0
  m_CorrespondingSourceObject: {fileID: 0}
  m_PrefabInstance: {fileID: 0}
  m_PrefabAsset: {fileID: 0}
  m_GameObject: {fileID: 0}
  m_Enabled: 1
  m_EditorHideFlags: 0
  m_Script: {fileID: 11500000, guid: 41b28f323a73fa346a3aa7e427b3081e, type: 3}
  m_Name: Cave Grotto
  m_EditorClassIdentifier: 
  _HiddenIdentifier: d7e383d5-22a0-424e-8f3b-7e94ca18e3d7
  Identifier: CaveGrotto
  prefab: {fileID: 6620262873983665083, guid: 0f6092a4531c4e944b13e5a174fa4cdc, type: 3}
  Message: 
