%YAML 1.1
%TAG !u! tag:unity3d.com,2011:
--- !u!114 &11400000
MonoBehaviour:
  m_ObjectHideFlags: 0
  m_CorrespondingSourceObject: {fileID: 0}
  m_PrefabInstance: {fileID: 0}
  m_PrefabAsset: {fileID: 0}
  m_GameObject: {fileID: 0}
  m_Enabled: 1
  m_EditorHideFlags: 0
  m_Script: {fileID: 11500000, guid: 41b28f323a73fa346a3aa7e427b3081e, type: 3}
  m_Name: Cave Boss Map
  m_EditorClassIdentifier: 
  _HiddenIdentifier: 97d81948-c93e-41d7-8ab6-7bb8a8a25eaf
  Identifier: CaveBossMap
  prefab: {fileID: 6620262873983665083, guid: 43d0755128cd6ab4487d6be3d4c92abf, type: 3}
  Message: 
