%YAML 1.1
%TAG !u! tag:unity3d.com,2011:
--- !u!114 &11400000
MonoBehaviour:
  m_ObjectHideFlags: 0
  m_CorrespondingSourceObject: {fileID: 0}
  m_PrefabInstance: {fileID: 0}
  m_PrefabAsset: {fileID: 0}
  m_GameObject: {fileID: 0}
  m_Enabled: 1
  m_EditorHideFlags: 0
  m_Script: {fileID: 11500000, guid: 41b28f323a73fa346a3aa7e427b3081e, type: 3}
  m_Name: Cloudlands Boss
  m_EditorClassIdentifier: 
  _HiddenIdentifier: 264084ab-4d3d-46d2-b51b-9f3d55d13bc0
  Identifier: cloud_boss
  prefab: {fileID: 6620262873983665083, guid: bd61cb797f85fbb44a963a46636262b4, type: 3}
  Message: 
