%YAML 1.1
%TAG !u! tag:unity3d.com,2011:
--- !u!114 &11400000
MonoBehaviour:
  m_ObjectHideFlags: 0
  m_CorrespondingSourceObject: {fileID: 0}
  m_PrefabInstance: {fileID: 0}
  m_PrefabAsset: {fileID: 0}
  m_GameObject: {fileID: 0}
  m_Enabled: 1
  m_EditorHideFlags: 0
  m_Script: {fileID: 11500000, guid: 41b28f323a73fa346a3aa7e427b3081e, type: 3}
  m_Name: Forest BG
  m_EditorClassIdentifier: 
  _HiddenIdentifier: df9edb41-3c43-4bc1-ab24-b7201a3555ac
  Identifier: forestbg
  prefab: {fileID: 6414934189182030678, guid: 30aba8570550d2e4084945333b43ea18, type: 3}
  Message: 
