%YAML 1.1
%TAG !u! tag:unity3d.com,2011:
--- !u!114 &11400000
MonoBehaviour:
  m_ObjectHideFlags: 0
  m_CorrespondingSourceObject: {fileID: 0}
  m_PrefabInstance: {fileID: 0}
  m_PrefabAsset: {fileID: 0}
  m_GameObject: {fileID: 0}
  m_Enabled: 1
  m_EditorHideFlags: 0
  m_Script: {fileID: 11500000, guid: 41b28f323a73fa346a3aa7e427b3081e, type: 3}
  m_Name: Schoolhouse
  m_EditorClassIdentifier: 
  _HiddenIdentifier: 6eaa626a-8d43-48fd-b9cf-70d3bdcd16d4
  Identifier: schoolhouse
  prefab: {fileID: 7384651082798846089, guid: 267ddd85759a36345b0086b14f007e38, type: 3}
  Message: 
