%YAML 1.1
%TAG !u! tag:unity3d.com,2011:
--- !u!114 &11400000
MonoBehaviour:
  m_ObjectHideFlags: 0
  m_CorrespondingSourceObject: {fileID: 0}
  m_PrefabInstance: {fileID: 0}
  m_PrefabAsset: {fileID: 0}
  m_GameObject: {fileID: 0}
  m_Enabled: 1
  m_EditorHideFlags: 0
  m_Script: {fileID: 11500000, guid: 6e955810601e74fa398f6f6b9cab94e6, type: 3}
  m_Name: Destroy Friends on Death
  m_EditorClassIdentifier: 
  _HiddenIdentifier: d0d0647d-3835-4ba1-8905-e42b974c9042
  Identifier: 
  StackingMethod: 0
  sprite: {fileID: -1739163679129328277, guid: ba1dc43b902473847a7763d515a6edae, type: 3}
  TalentName: 
  ShownAsBuff: 0
  CanBeAwardedAsPrize: 0
  Description: Destroys allies when you beat the boss.
  FlavorText: Uh oh!
  MapDecorator: {fileID: 0}
  Upgrade: {fileID: 0}
  TicksDownOccupied: 1
  TicksDownUnoccupied: 0
  BlocksMovement: 0
