%YAML 1.1
%TAG !u! tag:unity3d.com,2011:
--- !u!114 &11400000
MonoBehaviour:
  m_ObjectHideFlags: 0
  m_CorrespondingSourceObject: {fileID: 0}
  m_PrefabInstance: {fileID: 0}
  m_PrefabAsset: {fileID: 0}
  m_GameObject: {fileID: 0}
  m_Enabled: 1
  m_EditorHideFlags: 0
  m_Script: {fileID: 11500000, guid: 1adace4e187270a4a9df413618d7183c, type: 3}
  m_Name: Glow
  m_EditorClassIdentifier: 
  _HiddenIdentifier: 1f7f3fcd-961f-4583-b40c-0d3a57bc1d42
  Identifier: Glow
  controller: {fileID: 9100000, guid: 738a1defafdcdb3428f7ebe3afafa68c, type: 2}
